%!PS-Adobe-3.0 EPSF-3.0
%%Creator: (MATLAB, The Mathworks, Inc. Version 9.2.0.556344 \(R2017a\). Operating System: Windows 8)
%%Title: ./../paper_mercury/figures/plot_s_parameters_high_gain_vs_wideband_S11_simulated.eps
%%CreationDate: 2017-10-22T11:25:39
%%Pages: (atend)
%%BoundingBox:     8     0   382   297
%%LanguageLevel: 3
%%EndComments
%%BeginProlog
%%BeginResource: procset (Apache XML Graphics Std ProcSet) 1.2 0
%%Version: 1.2 0
%%Copyright: (Copyright 2001-2003,2010 The Apache Software Foundation. License terms: http://www.apache.org/licenses/LICENSE-2.0)
/bd{bind def}bind def
/ld{load def}bd
/GR/grestore ld
/M/moveto ld
/LJ/setlinejoin ld
/C/curveto ld
/f/fill ld
/LW/setlinewidth ld
/GC/setgray ld
/t/show ld
/N/newpath ld
/CT/concat ld
/cp/closepath ld
/S/stroke ld
/L/lineto ld
/CC/setcmykcolor ld
/A/ashow ld
/GS/gsave ld
/RC/setrgbcolor ld
/RM/rmoveto ld
/ML/setmiterlimit ld
/re {4 2 roll M
1 index 0 rlineto
0 exch rlineto
neg 0 rlineto
cp } bd
/_ctm matrix def
/_tm matrix def
/BT { _ctm currentmatrix pop matrix _tm copy pop 0 0 moveto } bd
/ET { _ctm setmatrix } bd
/iTm { _ctm setmatrix _tm concat } bd
/Tm { _tm astore pop iTm 0 0 moveto } bd
/ux 0.0 def
/uy 0.0 def
/F {
  /Tp exch def
  /Tf exch def
  Tf findfont Tp scalefont setfont
  /cf Tf def  /cs Tp def
} bd
/ULS {currentpoint /uy exch def /ux exch def} bd
/ULE {
  /Tcx currentpoint pop def
  gsave
  newpath
  cf findfont cs scalefont dup
  /FontMatrix get 0 get /Ts exch def /FontInfo get dup
  /UnderlinePosition get Ts mul /To exch def
  /UnderlineThickness get Ts mul /Tt exch def
  ux uy To add moveto  Tcx uy To add lineto
  Tt setlinewidth stroke
  grestore
} bd
/OLE {
  /Tcx currentpoint pop def
  gsave
  newpath
  cf findfont cs scalefont dup
  /FontMatrix get 0 get /Ts exch def /FontInfo get dup
  /UnderlinePosition get Ts mul /To exch def
  /UnderlineThickness get Ts mul /Tt exch def
  ux uy To add cs add moveto Tcx uy To add cs add lineto
  Tt setlinewidth stroke
  grestore
} bd
/SOE {
  /Tcx currentpoint pop def
  gsave
  newpath
  cf findfont cs scalefont dup
  /FontMatrix get 0 get /Ts exch def /FontInfo get dup
  /UnderlinePosition get Ts mul /To exch def
  /UnderlineThickness get Ts mul /Tt exch def
  ux uy To add cs 10 mul 26 idiv add moveto Tcx uy To add cs 10 mul 26 idiv add lineto
  Tt setlinewidth stroke
  grestore
} bd
/QT {
/Y22 exch store
/X22 exch store
/Y21 exch store
/X21 exch store
currentpoint
/Y21 load 2 mul add 3 div exch
/X21 load 2 mul add 3 div exch
/X21 load 2 mul /X22 load add 3 div
/Y21 load 2 mul /Y22 load add 3 div
/X22 load /Y22 load curveto
} bd
/SSPD {
dup length /d exch dict def
{
/v exch def
/k exch def
currentpagedevice k known {
/cpdv currentpagedevice k get def
v cpdv ne {
/upd false def
/nullv v type /nulltype eq def
/nullcpdv cpdv type /nulltype eq def
nullv nullcpdv or
{
/upd true def
} {
/sametype v type cpdv type eq def
sametype {
v type /arraytype eq {
/vlen v length def
/cpdvlen cpdv length def
vlen cpdvlen eq {
0 1 vlen 1 sub {
/i exch def
/obj v i get def
/cpdobj cpdv i get def
obj cpdobj ne {
/upd true def
exit
} if
} for
} {
/upd true def
} ifelse
} {
v type /dicttype eq {
v {
/dv exch def
/dk exch def
/cpddv cpdv dk get def
dv cpddv ne {
/upd true def
exit
} if
} forall
} {
/upd true def
} ifelse
} ifelse
} if
} ifelse
upd true eq {
d k v put
} if
} if
} if
} forall
d length 0 gt {
d setpagedevice
} if
} bd
/RE { % /NewFontName [NewEncodingArray] /FontName RE -
  findfont dup length dict begin
  {
    1 index /FID ne
    {def} {pop pop} ifelse
  } forall
  /Encoding exch def
  /FontName 1 index def
  currentdict definefont pop
  end
} bind def
%%EndResource
%%BeginResource: procset (Apache XML Graphics EPS ProcSet) 1.0 0
%%Version: 1.0 0
%%Copyright: (Copyright 2002-2003 The Apache Software Foundation. License terms: http://www.apache.org/licenses/LICENSE-2.0)
/BeginEPSF { %def
/b4_Inc_state save def         % Save state for cleanup
/dict_count countdictstack def % Count objects on dict stack
/op_count count 1 sub def      % Count objects on operand stack
userdict begin                 % Push userdict on dict stack
/showpage { } def              % Redefine showpage, { } = null proc
0 setgray 0 setlinecap         % Prepare graphics state
1 setlinewidth 0 setlinejoin
10 setmiterlimit [ ] 0 setdash newpath
/languagelevel where           % If level not equal to 1 then
{pop languagelevel             % set strokeadjust and
1 ne                           % overprint to their defaults.
{false setstrokeadjust false setoverprint
} if
} if
} bd
/EndEPSF { %def
count op_count sub {pop} repeat            % Clean up stacks
countdictstack dict_count sub {end} repeat
b4_Inc_state restore
} bd
%%EndResource
%FOPBeginFontDict
%%IncludeResource: font Courier-Bold
%%IncludeResource: font Helvetica
%%IncludeResource: font Courier-BoldOblique
%%IncludeResource: font Courier-Oblique
%%IncludeResource: font Times-Roman
%%IncludeResource: font Helvetica-BoldOblique
%%IncludeResource: font Helvetica-Bold
%%IncludeResource: font Helvetica-Oblique
%%IncludeResource: font Times-BoldItalic
%%IncludeResource: font Courier
%%IncludeResource: font Times-Italic
%%IncludeResource: font Times-Bold
%%IncludeResource: font Symbol
%%IncludeResource: font ZapfDingbats
%FOPEndFontDict
%%BeginResource: encoding WinAnsiEncoding
/WinAnsiEncoding [
/.notdef /.notdef /.notdef /.notdef /.notdef
/.notdef /.notdef /.notdef /.notdef /.notdef
/.notdef /.notdef /.notdef /.notdef /.notdef
/.notdef /.notdef /.notdef /.notdef /.notdef
/.notdef /.notdef /.notdef /.notdef /.notdef
/.notdef /.notdef /.notdef /.notdef /.notdef
/.notdef /.notdef /space /exclam /quotedbl
/numbersign /dollar /percent /ampersand /quotesingle
/parenleft /parenright /asterisk /plus /comma
/hyphen /period /slash /zero /one
/two /three /four /five /six
/seven /eight /nine /colon /semicolon
/less /equal /greater /question /at
/A /B /C /D /E
/F /G /H /I /J
/K /L /M /N /O
/P /Q /R /S /T
/U /V /W /X /Y
/Z /bracketleft /backslash /bracketright /asciicircum
/underscore /quoteleft /a /b /c
/d /e /f /g /h
/i /j /k /l /m
/n /o /p /q /r
/s /t /u /v /w
/x /y /z /braceleft /bar
/braceright /asciitilde /bullet /Euro /bullet
/quotesinglbase /florin /quotedblbase /ellipsis /dagger
/daggerdbl /circumflex /perthousand /Scaron /guilsinglleft
/OE /bullet /Zcaron /bullet /bullet
/quoteleft /quoteright /quotedblleft /quotedblright /bullet
/endash /emdash /asciitilde /trademark /scaron
/guilsinglright /oe /bullet /zcaron /Ydieresis
/space /exclamdown /cent /sterling /currency
/yen /brokenbar /section /dieresis /copyright
/ordfeminine /guillemotleft /logicalnot /sfthyphen /registered
/macron /degree /plusminus /twosuperior /threesuperior
/acute /mu /paragraph /middot /cedilla
/onesuperior /ordmasculine /guillemotright /onequarter /onehalf
/threequarters /questiondown /Agrave /Aacute /Acircumflex
/Atilde /Adieresis /Aring /AE /Ccedilla
/Egrave /Eacute /Ecircumflex /Edieresis /Igrave
/Iacute /Icircumflex /Idieresis /Eth /Ntilde
/Ograve /Oacute /Ocircumflex /Otilde /Odieresis
/multiply /Oslash /Ugrave /Uacute /Ucircumflex
/Udieresis /Yacute /Thorn /germandbls /agrave
/aacute /acircumflex /atilde /adieresis /aring
/ae /ccedilla /egrave /eacute /ecircumflex
/edieresis /igrave /iacute /icircumflex /idieresis
/eth /ntilde /ograve /oacute /ocircumflex
/otilde /odieresis /divide /oslash /ugrave
/uacute /ucircumflex /udieresis /yacute /thorn
/ydieresis
] def
%%EndResource
%FOPBeginFontReencode
/Courier-Bold findfont
dup length dict begin
  {1 index /FID ne {def} {pop pop} ifelse} forall
  /Encoding WinAnsiEncoding def
  currentdict
end
/Courier-Bold exch definefont pop
/Helvetica findfont
dup length dict begin
  {1 index /FID ne {def} {pop pop} ifelse} forall
  /Encoding WinAnsiEncoding def
  currentdict
end
/Helvetica exch definefont pop
/Courier-BoldOblique findfont
dup length dict begin
  {1 index /FID ne {def} {pop pop} ifelse} forall
  /Encoding WinAnsiEncoding def
  currentdict
end
/Courier-BoldOblique exch definefont pop
/Courier-Oblique findfont
dup length dict begin
  {1 index /FID ne {def} {pop pop} ifelse} forall
  /Encoding WinAnsiEncoding def
  currentdict
end
/Courier-Oblique exch definefont pop
/Times-Roman findfont
dup length dict begin
  {1 index /FID ne {def} {pop pop} ifelse} forall
  /Encoding WinAnsiEncoding def
  currentdict
end
/Times-Roman exch definefont pop
/Helvetica-BoldOblique findfont
dup length dict begin
  {1 index /FID ne {def} {pop pop} ifelse} forall
  /Encoding WinAnsiEncoding def
  currentdict
end
/Helvetica-BoldOblique exch definefont pop
/Helvetica-Bold findfont
dup length dict begin
  {1 index /FID ne {def} {pop pop} ifelse} forall
  /Encoding WinAnsiEncoding def
  currentdict
end
/Helvetica-Bold exch definefont pop
/Helvetica-Oblique findfont
dup length dict begin
  {1 index /FID ne {def} {pop pop} ifelse} forall
  /Encoding WinAnsiEncoding def
  currentdict
end
/Helvetica-Oblique exch definefont pop
/Times-BoldItalic findfont
dup length dict begin
  {1 index /FID ne {def} {pop pop} ifelse} forall
  /Encoding WinAnsiEncoding def
  currentdict
end
/Times-BoldItalic exch definefont pop
/Courier findfont
dup length dict begin
  {1 index /FID ne {def} {pop pop} ifelse} forall
  /Encoding WinAnsiEncoding def
  currentdict
end
/Courier exch definefont pop
/Times-Italic findfont
dup length dict begin
  {1 index /FID ne {def} {pop pop} ifelse} forall
  /Encoding WinAnsiEncoding def
  currentdict
end
/Times-Italic exch definefont pop
/Times-Bold findfont
dup length dict begin
  {1 index /FID ne {def} {pop pop} ifelse} forall
  /Encoding WinAnsiEncoding def
  currentdict
end
/Times-Bold exch definefont pop
%FOPEndFontReencode
%%EndProlog
%%Page: 1 1
%%PageBoundingBox: 0 0 420 315
%%BeginPageSetup
[1 0 0 -1 0 315] CT
%%EndPageSetup
GS
[0.75 0 0 0.75 0 0] CT
1 GC
N
0 0 560 420 re
f
GR
GS
[0.75 0 0 0.75 0 0] CT
1 GC
N
0 0 560 420 re
f
GR
GS
[0.75 0 0 0.75 0 0] CT
1 GC
N
73 358 M
507 358 L
507 31 L
73 31 L
cp
f
GR
GS
[0.75 0 0 0.75 0 0] CT
0.873 GC
1 LJ
0.667 LW
N
73 358 M
73 31 L
S
GR
GS
[0.75 0 0 0.75 0 0] CT
0.873 GC
1 LJ
0.667 LW
N
145.333 358 M
145.333 31 L
S
GR
GS
[0.75 0 0 0.75 0 0] CT
0.873 GC
1 LJ
0.667 LW
N
217.667 358 M
217.667 31 L
S
GR
GS
[0.75 0 0 0.75 0 0] CT
0.873 GC
1 LJ
0.667 LW
N
290 358 M
290 31 L
S
GR
GS
[0.75 0 0 0.75 0 0] CT
0.873 GC
1 LJ
0.667 LW
N
362.333 358 M
362.333 31 L
S
GR
GS
[0.75 0 0 0.75 0 0] CT
0.873 GC
1 LJ
0.667 LW
N
434.667 358 M
434.667 31 L
S
GR
GS
[0.75 0 0 0.75 0 0] CT
0.873 GC
1 LJ
0.667 LW
N
507 332.184 M
73 332.184 L
S
GR
GS
[0.75 0 0 0.75 0 0] CT
0.873 GC
1 LJ
0.667 LW
N
507 289.158 M
73 289.158 L
S
GR
GS
[0.75 0 0 0.75 0 0] CT
0.873 GC
1 LJ
0.667 LW
N
507 246.132 M
73 246.132 L
S
GR
GS
[0.75 0 0 0.75 0 0] CT
0.873 GC
1 LJ
0.667 LW
N
507 203.105 M
73 203.105 L
S
GR
GS
[0.75 0 0 0.75 0 0] CT
0.873 GC
1 LJ
0.667 LW
N
507 160.079 M
73 160.079 L
S
GR
GS
[0.75 0 0 0.75 0 0] CT
0.873 GC
1 LJ
0.667 LW
N
507 117.053 M
73 117.053 L
S
GR
GS
[0.75 0 0 0.75 0 0] CT
0.873 GC
1 LJ
0.667 LW
N
507 74.026 M
73 74.026 L
S
GR
GS
[0.75 0 0 0.75 0 0] CT
0.873 GC
1 LJ
0.667 LW
N
507 31 M
73 31 L
S
GR
GS
[0.75 0 0 0.75 0 0] CT
0.149 GC
2 setlinecap
1 LJ
0.667 LW
N
73 358 M
507 358 L
S
GR
GS
[0.75 0 0 0.75 0 0] CT
0.149 GC
2 setlinecap
1 LJ
0.667 LW
N
73 31 M
507 31 L
S
GR
GS
[0.75 0 0 0.75 0 0] CT
0.149 GC
2 setlinecap
1 LJ
0.667 LW
N
73 358 M
73 353.66 L
S
GR
GS
[0.75 0 0 0.75 0 0] CT
0.149 GC
2 setlinecap
1 LJ
0.667 LW
N
145.333 358 M
145.333 353.66 L
S
GR
GS
[0.75 0 0 0.75 0 0] CT
0.149 GC
2 setlinecap
1 LJ
0.667 LW
N
217.667 358 M
217.667 353.66 L
S
GR
GS
[0.75 0 0 0.75 0 0] CT
0.149 GC
2 setlinecap
1 LJ
0.667 LW
N
290 358 M
290 353.66 L
S
GR
GS
[0.75 0 0 0.75 0 0] CT
0.149 GC
2 setlinecap
1 LJ
0.667 LW
N
362.333 358 M
362.333 353.66 L
S
GR
GS
[0.75 0 0 0.75 0 0] CT
0.149 GC
2 setlinecap
1 LJ
0.667 LW
N
434.667 358 M
434.667 353.66 L
S
GR
GS
[0.75 0 0 0.75 0 0] CT
0.149 GC
2 setlinecap
1 LJ
0.667 LW
N
73 31 M
73 35.34 L
S
GR
GS
[0.75 0 0 0.75 0 0] CT
0.149 GC
2 setlinecap
1 LJ
0.667 LW
N
145.333 31 M
145.333 35.34 L
S
GR
GS
[0.75 0 0 0.75 0 0] CT
0.149 GC
2 setlinecap
1 LJ
0.667 LW
N
217.667 31 M
217.667 35.34 L
S
GR
GS
[0.75 0 0 0.75 0 0] CT
0.149 GC
2 setlinecap
1 LJ
0.667 LW
N
290 31 M
290 35.34 L
S
GR
GS
[0.75 0 0 0.75 0 0] CT
0.149 GC
2 setlinecap
1 LJ
0.667 LW
N
362.333 31 M
362.333 35.34 L
S
GR
GS
[0.75 0 0 0.75 0 0] CT
0.149 GC
2 setlinecap
1 LJ
0.667 LW
N
434.667 31 M
434.667 35.34 L
S
GR
GS
[0.75 0 0 0.75 54.75 273.70001] CT
0.149 GC
/Helvetica 21.333 F
GS
[1 0 0 1 0 0] CT
-12 22 moveto 
1 -1 scale
(20) t 
GR
GR
GS
[0.75 0 0 0.75 109.00002 273.70001] CT
0.149 GC
/Helvetica 21.333 F
GS
[1 0 0 1 0 0] CT
-12 22 moveto 
1 -1 scale
(21) t 
GR
GR
GS
[0.75 0 0 0.75 163.25004 273.70001] CT
0.149 GC
/Helvetica 21.333 F
GS
[1 0 0 1 0 0] CT
-12 22 moveto 
1 -1 scale
(22) t 
GR
GR
GS
[0.75 0 0 0.75 217.50005 273.70001] CT
0.149 GC
/Helvetica 21.333 F
GS
[1 0 0 1 0 0] CT
-12 22 moveto 
1 -1 scale
(23) t 
GR
GR
GS
[0.75 0 0 0.75 271.75008 273.70001] CT
0.149 GC
/Helvetica 21.333 F
GS
[1 0 0 1 0 0] CT
-12 22 moveto 
1 -1 scale
(24) t 
GR
GR
GS
[0.75 0 0 0.75 326.00008 273.70001] CT
0.149 GC
/Helvetica 21.333 F
GS
[1 0 0 1 0 0] CT
-12 22 moveto 
1 -1 scale
(25) t 
GR
GR
GS
[0.75 0 0 0.75 217.50016 294.75] CT
0.149 GC
/Helvetica 21.333 F
GS
[1 0 0 1 0 0] CT
-81 22 moveto 
1 -1 scale
(Frequency \(GHz\)) t 
GR
GR
GS
[0.75 0 0 0.75 0 0] CT
0.149 GC
2 setlinecap
1 LJ
0.667 LW
N
73 358 M
73 31 L
S
GR
GS
[0.75 0 0 0.75 0 0] CT
0.149 GC
2 setlinecap
1 LJ
0.667 LW
N
507 358 M
507 31 L
S
GR
GS
[0.75 0 0 0.75 0 0] CT
0.149 GC
2 setlinecap
1 LJ
0.667 LW
N
73 332.184 M
77.34 332.184 L
S
GR
GS
[0.75 0 0 0.75 0 0] CT
0.149 GC
2 setlinecap
1 LJ
0.667 LW
N
73 289.158 M
77.34 289.158 L
S
GR
GS
[0.75 0 0 0.75 0 0] CT
0.149 GC
2 setlinecap
1 LJ
0.667 LW
N
73 246.132 M
77.34 246.132 L
S
GR
GS
[0.75 0 0 0.75 0 0] CT
0.149 GC
2 setlinecap
1 LJ
0.667 LW
N
73 203.105 M
77.34 203.105 L
S
GR
GS
[0.75 0 0 0.75 0 0] CT
0.149 GC
2 setlinecap
1 LJ
0.667 LW
N
73 160.079 M
77.34 160.079 L
S
GR
GS
[0.75 0 0 0.75 0 0] CT
0.149 GC
2 setlinecap
1 LJ
0.667 LW
N
73 117.053 M
77.34 117.053 L
S
GR
GS
[0.75 0 0 0.75 0 0] CT
0.149 GC
2 setlinecap
1 LJ
0.667 LW
N
73 74.026 M
77.34 74.026 L
S
GR
GS
[0.75 0 0 0.75 0 0] CT
0.149 GC
2 setlinecap
1 LJ
0.667 LW
N
73 31 M
77.34 31 L
S
GR
GS
[0.75 0 0 0.75 0 0] CT
0.149 GC
2 setlinecap
1 LJ
0.667 LW
N
507 332.184 M
502.66 332.184 L
S
GR
GS
[0.75 0 0 0.75 0 0] CT
0.149 GC
2 setlinecap
1 LJ
0.667 LW
N
507 289.158 M
502.66 289.158 L
S
GR
GS
[0.75 0 0 0.75 0 0] CT
0.149 GC
2 setlinecap
1 LJ
0.667 LW
N
507 246.132 M
502.66 246.132 L
S
GR
GS
[0.75 0 0 0.75 0 0] CT
0.149 GC
2 setlinecap
1 LJ
0.667 LW
N
507 203.105 M
502.66 203.105 L
S
GR
GS
[0.75 0 0 0.75 0 0] CT
0.149 GC
2 setlinecap
1 LJ
0.667 LW
N
507 160.079 M
502.66 160.079 L
S
GR
GS
[0.75 0 0 0.75 0 0] CT
0.149 GC
2 setlinecap
1 LJ
0.667 LW
N
507 117.053 M
502.66 117.053 L
S
GR
GS
[0.75 0 0 0.75 0 0] CT
0.149 GC
2 setlinecap
1 LJ
0.667 LW
N
507 74.026 M
502.66 74.026 L
S
GR
GS
[0.75 0 0 0.75 0 0] CT
0.149 GC
2 setlinecap
1 LJ
0.667 LW
N
507 31 M
502.66 31 L
S
GR
GS
[0.75 0 0 0.75 49.55003 249.13815] CT
0.149 GC
/Helvetica 21.333 F
GS
[1 0 0 1 0 0] CT
-31 8.5 moveto 
1 -1 scale
(-35) t 
GR
GR
GS
[0.75 0 0 0.75 49.55003 216.86842] CT
0.149 GC
/Helvetica 21.333 F
GS
[1 0 0 1 0 0] CT
-31 8.5 moveto 
1 -1 scale
(-30) t 
GR
GR
GS
[0.75 0 0 0.75 49.55003 184.59868] CT
0.149 GC
/Helvetica 21.333 F
GS
[1 0 0 1 0 0] CT
-31 8.5 moveto 
1 -1 scale
(-25) t 
GR
GR
GS
[0.75 0 0 0.75 49.55003 152.32895] CT
0.149 GC
/Helvetica 21.333 F
GS
[1 0 0 1 0 0] CT
-31 8.5 moveto 
1 -1 scale
(-20) t 
GR
GR
GS
[0.75 0 0 0.75 49.55003 120.05921] CT
0.149 GC
/Helvetica 21.333 F
GS
[1 0 0 1 0 0] CT
-31 8.5 moveto 
1 -1 scale
(-15) t 
GR
GR
GS
[0.75 0 0 0.75 49.55003 87.78948] CT
0.149 GC
/Helvetica 21.333 F
GS
[1 0 0 1 0 0] CT
-31 8.5 moveto 
1 -1 scale
(-10) t 
GR
GR
GS
[0.75 0 0 0.75 49.55003 55.51974] CT
0.149 GC
/Helvetica 21.333 F
GS
[1 0 0 1 0 0] CT
-19 8.5 moveto 
1 -1 scale
(-5) t 
GR
GR
GS
[0.75 0 0 0.75 49.55003 23.25] CT
0.149 GC
/Helvetica 21.333 F
GS
[1 0 0 1 0 0] CT
-12 8.5 moveto 
1 -1 scale
(0) t 
GR
GR
GS
[0 -0.75 0.75 0 23.3 145.87489] CT
0.149 GC
/Helvetica 21.333 F
GS
[1 0 0 1 0 0] CT
-41.5 -5 moveto 
1 -1 scale
(S11 \(dB\)) t 
GR
GR
GS
[0.75 0 0 0.75 0 0] CT
0 0.447 0.741 RC
1 LJ
2.667 LW
N
73 44.422 M
73.434 44.427 L
73.868 44.432 L
74.302 44.437 L
74.736 44.443 L
75.17 44.45 L
75.604 44.456 L
76.038 44.463 L
76.472 44.47 L
76.906 44.478 L
77.34 44.485 L
77.774 44.493 L
78.208 44.501 L
78.642 44.51 L
79.076 44.518 L
79.51 44.527 L
79.944 44.535 L
80.378 44.544 L
80.812 44.553 L
81.246 44.561 L
81.68 44.57 L
82.114 44.579 L
82.548 44.588 L
82.982 44.597 L
83.416 44.606 L
83.85 44.615 L
84.284 44.624 L
84.718 44.633 L
85.152 44.642 L
85.586 44.651 L
86.02 44.661 L
86.454 44.671 L
86.888 44.681 L
87.322 44.691 L
87.756 44.702 L
88.19 44.713 L
88.624 44.725 L
89.058 44.737 L
89.492 44.75 L
89.926 44.764 L
90.36 44.778 L
90.794 44.793 L
91.228 44.809 L
91.662 44.826 L
92.096 44.843 L
92.53 44.862 L
92.964 44.882 L
93.398 44.903 L
93.832 44.925 L
94.266 44.948 L
94.7 44.972 L
95.134 44.997 L
95.568 45.023 L
96.002 45.051 L
96.436 45.079 L
96.87 45.109 L
97.304 45.14 L
97.738 45.171 L
98.172 45.204 L
98.606 45.238 L
99.04 45.272 L
99.474 45.308 L
99.908 45.344 L
100.342 45.381 L
100.776 45.418 L
101.21 45.457 L
101.644 45.495 L
102.078 45.535 L
102.512 45.574 L
102.946 45.615 L
103.38 45.655 L
103.814 45.696 L
104.248 45.736 L
104.682 45.777 L
105.116 45.819 L
105.55 45.86 L
105.984 45.901 L
106.418 45.942 L
106.852 45.983 L
107.286 46.024 L
107.72 46.065 L
108.154 46.106 L
108.588 46.146 L
109.022 46.187 L
109.456 46.227 L
109.89 46.267 L
110.324 46.307 L
110.758 46.347 L
111.192 46.387 L
111.626 46.427 L
112.06 46.466 L
112.494 46.506 L
112.928 46.545 L
113.362 46.584 L
113.796 46.624 L
114.23 46.663 L
114.664 46.702 L
115.098 46.742 L
115.532 46.781 L
115.966 46.821 L
116.4 46.861 L
116.834 46.9 L
117.268 46.94 L
117.702 46.981 L
118.136 47.021 L
118.57 47.061 L
119.004 47.102 L
119.438 47.143 L
119.872 47.184 L
120.306 47.225 L
120.74 47.266 L
121.174 47.308 L
121.608 47.35 L
122.042 47.392 L
122.476 47.434 L
122.91 47.476 L
123.344 47.519 L
123.778 47.562 L
124.212 47.605 L
124.646 47.648 L
125.08 47.691 L
125.514 47.735 L
125.948 47.778 L
126.382 47.822 L
126.816 47.866 L
127.25 47.911 L
127.684 47.955 L
128.118 48 L
128.552 48.045 L
128.986 48.09 L
129.42 48.135 L
129.854 48.18 L
130.288 48.226 L
130.722 48.272 L
131.156 48.318 L
131.59 48.365 L
132.024 48.411 L
132.458 48.458 L
132.892 48.506 L
133.326 48.553 L
133.76 48.601 L
134.194 48.649 L
134.628 48.698 L
135.062 48.747 L
135.496 48.796 L
135.93 48.845 L
136.364 48.895 L
136.798 48.945 L
137.232 48.996 L
137.666 49.047 L
138.1 49.098 L
138.534 49.149 L
138.968 49.201 L
139.402 49.254 L
139.836 49.306 L
140.27 49.359 L
140.704 49.412 L
141.138 49.466 L
141.572 49.52 L
142.006 49.574 L
142.44 49.629 L
142.874 49.684 L
143.308 49.739 L
143.742 49.794 L
144.176 49.85 L
144.61 49.906 L
145.044 49.963 L
145.478 50.02 L
145.912 50.077 L
146.346 50.134 L
146.78 50.192 L
147.214 50.25 L
147.648 50.309 L
148.082 50.368 L
148.516 50.427 L
148.95 50.486 L
149.384 50.546 L
149.818 50.606 L
150.252 50.667 L
150.686 50.728 L
151.12 50.789 L
151.554 50.851 L
151.988 50.913 L
152.422 50.976 L
152.856 51.039 L
153.29 51.102 L
153.724 51.166 L
154.158 51.23 L
154.592 51.295 L
155.026 51.36 L
155.46 51.426 L
155.894 51.492 L
156.328 51.559 L
156.762 51.625 L
157.196 51.693 L
157.63 51.761 L
158.064 51.829 L
158.498 51.898 L
158.932 51.967 L
159.366 52.036 L
159.8 52.106 L
160.234 52.176 L
160.668 52.247 L
161.102 52.318 L
161.536 52.39 L
161.97 52.462 L
162.404 52.534 L
162.838 52.607 L
163.272 52.68 L
163.706 52.753 L
164.14 52.827 L
164.574 52.901 L
165.008 52.976 L
165.442 53.051 L
165.876 53.127 L
166.31 53.203 L
166.744 53.279 L
167.178 53.356 L
167.612 53.433 L
168.046 53.511 L
168.48 53.589 L
168.914 53.668 L
169.348 53.747 L
169.782 53.827 L
170.216 53.908 L
170.65 53.989 L
171.084 54.071 L
171.518 54.153 L
171.952 54.236 L
172.386 54.32 L
172.82 54.404 L
173.254 54.489 L
173.688 54.575 L
174.122 54.662 L
174.556 54.75 L
174.99 54.838 L
175.424 54.927 L
175.858 55.017 L
176.292 55.108 L
176.726 55.2 L
177.16 55.293 L
177.594 55.387 L
178.028 55.482 L
178.462 55.577 L
178.896 55.674 L
179.33 55.771 L
179.764 55.87 L
180.198 55.97 L
180.632 56.07 L
181.066 56.172 L
181.5 56.274 L
181.934 56.378 L
182.368 56.483 L
182.802 56.588 L
183.236 56.695 L
183.67 56.803 L
184.104 56.912 L
184.538 57.022 L
184.972 57.133 L
185.406 57.245 L
185.84 57.358 L
186.274 57.472 L
186.708 57.587 L
187.142 57.704 L
187.576 57.821 L
188.01 57.94 L
188.444 58.06 L
188.878 58.181 L
189.312 58.303 L
189.746 58.426 L
190.18 58.551 L
190.614 58.676 L
191.048 58.803 L
191.482 58.932 L
191.916 59.061 L
192.35 59.192 L
192.784 59.323 L
193.218 59.457 L
193.652 59.591 L
194.086 59.727 L
194.52 59.864 L
194.954 60.002 L
195.388 60.142 L
195.822 60.283 L
196.256 60.426 L
196.69 60.569 L
197.124 60.715 L
197.558 60.861 L
197.992 61.009 L
198.426 61.159 L
198.86 61.31 L
199.294 61.462 L
199.728 61.616 L
200.162 61.771 L
200.596 61.928 L
201.03 62.087 L
201.464 62.247 L
201.898 62.408 L
202.332 62.571 L
202.766 62.736 L
203.2 62.902 L
203.634 63.07 L
204.068 63.239 L
204.502 63.41 L
204.936 63.583 L
205.37 63.758 L
205.804 63.934 L
206.238 64.112 L
206.672 64.292 L
207.106 64.474 L
207.54 64.657 L
207.974 64.843 L
208.408 65.03 L
208.842 65.219 L
209.276 65.411 L
209.71 65.604 L
210.144 65.799 L
210.578 65.996 L
211.012 66.196 L
211.446 66.397 L
211.88 66.601 L
212.314 66.807 L
212.748 67.015 L
213.182 67.225 L
213.616 67.438 L
214.05 67.653 L
214.484 67.87 L
214.918 68.09 L
215.352 68.312 L
215.786 68.536 L
216.22 68.763 L
216.654 68.993 L
217.088 69.224 L
217.522 69.459 L
217.956 69.696 L
218.39 69.936 L
218.824 70.178 L
219.258 70.423 L
219.692 70.671 L
220.126 70.922 L
220.56 71.175 L
220.994 71.431 L
221.428 71.69 L
221.862 71.952 L
222.296 72.217 L
222.73 72.485 L
223.164 72.756 L
223.598 73.03 L
224.032 73.307 L
224.466 73.588 L
224.9 73.871 L
225.334 74.158 L
225.768 74.448 L
226.202 74.742 L
226.636 75.038 L
227.07 75.339 L
227.504 75.643 L
227.938 75.95 L
228.372 76.262 L
228.806 76.577 L
229.24 76.895 L
229.674 77.218 L
230.108 77.545 L
230.542 77.875 L
230.976 78.21 L
231.41 78.549 L
231.844 78.892 L
232.278 79.239 L
232.712 79.59 L
233.146 79.946 L
233.58 80.307 L
234.014 80.672 L
234.448 81.042 L
234.882 81.416 L
235.316 81.795 L
235.75 82.179 L
236.184 82.568 L
236.618 82.962 L
237.052 83.361 L
237.486 83.765 L
237.92 84.174 L
238.354 84.589 L
238.788 85.009 L
239.222 85.434 L
239.656 85.865 L
240.09 86.302 L
240.524 86.745 L
240.958 87.193 L
241.392 87.647 L
241.826 88.108 L
242.26 88.574 L
242.694 89.047 L
243.128 89.526 L
243.562 90.012 L
243.996 90.504 L
244.43 91.003 L
244.864 91.509 L
245.298 92.022 L
245.732 92.542 L
246.166 93.07 L
246.6 93.605 L
247.034 94.147 L
247.468 94.698 L
247.902 95.256 L
248.336 95.822 L
248.77 96.397 L
249.204 96.98 L
249.638 97.572 L
250.072 98.172 L
250.506 98.782 L
250.94 99.401 L
251.374 100.029 L
251.808 100.668 L
252.242 101.315 L
252.676 101.973 L
253.11 102.642 L
253.544 103.321 L
253.978 104.01 L
254.412 104.711 L
254.846 105.423 L
255.28 106.146 L
255.714 106.881 L
256.148 107.628 L
256.582 108.388 L
257.016 109.16 L
257.45 109.945 L
257.884 110.743 L
258.318 111.554 L
258.752 112.38 L
259.186 113.219 L
259.62 114.073 L
260.054 114.942 L
260.488 115.826 L
260.922 116.726 L
261.356 117.642 L
261.79 118.574 L
262.224 119.523 L
262.658 120.49 L
263.092 121.475 L
263.526 122.478 L
263.96 123.5 L
264.394 124.541 L
264.828 125.603 L
265.262 126.685 L
265.696 127.789 L
266.13 128.915 L
266.564 130.064 L
266.998 131.237 L
267.432 132.434 L
267.866 133.657 L
268.3 134.906 L
268.734 136.182 L
269.168 137.487 L
269.602 138.821 L
270.036 140.186 L
270.47 141.582 L
270.904 143.012 L
271.338 144.475 L
271.772 145.975 L
272.206 147.512 L
272.64 149.088 L
273.074 150.704 L
273.508 152.363 L
273.942 154.067 L
274.376 155.817 L
274.81 157.615 L
275.244 159.465 L
275.678 161.369 L
276.112 163.328 L
276.546 165.348 L
276.98 167.43 L
277.414 169.578 L
277.848 171.796 L
278.282 174.088 L
278.716 176.459 L
279.15 178.913 L
279.584 181.456 L
280.018 184.093 L
280.452 186.833 L
280.886 189.681 L
281.32 192.645 L
281.754 195.736 L
282.188 198.963 L
282.622 202.337 L
283.056 205.871 L
283.49 209.58 L
283.924 213.48 L
284.358 217.59 L
284.792 221.931 L
285.226 226.526 L
285.66 231.405 L
286.094 236.598 L
286.528 242.141 L
286.962 248.073 L
287.396 254.437 L
287.83 261.278 L
288.264 268.631 L
288.698 276.519 L
289.132 284.915 L
289.566 293.695 L
290 302.542 L
290.434 310.799 L
290.868 317.356 L
291.302 320.813 L
291.736 320.176 L
292.17 315.62 L
292.604 308.338 L
293.038 299.7 L
293.472 290.69 L
293.906 281.86 L
294.34 273.462 L
294.774 265.587 L
295.208 258.245 L
295.642 251.408 L
296.076 245.037 L
296.51 239.087 L
296.944 233.518 L
297.378 228.29 L
297.812 223.369 L
298.246 218.725 L
298.68 214.331 L
299.114 210.164 L
299.548 206.203 L
299.982 202.431 L
300.416 198.832 L
300.85 195.391 L
301.284 192.097 L
301.718 188.939 L
302.152 185.906 L
302.586 182.99 L
303.02 180.183 L
303.454 177.478 L
303.888 174.868 L
304.322 172.348 L
304.756 169.913 L
305.19 167.558 L
305.624 165.277 L
306.058 163.068 L
306.492 160.926 L
306.926 158.848 L
307.36 156.831 L
307.794 154.872 L
308.228 152.968 L
308.662 151.117 L
309.096 149.315 L
309.53 147.562 L
309.964 145.854 L
310.398 144.19 L
310.832 142.568 L
311.266 140.987 L
311.7 139.443 L
312.134 137.937 L
312.568 136.466 L
313.002 135.029 L
313.436 133.625 L
313.87 132.253 L
314.304 130.91 L
314.738 129.597 L
315.172 128.312 L
315.606 127.054 L
316.04 125.822 L
316.474 124.615 L
316.908 123.432 L
317.342 122.272 L
317.776 121.135 L
318.21 120.02 L
318.644 118.927 L
319.078 117.853 L
319.512 116.799 L
319.946 115.765 L
320.38 114.749 L
320.814 113.751 L
321.248 112.771 L
321.682 111.807 L
322.116 110.861 L
322.55 109.93 L
322.984 109.015 L
323.418 108.116 L
323.852 107.231 L
324.286 106.361 L
324.72 105.505 L
325.154 104.663 L
325.588 103.835 L
326.022 103.019 L
326.456 102.217 L
326.89 101.428 L
327.324 100.651 L
327.758 99.886 L
328.192 99.133 L
328.626 98.392 L
329.06 97.663 L
329.494 96.944 L
329.928 96.237 L
330.362 95.541 L
330.796 94.855 L
331.23 94.179 L
331.664 93.514 L
332.098 92.859 L
332.532 92.213 L
332.966 91.577 L
333.4 90.951 L
333.834 90.334 L
334.268 89.725 L
334.702 89.126 L
335.136 88.535 L
335.57 87.953 L
336.004 87.379 L
336.438 86.814 L
336.872 86.256 L
337.306 85.706 L
337.74 85.164 L
338.174 84.629 L
338.608 84.102 L
339.042 83.582 L
339.476 83.069 L
339.91 82.563 L
340.344 82.064 L
340.778 81.572 L
341.212 81.086 L
341.646 80.606 L
342.08 80.133 L
342.514 79.666 L
342.948 79.206 L
343.382 78.751 L
343.816 78.302 L
344.25 77.859 L
344.684 77.422 L
345.118 76.991 L
345.552 76.565 L
345.986 76.145 L
346.42 75.73 L
346.854 75.32 L
347.288 74.916 L
347.722 74.517 L
348.156 74.123 L
348.59 73.734 L
349.024 73.35 L
349.458 72.971 L
349.892 72.597 L
350.326 72.227 L
350.76 71.863 L
351.194 71.503 L
351.628 71.147 L
352.062 70.797 L
352.496 70.45 L
352.93 70.108 L
353.364 69.771 L
353.798 69.437 L
354.232 69.108 L
354.666 68.783 L
355.1 68.462 L
355.534 68.145 L
355.968 67.832 L
356.402 67.523 L
356.836 67.217 L
357.27 66.916 L
357.704 66.618 L
358.138 66.323 L
358.572 66.033 L
359.006 65.745 L
359.44 65.461 L
359.874 65.181 L
360.308 64.904 L
360.742 64.63 L
361.176 64.359 L
361.61 64.091 L
362.044 63.827 L
362.478 63.566 L
362.912 63.307 L
363.346 63.052 L
363.78 62.8 L
364.214 62.55 L
364.648 62.304 L
365.082 62.06 L
365.516 61.819 L
365.95 61.581 L
366.384 61.345 L
366.818 61.113 L
367.252 60.883 L
367.686 60.655 L
368.12 60.431 L
368.554 60.208 L
368.988 59.989 L
369.422 59.772 L
369.856 59.557 L
370.29 59.345 L
370.724 59.135 L
371.158 58.928 L
371.592 58.723 L
372.026 58.521 L
372.46 58.321 L
372.894 58.123 L
373.328 57.928 L
373.762 57.735 L
374.196 57.544 L
374.63 57.355 L
375.064 57.169 L
375.498 56.985 L
375.932 56.802 L
376.366 56.622 L
376.8 56.445 L
377.234 56.269 L
377.668 56.095 L
378.102 55.924 L
378.536 55.754 L
378.97 55.586 L
379.404 55.421 L
379.838 55.257 L
380.272 55.095 L
380.706 54.936 L
381.14 54.778 L
381.574 54.622 L
382.008 54.468 L
382.442 54.316 L
382.876 54.165 L
383.31 54.017 L
383.744 53.87 L
384.178 53.725 L
384.612 53.582 L
385.046 53.441 L
385.48 53.301 L
385.914 53.163 L
386.348 53.027 L
386.782 52.892 L
387.216 52.759 L
387.65 52.628 L
388.084 52.498 L
388.518 52.37 L
388.952 52.243 L
389.386 52.117 L
389.82 51.993 L
390.254 51.871 L
390.688 51.75 L
391.122 51.63 L
391.556 51.511 L
391.99 51.393 L
392.424 51.277 L
392.858 51.162 L
393.292 51.048 L
393.726 50.934 L
394.16 50.822 L
394.594 50.711 L
395.028 50.6 L
395.462 50.491 L
395.896 50.382 L
396.33 50.274 L
396.764 50.166 L
397.198 50.059 L
397.632 49.953 L
398.066 49.848 L
398.5 49.742 L
398.934 49.638 L
399.368 49.534 L
399.802 49.43 L
400.236 49.327 L
400.67 49.225 L
401.104 49.123 L
401.538 49.021 L
401.972 48.92 L
402.406 48.82 L
402.84 48.719 L
403.274 48.62 L
403.708 48.521 L
404.142 48.422 L
404.576 48.324 L
405.01 48.227 L
405.444 48.13 L
405.878 48.034 L
406.312 47.938 L
406.746 47.843 L
407.18 47.749 L
407.614 47.655 L
408.048 47.562 L
408.482 47.47 L
408.916 47.379 L
409.35 47.288 L
409.784 47.199 L
410.218 47.11 L
410.652 47.022 L
411.086 46.934 L
411.52 46.848 L
411.954 46.763 L
412.388 46.678 L
412.822 46.594 L
413.256 46.511 L
413.69 46.429 L
414.124 46.348 L
414.558 46.267 L
414.992 46.187 L
415.426 46.108 L
415.86 46.03 L
416.294 45.953 L
416.728 45.876 L
417.162 45.8 L
417.596 45.725 L
418.03 45.65 L
418.464 45.577 L
418.898 45.503 L
419.332 45.431 L
419.766 45.359 L
420.2 45.287 L
420.634 45.216 L
421.068 45.146 L
421.502 45.076 L
421.936 45.007 L
422.37 44.939 L
422.804 44.871 L
423.238 44.803 L
423.672 44.737 L
424.106 44.67 L
424.54 44.604 L
424.974 44.539 L
425.408 44.475 L
425.842 44.411 L
426.276 44.347 L
426.71 44.284 L
427.144 44.222 L
427.578 44.16 L
428.012 44.099 L
428.446 44.039 L
428.88 43.979 L
429.314 43.919 L
429.748 43.861 L
430.182 43.803 L
430.616 43.745 L
431.05 43.688 L
431.484 43.632 L
431.918 43.576 L
432.352 43.521 L
432.786 43.466 L
433.22 43.412 L
433.654 43.359 L
434.088 43.306 L
434.522 43.253 L
434.956 43.201 L
435.39 43.15 L
435.824 43.098 L
436.258 43.048 L
436.692 42.997 L
437.126 42.947 L
437.56 42.898 L
437.994 42.849 L
438.428 42.8 L
438.862 42.751 L
439.296 42.703 L
439.73 42.655 L
440.164 42.607 L
440.598 42.56 L
441.032 42.512 L
441.466 42.466 L
441.9 42.419 L
442.334 42.373 L
442.768 42.327 L
443.202 42.281 L
443.636 42.236 L
444.07 42.19 L
444.504 42.146 L
444.938 42.101 L
445.372 42.057 L
445.806 42.013 L
446.24 41.97 L
446.674 41.927 L
447.108 41.885 L
447.542 41.843 L
447.976 41.801 L
448.41 41.76 L
448.844 41.719 L
449.278 41.678 L
449.712 41.639 L
450.146 41.599 L
450.58 41.56 L
451.014 41.521 L
451.448 41.483 L
451.882 41.445 L
452.316 41.408 L
452.75 41.371 L
453.184 41.334 L
453.618 41.298 L
454.052 41.262 L
454.486 41.227 L
454.92 41.191 L
455.354 41.156 L
455.788 41.121 L
456.222 41.087 L
456.656 41.052 L
457.09 41.018 L
457.524 40.984 L
457.958 40.95 L
458.392 40.916 L
458.826 40.883 L
459.26 40.849 L
459.694 40.815 L
460.128 40.782 L
460.562 40.749 L
460.996 40.715 L
461.43 40.682 L
461.864 40.649 L
462.298 40.616 L
462.732 40.583 L
463.166 40.55 L
463.6 40.518 L
464.034 40.485 L
464.468 40.453 L
464.902 40.421 L
465.336 40.389 L
465.77 40.357 L
466.204 40.326 L
466.638 40.295 L
467.072 40.264 L
467.506 40.233 L
467.94 40.203 L
468.374 40.173 L
468.808 40.143 L
469.242 40.114 L
469.676 40.085 L
470.11 40.056 L
470.544 40.027 L
470.978 39.999 L
471.412 39.971 L
471.846 39.943 L
472.28 39.915 L
472.714 39.888 L
473.148 39.86 L
473.582 39.833 L
474.016 39.805 L
474.45 39.778 L
474.884 39.75 L
475.318 39.722 L
475.752 39.694 L
476.186 39.666 L
476.62 39.638 L
477.054 39.609 L
477.488 39.58 L
477.922 39.551 L
478.356 39.521 L
478.79 39.491 L
479.224 39.46 L
479.658 39.429 L
480.092 39.397 L
480.526 39.366 L
480.96 39.333 L
481.394 39.301 L
481.828 39.268 L
482.262 39.235 L
482.696 39.201 L
483.13 39.167 L
483.564 39.134 L
483.998 39.1 L
484.432 39.066 L
484.866 39.033 L
485.3 38.999 L
485.734 38.966 L
486.168 38.934 L
486.602 38.901 L
487.036 38.87 L
487.47 38.839 L
487.904 38.809 L
488.338 38.779 L
488.772 38.751 L
489.206 38.723 L
489.64 38.697 L
490.074 38.671 L
490.508 38.647 L
490.942 38.624 L
491.376 38.602 L
491.81 38.582 L
492.244 38.563 L
492.678 38.545 L
493.112 38.528 L
493.546 38.513 L
493.98 38.498 L
494.414 38.485 L
494.848 38.473 L
495.282 38.463 L
495.716 38.453 L
496.15 38.444 L
496.584 38.436 L
497.018 38.429 L
497.452 38.423 L
497.886 38.417 L
498.32 38.412 L
498.754 38.408 L
499.188 38.403 L
499.622 38.399 L
500.056 38.395 L
500.49 38.392 L
500.924 38.388 L
501.358 38.384 L
501.792 38.38 L
502.226 38.376 L
502.66 38.372 L
503.094 38.367 L
503.528 38.362 L
503.962 38.357 L
504.396 38.351 L
504.83 38.345 L
505.264 38.338 L
505.698 38.331 L
506.132 38.323 L
506.566 38.315 L
507 38.307 L
S
GR
GS
[0.75 0 0 0.75 54.75 33.31622] CT
0 0.447 0.741 RC
10.0 ML
2.667 LW
N
-4 -4 M
-4 4 L
4 4 L
4 -4 L
cp
S
GR
GS
[0.75 0 0 0.75 64.51502 33.49574] CT
0 0.447 0.741 RC
10.0 ML
2.667 LW
N
-4 -4 M
-4 4 L
4 4 L
4 -4 L
cp
S
GR
GS
[0.75 0 0 0.75 74.27994 33.95414] CT
0 0.447 0.741 RC
10.0 ML
2.667 LW
N
-4 -4 M
-4 4 L
4 4 L
4 -4 L
cp
S
GR
GS
[0.75 0 0 0.75 84.04506 34.84956] CT
0 0.447 0.741 RC
10.0 ML
2.667 LW
N
-4 -4 M
-4 4 L
4 4 L
4 -4 L
cp
S
GR
GS
[0.75 0 0 0.75 93.81008 35.76833] CT
0 0.447 0.741 RC
10.0 ML
2.667 LW
N
-4 -4 M
-4 4 L
4 4 L
4 -4 L
cp
S
GR
GS
[0.75 0 0 0.75 103.57499 36.82337] CT
0 0.447 0.741 RC
10.0 ML
2.667 LW
N
-4 -4 M
-4 4 L
4 4 L
4 -4 L
cp
S
GR
GS
[0.75 0 0 0.75 113.34002 38.09193] CT
0 0.447 0.741 RC
10.0 ML
2.667 LW
N
-4 -4 M
-4 4 L
4 4 L
4 -4 L
cp
S
GR
GS
[0.75 0 0 0.75 123.10493 39.62038] CT
0 0.447 0.741 RC
10.0 ML
2.667 LW
N
-4 -4 M
-4 4 L
4 4 L
4 -4 L
cp
S
GR
GS
[0.75 0 0 0.75 132.87006 41.46986] CT
0 0.447 0.741 RC
10.0 ML
2.667 LW
N
-4 -4 M
-4 4 L
4 4 L
4 -4 L
cp
S
GR
GS
[0.75 0 0 0.75 142.63507 43.91308] CT
0 0.447 0.741 RC
10.0 ML
2.667 LW
N
-4 -4 M
-4 4 L
4 4 L
4 -4 L
cp
S
GR
GS
[0.75 0 0 0.75 152.39999 47.17645] CT
0 0.447 0.741 RC
10.0 ML
2.667 LW
N
-4 -4 M
-4 4 L
4 4 L
4 -4 L
cp
S
GR
GS
[0.75 0 0 0.75 162.16501 51.5723] CT
0 0.447 0.741 RC
10.0 ML
2.667 LW
N
-4 -4 M
-4 4 L
4 4 L
4 -4 L
cp
S
GR
GS
[0.75 0 0 0.75 171.93003 57.67155] CT
0 0.447 0.741 RC
10.0 ML
2.667 LW
N
-4 -4 M
-4 4 L
4 4 L
4 -4 L
cp
S
GR
GS
[0.75 0 0 0.75 181.69505 66.43072] CT
0 0.447 0.741 RC
10.0 ML
2.667 LW
N
-4 -4 M
-4 4 L
4 4 L
4 -4 L
cp
S
GR
GS
[0.75 0 0 0.75 191.46007 79.60946] CT
0 0.447 0.741 RC
10.0 ML
2.667 LW
N
-4 -4 M
-4 4 L
4 4 L
4 -4 L
cp
S
GR
GS
[0.75 0 0 0.75 201.22499 101.17953] CT
0 0.447 0.741 RC
10.0 ML
2.667 LW
N
-4 -4 M
-4 4 L
4 4 L
4 -4 L
cp
S
GR
GS
[0.75 0 0 0.75 210.99001 144.48407] CT
0 0.447 0.741 RC
10.0 ML
2.667 LW
N
-4 -4 M
-4 4 L
4 4 L
4 -4 L
cp
S
GR
GS
[0.75 0 0 0.75 220.75513 205.09655] CT
0 0.447 0.741 RC
10.0 ML
2.667 LW
N
-4 -4 M
-4 4 L
4 4 L
4 -4 L
cp
S
GR
GS
[0.75 0 0 0.75 230.52003 117.6236] CT
0 0.447 0.741 RC
10.0 ML
2.667 LW
N
-4 -4 M
-4 4 L
4 4 L
4 -4 L
cp
S
GR
GS
[0.75 0 0 0.75 240.28507 86.0617] CT
0 0.447 0.741 RC
10.0 ML
2.667 LW
N
-4 -4 M
-4 4 L
4 4 L
4 -4 L
cp
S
GR
GS
[0.75 0 0 0.75 250.05009 68.21314] CT
0 0.447 0.741 RC
10.0 ML
2.667 LW
N
-4 -4 M
-4 4 L
4 4 L
4 -4 L
cp
S
GR
GS
[0.75 0 0 0.75 259.8151 56.79726] CT
0 0.447 0.741 RC
10.0 ML
2.667 LW
N
-4 -4 M
-4 4 L
4 4 L
4 -4 L
cp
S
GR
GS
[0.75 0 0 0.75 269.58012 49.096] CT
0 0.447 0.741 RC
10.0 ML
2.667 LW
N
-4 -4 M
-4 4 L
4 4 L
4 -4 L
cp
S
GR
GS
[0.75 0 0 0.75 279.34504 43.74072] CT
0 0.447 0.741 RC
10.0 ML
2.667 LW
N
-4 -4 M
-4 4 L
4 4 L
4 -4 L
cp
S
GR
GS
[0.75 0 0 0.75 289.11005 39.97576] CT
0 0.447 0.741 RC
10.0 ML
2.667 LW
N
-4 -4 M
-4 4 L
4 4 L
4 -4 L
cp
S
GR
GS
[0.75 0 0 0.75 298.87509 37.30685] CT
0 0.447 0.741 RC
10.0 ML
2.667 LW
N
-4 -4 M
-4 4 L
4 4 L
4 -4 L
cp
S
GR
GS
[0.75 0 0 0.75 308.64011 35.13609] CT
0 0.447 0.741 RC
10.0 ML
2.667 LW
N
-4 -4 M
-4 4 L
4 4 L
4 -4 L
cp
S
GR
GS
[0.75 0 0 0.75 318.40512 33.45332] CT
0 0.447 0.741 RC
10.0 ML
2.667 LW
N
-4 -4 M
-4 4 L
4 4 L
4 -4 L
cp
S
GR
GS
[0.75 0 0 0.75 328.17004 32.17332] CT
0 0.447 0.741 RC
10.0 ML
2.667 LW
N
-4 -4 M
-4 4 L
4 4 L
4 -4 L
cp
S
GR
GS
[0.75 0 0 0.75 337.93506 31.17] CT
0 0.447 0.741 RC
10.0 ML
2.667 LW
N
-4 -4 M
-4 4 L
4 4 L
4 -4 L
cp
S
GR
GS
[0.75 0 0 0.75 347.70007 30.38815] CT
0 0.447 0.741 RC
10.0 ML
2.667 LW
N
-4 -4 M
-4 4 L
4 4 L
4 -4 L
cp
S
GR
GS
[0.75 0 0 0.75 357.46509 29.72842] CT
0 0.447 0.741 RC
10.0 ML
2.667 LW
N
-4 -4 M
-4 4 L
4 4 L
4 -4 L
cp
S
GR
GS
[0.75 0 0 0.75 367.23013 29.02249] CT
0 0.447 0.741 RC
10.0 ML
2.667 LW
N
-4 -4 M
-4 4 L
4 4 L
4 -4 L
cp
S
GR
GS
[0.75 0 0 0.75 376.99514 28.77891] CT
0 0.447 0.741 RC
10.0 ML
2.667 LW
N
-4 -4 M
-4 4 L
4 4 L
4 -4 L
cp
S
GR
GS
[0.75 0 0 0.75 0 0] CT
0.851 0.325 0.098 RC
1 LJ
2.667 LW
N
73 44.89 M
73.434 44.924 L
73.868 44.958 L
74.302 44.993 L
74.736 45.028 L
75.17 45.063 L
75.604 45.099 L
76.038 45.135 L
76.472 45.172 L
76.906 45.209 L
77.34 45.246 L
77.774 45.284 L
78.208 45.322 L
78.642 45.36 L
79.076 45.399 L
79.51 45.439 L
79.944 45.478 L
80.378 45.518 L
80.812 45.559 L
81.246 45.599 L
81.68 45.641 L
82.114 45.682 L
82.548 45.724 L
82.982 45.766 L
83.416 45.809 L
83.85 45.852 L
84.284 45.896 L
84.718 45.94 L
85.152 45.985 L
85.586 46.029 L
86.02 46.075 L
86.454 46.121 L
86.888 46.168 L
87.322 46.215 L
87.756 46.262 L
88.19 46.311 L
88.624 46.36 L
89.058 46.41 L
89.492 46.46 L
89.926 46.512 L
90.36 46.564 L
90.794 46.617 L
91.228 46.67 L
91.662 46.725 L
92.096 46.781 L
92.53 46.837 L
92.964 46.895 L
93.398 46.953 L
93.832 47.013 L
94.266 47.074 L
94.7 47.135 L
95.134 47.198 L
95.568 47.262 L
96.002 47.327 L
96.436 47.393 L
96.87 47.46 L
97.304 47.528 L
97.738 47.597 L
98.172 47.667 L
98.606 47.738 L
99.04 47.811 L
99.474 47.884 L
99.908 47.958 L
100.342 48.034 L
100.776 48.11 L
101.21 48.187 L
101.644 48.265 L
102.078 48.344 L
102.512 48.423 L
102.946 48.503 L
103.38 48.584 L
103.814 48.666 L
104.248 48.749 L
104.682 48.832 L
105.116 48.915 L
105.55 48.999 L
105.984 49.084 L
106.418 49.169 L
106.852 49.254 L
107.286 49.34 L
107.72 49.426 L
108.154 49.513 L
108.588 49.599 L
109.022 49.686 L
109.456 49.774 L
109.89 49.861 L
110.324 49.949 L
110.758 50.036 L
111.192 50.124 L
111.626 50.212 L
112.06 50.301 L
112.494 50.389 L
112.928 50.477 L
113.362 50.566 L
113.796 50.655 L
114.23 50.744 L
114.664 50.833 L
115.098 50.922 L
115.532 51.011 L
115.966 51.1 L
116.4 51.19 L
116.834 51.28 L
117.268 51.37 L
117.702 51.46 L
118.136 51.55 L
118.57 51.641 L
119.004 51.732 L
119.438 51.823 L
119.872 51.914 L
120.306 52.006 L
120.74 52.098 L
121.174 52.191 L
121.608 52.284 L
122.042 52.377 L
122.476 52.471 L
122.91 52.565 L
123.344 52.659 L
123.778 52.754 L
124.212 52.849 L
124.646 52.945 L
125.08 53.042 L
125.514 53.138 L
125.948 53.236 L
126.382 53.333 L
126.816 53.432 L
127.25 53.53 L
127.684 53.63 L
128.118 53.729 L
128.552 53.829 L
128.986 53.93 L
129.42 54.031 L
129.854 54.133 L
130.288 54.235 L
130.722 54.338 L
131.156 54.441 L
131.59 54.545 L
132.024 54.649 L
132.458 54.753 L
132.892 54.858 L
133.326 54.964 L
133.76 55.069 L
134.194 55.176 L
134.628 55.283 L
135.062 55.39 L
135.496 55.498 L
135.93 55.606 L
136.364 55.714 L
136.798 55.823 L
137.232 55.933 L
137.666 56.043 L
138.1 56.153 L
138.534 56.264 L
138.968 56.375 L
139.402 56.487 L
139.836 56.599 L
140.27 56.712 L
140.704 56.825 L
141.138 56.938 L
141.572 57.053 L
142.006 57.167 L
142.44 57.282 L
142.874 57.398 L
143.308 57.514 L
143.742 57.631 L
144.176 57.748 L
144.61 57.866 L
145.044 57.985 L
145.478 58.104 L
145.912 58.224 L
146.346 58.344 L
146.78 58.465 L
147.214 58.586 L
147.648 58.708 L
148.082 58.831 L
148.516 58.954 L
148.95 59.078 L
149.384 59.203 L
149.818 59.328 L
150.252 59.454 L
150.686 59.581 L
151.12 59.708 L
151.554 59.836 L
151.988 59.964 L
152.422 60.094 L
152.856 60.224 L
153.29 60.354 L
153.724 60.486 L
154.158 60.617 L
154.592 60.75 L
155.026 60.883 L
155.46 61.017 L
155.894 61.152 L
156.328 61.287 L
156.762 61.423 L
157.196 61.559 L
157.63 61.697 L
158.064 61.835 L
158.498 61.973 L
158.932 62.112 L
159.366 62.252 L
159.8 62.393 L
160.234 62.534 L
160.668 62.676 L
161.102 62.818 L
161.536 62.961 L
161.97 63.105 L
162.404 63.25 L
162.838 63.395 L
163.272 63.541 L
163.706 63.688 L
164.14 63.835 L
164.574 63.983 L
165.008 64.132 L
165.442 64.281 L
165.876 64.432 L
166.31 64.583 L
166.744 64.735 L
167.178 64.887 L
167.612 65.041 L
168.046 65.195 L
168.48 65.35 L
168.914 65.506 L
169.348 65.663 L
169.782 65.821 L
170.216 65.98 L
170.65 66.14 L
171.084 66.3 L
171.518 66.462 L
171.952 66.624 L
172.386 66.788 L
172.82 66.952 L
173.254 67.118 L
173.688 67.285 L
174.122 67.452 L
174.556 67.621 L
174.99 67.791 L
175.424 67.962 L
175.858 68.134 L
176.292 68.307 L
176.726 68.482 L
177.16 68.658 L
177.594 68.834 L
178.028 69.012 L
178.462 69.192 L
178.896 69.372 L
179.33 69.554 L
179.764 69.737 L
180.198 69.921 L
180.632 70.106 L
181.066 70.293 L
181.5 70.481 L
181.934 70.67 L
182.368 70.861 L
182.802 71.053 L
183.236 71.246 L
183.67 71.44 L
184.104 71.636 L
184.538 71.834 L
184.972 72.032 L
185.406 72.232 L
185.84 72.433 L
186.274 72.636 L
186.708 72.84 L
187.142 73.046 L
187.576 73.253 L
188.01 73.461 L
188.444 73.671 L
188.878 73.882 L
189.312 74.094 L
189.746 74.308 L
190.18 74.524 L
190.614 74.741 L
191.048 74.959 L
191.482 75.179 L
191.916 75.401 L
192.35 75.623 L
192.784 75.848 L
193.218 76.074 L
193.652 76.301 L
194.086 76.531 L
194.52 76.761 L
194.954 76.994 L
195.388 77.228 L
195.822 77.463 L
196.256 77.7 L
196.69 77.939 L
197.124 78.18 L
197.558 78.422 L
197.992 78.666 L
198.426 78.912 L
198.86 79.159 L
199.294 79.408 L
199.728 79.659 L
200.162 79.912 L
200.596 80.166 L
201.03 80.423 L
201.464 80.681 L
201.898 80.941 L
202.332 81.203 L
202.766 81.467 L
203.2 81.733 L
203.634 82.001 L
204.068 82.271 L
204.502 82.543 L
204.936 82.816 L
205.37 83.092 L
205.804 83.37 L
206.238 83.65 L
206.672 83.932 L
207.106 84.216 L
207.54 84.503 L
207.974 84.791 L
208.408 85.082 L
208.842 85.375 L
209.276 85.67 L
209.71 85.968 L
210.144 86.267 L
210.578 86.569 L
211.012 86.874 L
211.446 87.18 L
211.88 87.49 L
212.314 87.801 L
212.748 88.115 L
213.182 88.431 L
213.616 88.75 L
214.05 89.072 L
214.484 89.395 L
214.918 89.722 L
215.352 90.051 L
215.786 90.383 L
216.22 90.717 L
216.654 91.054 L
217.088 91.394 L
217.522 91.736 L
217.956 92.081 L
218.39 92.429 L
218.824 92.78 L
219.258 93.134 L
219.692 93.491 L
220.126 93.85 L
220.56 94.213 L
220.994 94.578 L
221.428 94.947 L
221.862 95.319 L
222.296 95.694 L
222.73 96.072 L
223.164 96.453 L
223.598 96.837 L
224.032 97.225 L
224.466 97.616 L
224.9 98.01 L
225.334 98.408 L
225.768 98.81 L
226.202 99.214 L
226.636 99.623 L
227.07 100.035 L
227.504 100.45 L
227.938 100.869 L
228.372 101.292 L
228.806 101.719 L
229.24 102.15 L
229.674 102.584 L
230.108 103.023 L
230.542 103.465 L
230.976 103.911 L
231.41 104.362 L
231.844 104.817 L
232.278 105.276 L
232.712 105.739 L
233.146 106.206 L
233.58 106.678 L
234.014 107.154 L
234.448 107.635 L
234.882 108.121 L
235.316 108.611 L
235.75 109.106 L
236.184 109.605 L
236.618 110.109 L
237.052 110.619 L
237.486 111.133 L
237.92 111.652 L
238.354 112.177 L
238.788 112.706 L
239.222 113.241 L
239.656 113.782 L
240.09 114.327 L
240.524 114.879 L
240.958 115.436 L
241.392 115.998 L
241.826 116.567 L
242.26 117.141 L
242.694 117.721 L
243.128 118.308 L
243.562 118.9 L
243.996 119.499 L
244.43 120.104 L
244.864 120.716 L
245.298 121.335 L
245.732 121.96 L
246.166 122.592 L
246.6 123.231 L
247.034 123.877 L
247.468 124.53 L
247.902 125.191 L
248.336 125.859 L
248.77 126.535 L
249.204 127.219 L
249.638 127.91 L
250.072 128.61 L
250.506 129.318 L
250.94 130.034 L
251.374 130.759 L
251.808 131.493 L
252.242 132.236 L
252.676 132.988 L
253.11 133.749 L
253.544 134.52 L
253.978 135.3 L
254.412 136.091 L
254.846 136.891 L
255.28 137.702 L
255.714 138.523 L
256.148 139.356 L
256.582 140.199 L
257.016 141.054 L
257.45 141.92 L
257.884 142.798 L
258.318 143.689 L
258.752 144.592 L
259.186 145.507 L
259.62 146.436 L
260.054 147.377 L
260.488 148.333 L
260.922 149.303 L
261.356 150.286 L
261.79 151.285 L
262.224 152.299 L
262.658 153.328 L
263.092 154.374 L
263.526 155.435 L
263.96 156.514 L
264.394 157.609 L
264.828 158.723 L
265.262 159.854 L
265.696 161.005 L
266.13 162.174 L
266.564 163.364 L
266.998 164.574 L
267.432 165.805 L
267.866 167.058 L
268.3 168.334 L
268.734 169.632 L
269.168 170.954 L
269.602 172.301 L
270.036 173.674 L
270.47 175.073 L
270.904 176.498 L
271.338 177.953 L
271.772 179.436 L
272.206 180.949 L
272.64 182.494 L
273.074 184.071 L
273.508 185.681 L
273.942 187.327 L
274.376 189.008 L
274.81 190.727 L
275.244 192.485 L
275.678 194.284 L
276.112 196.124 L
276.546 198.008 L
276.98 199.938 L
277.414 201.915 L
277.848 203.941 L
278.282 206.018 L
278.716 208.149 L
279.15 210.334 L
279.584 212.577 L
280.018 214.878 L
280.452 217.242 L
280.886 219.669 L
281.32 222.161 L
281.754 224.72 L
282.188 227.349 L
282.622 230.047 L
283.056 232.816 L
283.49 235.655 L
283.924 238.565 L
284.358 241.542 L
284.792 244.583 L
285.226 247.683 L
285.66 250.832 L
286.094 254.018 L
286.528 257.227 L
286.962 260.435 L
287.396 263.614 L
287.83 266.731 L
288.264 269.741 L
288.698 272.591 L
289.132 275.222 L
289.566 277.566 L
290 279.553 L
290.434 281.115 L
290.868 282.191 L
291.302 282.736 L
291.736 282.725 L
292.17 282.158 L
292.604 281.06 L
293.038 279.474 L
293.472 277.462 L
293.906 275.091 L
294.34 272.432 L
294.774 269.552 L
295.208 266.512 L
295.642 263.364 L
296.076 260.152 L
296.51 256.911 L
296.944 253.67 L
297.378 250.45 L
297.812 247.268 L
298.246 244.136 L
298.68 241.062 L
299.114 238.052 L
299.548 235.11 L
299.982 232.239 L
300.416 229.439 L
300.85 226.71 L
301.284 224.051 L
301.718 221.461 L
302.152 218.939 L
302.586 216.483 L
303.02 214.091 L
303.454 211.761 L
303.888 209.49 L
304.322 207.277 L
304.756 205.12 L
305.19 203.015 L
305.624 200.963 L
306.058 198.959 L
306.492 197.004 L
306.926 195.093 L
307.36 193.227 L
307.794 191.403 L
308.228 189.62 L
308.662 187.876 L
309.096 186.169 L
309.53 184.498 L
309.964 182.863 L
310.398 181.261 L
310.832 179.691 L
311.266 178.153 L
311.7 176.644 L
312.134 175.165 L
312.568 173.714 L
313.002 172.29 L
313.436 170.892 L
313.87 169.519 L
314.304 168.171 L
314.738 166.846 L
315.172 165.545 L
315.606 164.265 L
316.04 163.007 L
316.474 161.77 L
316.908 160.554 L
317.342 159.357 L
317.776 158.179 L
318.21 157.02 L
318.644 155.878 L
319.078 154.755 L
319.512 153.648 L
319.946 152.558 L
320.38 151.484 L
320.814 150.426 L
321.248 149.384 L
321.682 148.356 L
322.116 147.343 L
322.55 146.344 L
322.984 145.359 L
323.418 144.388 L
323.852 143.43 L
324.286 142.486 L
324.72 141.553 L
325.154 140.634 L
325.588 139.726 L
326.022 138.83 L
326.456 137.946 L
326.89 137.073 L
327.324 136.212 L
327.758 135.361 L
328.192 134.521 L
328.626 133.691 L
329.06 132.872 L
329.494 132.063 L
329.928 131.263 L
330.362 130.474 L
330.796 129.693 L
331.23 128.922 L
331.664 128.16 L
332.098 127.407 L
332.532 126.663 L
332.966 125.927 L
333.4 125.2 L
333.834 124.48 L
334.268 123.769 L
334.702 123.066 L
335.136 122.371 L
335.57 121.683 L
336.004 121.003 L
336.438 120.33 L
336.872 119.664 L
337.306 119.006 L
337.74 118.354 L
338.174 117.71 L
338.608 117.072 L
339.042 116.441 L
339.476 115.816 L
339.91 115.198 L
340.344 114.586 L
340.778 113.98 L
341.212 113.38 L
341.646 112.786 L
342.08 112.198 L
342.514 111.616 L
342.948 111.04 L
343.382 110.47 L
343.816 109.905 L
344.25 109.345 L
344.684 108.791 L
345.118 108.242 L
345.552 107.699 L
345.986 107.16 L
346.42 106.627 L
346.854 106.099 L
347.288 105.576 L
347.722 105.057 L
348.156 104.544 L
348.59 104.035 L
349.024 103.531 L
349.458 103.032 L
349.892 102.537 L
350.326 102.047 L
350.76 101.562 L
351.194 101.08 L
351.628 100.604 L
352.062 100.131 L
352.496 99.663 L
352.93 99.199 L
353.364 98.74 L
353.798 98.284 L
354.232 97.832 L
354.666 97.385 L
355.1 96.941 L
355.534 96.502 L
355.968 96.066 L
356.402 95.634 L
356.836 95.206 L
357.27 94.781 L
357.704 94.361 L
358.138 93.944 L
358.572 93.53 L
359.006 93.12 L
359.44 92.714 L
359.874 92.311 L
360.308 91.911 L
360.742 91.515 L
361.176 91.122 L
361.61 90.733 L
362.044 90.346 L
362.478 89.963 L
362.912 89.584 L
363.346 89.207 L
363.78 88.833 L
364.214 88.463 L
364.648 88.095 L
365.082 87.731 L
365.516 87.37 L
365.95 87.011 L
366.384 86.656 L
366.818 86.304 L
367.252 85.954 L
367.686 85.607 L
368.12 85.263 L
368.554 84.922 L
368.988 84.584 L
369.422 84.249 L
369.856 83.916 L
370.29 83.586 L
370.724 83.259 L
371.158 82.934 L
371.592 82.613 L
372.026 82.293 L
372.46 81.977 L
372.894 81.663 L
373.328 81.352 L
373.762 81.043 L
374.196 80.737 L
374.63 80.433 L
375.064 80.132 L
375.498 79.833 L
375.932 79.537 L
376.366 79.243 L
376.8 78.951 L
377.234 78.662 L
377.668 78.375 L
378.102 78.091 L
378.536 77.808 L
378.97 77.528 L
379.404 77.25 L
379.838 76.974 L
380.272 76.701 L
380.706 76.429 L
381.14 76.159 L
381.574 75.892 L
382.008 75.626 L
382.442 75.362 L
382.876 75.1 L
383.31 74.839 L
383.744 74.581 L
384.178 74.324 L
384.612 74.069 L
385.046 73.815 L
385.48 73.563 L
385.914 73.313 L
386.348 73.064 L
386.782 72.816 L
387.216 72.57 L
387.65 72.325 L
388.084 72.081 L
388.518 71.839 L
388.952 71.598 L
389.386 71.358 L
389.82 71.12 L
390.254 70.882 L
390.688 70.646 L
391.122 70.41 L
391.556 70.176 L
391.99 69.943 L
392.424 69.711 L
392.858 69.48 L
393.292 69.25 L
393.726 69.022 L
394.16 68.794 L
394.594 68.567 L
395.028 68.341 L
395.462 68.117 L
395.896 67.893 L
396.33 67.67 L
396.764 67.449 L
397.198 67.229 L
397.632 67.009 L
398.066 66.791 L
398.5 66.574 L
398.934 66.358 L
399.368 66.144 L
399.802 65.93 L
400.236 65.718 L
400.67 65.507 L
401.104 65.298 L
401.538 65.089 L
401.972 64.882 L
402.406 64.677 L
402.84 64.472 L
403.274 64.27 L
403.708 64.068 L
404.142 63.868 L
404.576 63.67 L
405.01 63.473 L
405.444 63.277 L
405.878 63.083 L
406.312 62.891 L
406.746 62.7 L
407.18 62.511 L
407.614 62.323 L
408.048 62.136 L
408.482 61.952 L
408.916 61.768 L
409.35 61.587 L
409.784 61.407 L
410.218 61.228 L
410.652 61.051 L
411.086 60.875 L
411.52 60.701 L
411.954 60.529 L
412.388 60.357 L
412.822 60.188 L
413.256 60.019 L
413.69 59.852 L
414.124 59.687 L
414.558 59.523 L
414.992 59.36 L
415.426 59.198 L
415.86 59.038 L
416.294 58.879 L
416.728 58.721 L
417.162 58.564 L
417.596 58.409 L
418.03 58.255 L
418.464 58.101 L
418.898 57.949 L
419.332 57.798 L
419.766 57.649 L
420.2 57.5 L
420.634 57.352 L
421.068 57.205 L
421.502 57.06 L
421.936 56.915 L
422.37 56.771 L
422.804 56.628 L
423.238 56.487 L
423.672 56.346 L
424.106 56.206 L
424.54 56.067 L
424.974 55.929 L
425.408 55.792 L
425.842 55.656 L
426.276 55.521 L
426.71 55.387 L
427.144 55.254 L
427.578 55.122 L
428.012 54.991 L
428.446 54.86 L
428.88 54.731 L
429.314 54.602 L
429.748 54.475 L
430.182 54.348 L
430.616 54.223 L
431.05 54.098 L
431.484 53.975 L
431.918 53.852 L
432.352 53.73 L
432.786 53.609 L
433.22 53.49 L
433.654 53.371 L
434.088 53.253 L
434.522 53.135 L
434.956 53.019 L
435.39 52.904 L
435.824 52.789 L
436.258 52.676 L
436.692 52.563 L
437.126 52.451 L
437.56 52.34 L
437.994 52.23 L
438.428 52.12 L
438.862 52.012 L
439.296 51.904 L
439.73 51.797 L
440.164 51.69 L
440.598 51.584 L
441.032 51.479 L
441.466 51.375 L
441.9 51.271 L
442.334 51.168 L
442.768 51.065 L
443.202 50.963 L
443.636 50.862 L
444.07 50.761 L
444.504 50.661 L
444.938 50.562 L
445.372 50.463 L
445.806 50.364 L
446.24 50.266 L
446.674 50.169 L
447.108 50.072 L
447.542 49.976 L
447.976 49.88 L
448.41 49.785 L
448.844 49.691 L
449.278 49.597 L
449.712 49.504 L
450.146 49.411 L
450.58 49.319 L
451.014 49.227 L
451.448 49.136 L
451.882 49.046 L
452.316 48.956 L
452.75 48.867 L
453.184 48.778 L
453.618 48.69 L
454.052 48.603 L
454.486 48.517 L
454.92 48.431 L
455.354 48.345 L
455.788 48.261 L
456.222 48.177 L
456.656 48.094 L
457.09 48.011 L
457.524 47.929 L
457.958 47.848 L
458.392 47.767 L
458.826 47.687 L
459.26 47.608 L
459.694 47.529 L
460.128 47.451 L
460.562 47.373 L
460.996 47.296 L
461.43 47.22 L
461.864 47.144 L
462.298 47.068 L
462.732 46.993 L
463.166 46.918 L
463.6 46.844 L
464.034 46.77 L
464.468 46.696 L
464.902 46.623 L
465.336 46.55 L
465.77 46.477 L
466.204 46.405 L
466.638 46.333 L
467.072 46.261 L
467.506 46.189 L
467.94 46.117 L
468.374 46.046 L
468.808 45.974 L
469.242 45.903 L
469.676 45.832 L
470.11 45.76 L
470.544 45.69 L
470.978 45.619 L
471.412 45.548 L
471.846 45.477 L
472.28 45.407 L
472.714 45.337 L
473.148 45.266 L
473.582 45.197 L
474.016 45.127 L
474.45 45.057 L
474.884 44.988 L
475.318 44.92 L
475.752 44.851 L
476.186 44.783 L
476.62 44.716 L
477.054 44.649 L
477.488 44.582 L
477.922 44.516 L
478.356 44.451 L
478.79 44.386 L
479.224 44.323 L
479.658 44.26 L
480.092 44.197 L
480.526 44.136 L
480.96 44.076 L
481.394 44.016 L
481.828 43.958 L
482.262 43.9 L
482.696 43.844 L
483.13 43.789 L
483.564 43.735 L
483.998 43.682 L
484.432 43.63 L
484.866 43.579 L
485.3 43.53 L
485.734 43.481 L
486.168 43.434 L
486.602 43.388 L
487.036 43.343 L
487.47 43.3 L
487.904 43.257 L
488.338 43.216 L
488.772 43.175 L
489.206 43.136 L
489.64 43.098 L
490.074 43.06 L
490.508 43.024 L
490.942 42.988 L
491.376 42.953 L
491.81 42.919 L
492.244 42.886 L
492.678 42.853 L
493.112 42.821 L
493.546 42.789 L
493.98 42.758 L
494.414 42.727 L
494.848 42.697 L
495.282 42.666 L
495.716 42.636 L
496.15 42.606 L
496.584 42.576 L
497.018 42.546 L
497.452 42.516 L
497.886 42.486 L
498.32 42.456 L
498.754 42.426 L
499.188 42.395 L
499.622 42.365 L
500.056 42.334 L
500.49 42.302 L
500.924 42.271 L
501.358 42.239 L
501.792 42.206 L
502.226 42.174 L
502.66 42.141 L
503.094 42.107 L
503.528 42.074 L
503.962 42.04 L
504.396 42.005 L
504.83 41.971 L
505.264 41.936 L
505.698 41.901 L
506.132 41.865 L
506.566 41.829 L
507 41.794 L
S
GR
GS
[0.75 0 0 0.75 54.75 33.6676] CT
0.851 0.325 0.098 RC
10.0 ML
2.667 LW
N
-3.3 -3.3 M
3.3 3.3 L
-3.3 3.3 M
3.3 -3.3 L
S
GR
GS
[0.75 0 0 0.75 64.51502 34.55624] CT
0.851 0.325 0.098 RC
10.0 ML
2.667 LW
N
-3.3 -3.3 M
3.3 3.3 L
-3.3 3.3 M
3.3 -3.3 L
S
GR
GS
[0.75 0 0 0.75 74.27994 35.85802] CT
0.851 0.325 0.098 RC
10.0 ML
2.667 LW
N
-3.3 -3.3 M
3.3 3.3 L
-3.3 3.3 M
3.3 -3.3 L
S
GR
GS
[0.75 0 0 0.75 84.04506 37.72549] CT
0.851 0.325 0.098 RC
10.0 ML
2.667 LW
N
-3.3 -3.3 M
3.3 3.3 L
-3.3 3.3 M
3.3 -3.3 L
S
GR
GS
[0.75 0 0 0.75 93.81008 39.78121] CT
0.851 0.325 0.098 RC
10.0 ML
2.667 LW
N
-3.3 -3.3 M
3.3 3.3 L
-3.3 3.3 M
3.3 -3.3 L
S
GR
GS
[0.75 0 0 0.75 103.57499 42.11473] CT
0.851 0.325 0.098 RC
10.0 ML
2.667 LW
N
-3.3 -3.3 M
3.3 3.3 L
-3.3 3.3 M
3.3 -3.3 L
S
GR
GS
[0.75 0 0 0.75 113.34002 44.78096] CT
0.851 0.325 0.098 RC
10.0 ML
2.667 LW
N
-3.3 -3.3 M
3.3 3.3 L
-3.3 3.3 M
3.3 -3.3 L
S
GR
GS
[0.75 0 0 0.75 123.10493 47.8762] CT
0.851 0.325 0.098 RC
10.0 ML
2.667 LW
N
-3.3 -3.3 M
3.3 3.3 L
-3.3 3.3 M
3.3 -3.3 L
S
GR
GS
[0.75 0 0 0.75 132.87006 51.49314] CT
0.851 0.325 0.098 RC
10.0 ML
2.667 LW
N
-3.3 -3.3 M
3.3 3.3 L
-3.3 3.3 M
3.3 -3.3 L
S
GR
GS
[0.75 0 0 0.75 142.63507 55.89282] CT
0.851 0.325 0.098 RC
10.0 ML
2.667 LW
N
-3.3 -3.3 M
3.3 3.3 L
-3.3 3.3 M
3.3 -3.3 L
S
GR
GS
[0.75 0 0 0.75 152.39999 61.2998] CT
0.851 0.325 0.098 RC
10.0 ML
2.667 LW
N
-3.3 -3.3 M
3.3 3.3 L
-3.3 3.3 M
3.3 -3.3 L
S
GR
GS
[0.75 0 0 0.75 162.16501 68.03769] CT
0.851 0.325 0.098 RC
10.0 ML
2.667 LW
N
-3.3 -3.3 M
3.3 3.3 L
-3.3 3.3 M
3.3 -3.3 L
S
GR
GS
[0.75 0 0 0.75 171.93003 76.61227] CT
0.851 0.325 0.098 RC
10.0 ML
2.667 LW
N
-3.3 -3.3 M
3.3 3.3 L
-3.3 3.3 M
3.3 -3.3 L
S
GR
GS
[0.75 0 0 0.75 181.69505 87.85572] CT
0.851 0.325 0.098 RC
10.0 ML
2.667 LW
N
-3.3 -3.3 M
3.3 3.3 L
-3.3 3.3 M
3.3 -3.3 L
S
GR
GS
[0.75 0 0 0.75 191.46007 103.27649] CT
0.851 0.325 0.098 RC
10.0 ML
2.667 LW
N
-3.3 -3.3 M
3.3 3.3 L
-3.3 3.3 M
3.3 -3.3 L
S
GR
GS
[0.75 0 0 0.75 201.22499 126.25021] CT
0.851 0.325 0.098 RC
10.0 ML
2.667 LW
N
-3.3 -3.3 M
3.3 3.3 L
-3.3 3.3 M
3.3 -3.3 L
S
GR
GS
[0.75 0 0 0.75 210.99001 166.6207] CT
0.851 0.325 0.098 RC
10.0 ML
2.667 LW
N
-3.3 -3.3 M
3.3 3.3 L
-3.3 3.3 M
3.3 -3.3 L
S
GR
GS
[0.75 0 0 0.75 220.75513 204.32405] CT
0.851 0.325 0.098 RC
10.0 ML
2.667 LW
N
-3.3 -3.3 M
3.3 3.3 L
-3.3 3.3 M
3.3 -3.3 L
S
GR
GS
[0.75 0 0 0.75 230.52003 144.92037] CT
0.851 0.325 0.098 RC
10.0 ML
2.667 LW
N
-3.3 -3.3 M
3.3 3.3 L
-3.3 3.3 M
3.3 -3.3 L
S
GR
GS
[0.75 0 0 0.75 240.28507 113.61316] CT
0.851 0.325 0.098 RC
10.0 ML
2.667 LW
N
-3.3 -3.3 M
3.3 3.3 L
-3.3 3.3 M
3.3 -3.3 L
S
GR
GS
[0.75 0 0 0.75 250.05009 93.89963] CT
0.851 0.325 0.098 RC
10.0 ML
2.667 LW
N
-3.3 -3.3 M
3.3 3.3 L
-3.3 3.3 M
3.3 -3.3 L
S
GR
GS
[0.75 0 0 0.75 259.8151 79.97018] CT
0.851 0.325 0.098 RC
10.0 ML
2.667 LW
N
-3.3 -3.3 M
3.3 3.3 L
-3.3 3.3 M
3.3 -3.3 L
S
GR
GS
[0.75 0 0 0.75 269.58012 69.53528] CT
0.851 0.325 0.098 RC
10.0 ML
2.667 LW
N
-3.3 -3.3 M
3.3 3.3 L
-3.3 3.3 M
3.3 -3.3 L
S
GR
GS
[0.75 0 0 0.75 279.34504 61.48267] CT
0.851 0.325 0.098 RC
10.0 ML
2.667 LW
N
-3.3 -3.3 M
3.3 3.3 L
-3.3 3.3 M
3.3 -3.3 L
S
GR
GS
[0.75 0 0 0.75 289.11005 55.17237] CT
0.851 0.325 0.098 RC
10.0 ML
2.667 LW
N
-3.3 -3.3 M
3.3 3.3 L
-3.3 3.3 M
3.3 -3.3 L
S
GR
GS
[0.75 0 0 0.75 298.87509 49.93057] CT
0.851 0.325 0.098 RC
10.0 ML
2.667 LW
N
-3.3 -3.3 M
3.3 3.3 L
-3.3 3.3 M
3.3 -3.3 L
S
GR
GS
[0.75 0 0 0.75 308.64011 45.52592] CT
0.851 0.325 0.098 RC
10.0 ML
2.667 LW
N
-3.3 -3.3 M
3.3 3.3 L
-3.3 3.3 M
3.3 -3.3 L
S
GR
GS
[0.75 0 0 0.75 318.40512 42.0504] CT
0.851 0.325 0.098 RC
10.0 ML
2.667 LW
N
-3.3 -3.3 M
3.3 3.3 L
-3.3 3.3 M
3.3 -3.3 L
S
GR
GS
[0.75 0 0 0.75 328.17004 39.25513] CT
0.851 0.325 0.098 RC
10.0 ML
2.667 LW
N
-3.3 -3.3 M
3.3 3.3 L
-3.3 3.3 M
3.3 -3.3 L
S
GR
GS
[0.75 0 0 0.75 337.93506 36.98891] CT
0.851 0.325 0.098 RC
10.0 ML
2.667 LW
N
-3.3 -3.3 M
3.3 3.3 L
-3.3 3.3 M
3.3 -3.3 L
S
GR
GS
[0.75 0 0 0.75 347.70007 35.13296] CT
0.851 0.325 0.098 RC
10.0 ML
2.667 LW
N
-3.3 -3.3 M
3.3 3.3 L
-3.3 3.3 M
3.3 -3.3 L
S
GR
GS
[0.75 0 0 0.75 357.46509 33.53669] CT
0.851 0.325 0.098 RC
10.0 ML
2.667 LW
N
-3.3 -3.3 M
3.3 3.3 L
-3.3 3.3 M
3.3 -3.3 L
S
GR
GS
[0.75 0 0 0.75 367.23013 32.32335] CT
0.851 0.325 0.098 RC
10.0 ML
2.667 LW
N
-3.3 -3.3 M
3.3 3.3 L
-3.3 3.3 M
3.3 -3.3 L
S
GR
GS
[0.75 0 0 0.75 376.99514 31.60562] CT
0.851 0.325 0.098 RC
10.0 ML
2.667 LW
N
-3.3 -3.3 M
3.3 3.3 L
-3.3 3.3 M
3.3 -3.3 L
S
GR
GS
[0.75 0 0 0.75 0 0] CT
1 GC
N
401 344 M
401 290 L
494 290 L
494 344 L
cp
f
GR
GS
[0.75 0 0 0.75 336 228.27523] CT
/Helvetica 19.2 F
GS
[1 0 0 1 0 0] CT
0 7.5 moveto 
1 -1 scale
(HGA) t 
GR
GR
GS
[0.75 0 0 0.75 0 0] CT
0 0.447 0.741 RC
1 LJ
2.667 LW
N
405 304.367 M
445 304.367 L
S
GR
GS
[0.75 0 0 0.75 318.75 228.27523] CT
0 0.447 0.741 RC
10.0 ML
2.667 LW
N
-4 -4 M
-4 4 L
4 4 L
4 -4 L
cp
S
GR
GS
[0.75 0 0 0.75 336 247.22477] CT
/Helvetica 19.2 F
GS
[1 0 0 1 0 0] CT
0 7.5 moveto 
1 -1 scale
(WA) t 
GR
GR
GS
[0.75 0 0 0.75 0 0] CT
0.851 0.325 0.098 RC
1 LJ
2.667 LW
N
405 329.633 M
445 329.633 L
S
GR
GS
[0.75 0 0 0.75 318.75 247.22477] CT
0.851 0.325 0.098 RC
10.0 ML
2.667 LW
N
-3.3 -3.3 M
3.3 3.3 L
-3.3 3.3 M
3.3 -3.3 L
S
GR
GS
[0.75 0 0 0.75 0 0] CT
0.149 GC
10.0 ML
0.667 LW
N
401 344 M
401 290 L
494 290 L
494 344 L
cp
S
GR
%%Trailer
%%Pages: 1
%%EOF
