%!PS-Adobe-3.0 EPSF-3.0
%%Creator: (MATLAB, The Mathworks, Inc. Version 9.2.0.556344 \(R2017a\). Operating System: Windows 8)
%%Title: ./../paper_mercury/figures/plot_farfield2D_wideband_VS_high_gain_Phi90_23_cartesian.eps
%%CreationDate: 2017-10-23T12:48:10
%%Pages: (atend)
%%BoundingBox:     8     0   382   297
%%LanguageLevel: 3
%%EndComments
%%BeginProlog
%%BeginResource: procset (Apache XML Graphics Std ProcSet) 1.2 0
%%Version: 1.2 0
%%Copyright: (Copyright 2001-2003,2010 The Apache Software Foundation. License terms: http://www.apache.org/licenses/LICENSE-2.0)
/bd{bind def}bind def
/ld{load def}bd
/GR/grestore ld
/M/moveto ld
/LJ/setlinejoin ld
/C/curveto ld
/f/fill ld
/LW/setlinewidth ld
/GC/setgray ld
/t/show ld
/N/newpath ld
/CT/concat ld
/cp/closepath ld
/S/stroke ld
/L/lineto ld
/CC/setcmykcolor ld
/A/ashow ld
/GS/gsave ld
/RC/setrgbcolor ld
/RM/rmoveto ld
/ML/setmiterlimit ld
/re {4 2 roll M
1 index 0 rlineto
0 exch rlineto
neg 0 rlineto
cp } bd
/_ctm matrix def
/_tm matrix def
/BT { _ctm currentmatrix pop matrix _tm copy pop 0 0 moveto } bd
/ET { _ctm setmatrix } bd
/iTm { _ctm setmatrix _tm concat } bd
/Tm { _tm astore pop iTm 0 0 moveto } bd
/ux 0.0 def
/uy 0.0 def
/F {
  /Tp exch def
  /Tf exch def
  Tf findfont Tp scalefont setfont
  /cf Tf def  /cs Tp def
} bd
/ULS {currentpoint /uy exch def /ux exch def} bd
/ULE {
  /Tcx currentpoint pop def
  gsave
  newpath
  cf findfont cs scalefont dup
  /FontMatrix get 0 get /Ts exch def /FontInfo get dup
  /UnderlinePosition get Ts mul /To exch def
  /UnderlineThickness get Ts mul /Tt exch def
  ux uy To add moveto  Tcx uy To add lineto
  Tt setlinewidth stroke
  grestore
} bd
/OLE {
  /Tcx currentpoint pop def
  gsave
  newpath
  cf findfont cs scalefont dup
  /FontMatrix get 0 get /Ts exch def /FontInfo get dup
  /UnderlinePosition get Ts mul /To exch def
  /UnderlineThickness get Ts mul /Tt exch def
  ux uy To add cs add moveto Tcx uy To add cs add lineto
  Tt setlinewidth stroke
  grestore
} bd
/SOE {
  /Tcx currentpoint pop def
  gsave
  newpath
  cf findfont cs scalefont dup
  /FontMatrix get 0 get /Ts exch def /FontInfo get dup
  /UnderlinePosition get Ts mul /To exch def
  /UnderlineThickness get Ts mul /Tt exch def
  ux uy To add cs 10 mul 26 idiv add moveto Tcx uy To add cs 10 mul 26 idiv add lineto
  Tt setlinewidth stroke
  grestore
} bd
/QT {
/Y22 exch store
/X22 exch store
/Y21 exch store
/X21 exch store
currentpoint
/Y21 load 2 mul add 3 div exch
/X21 load 2 mul add 3 div exch
/X21 load 2 mul /X22 load add 3 div
/Y21 load 2 mul /Y22 load add 3 div
/X22 load /Y22 load curveto
} bd
/SSPD {
dup length /d exch dict def
{
/v exch def
/k exch def
currentpagedevice k known {
/cpdv currentpagedevice k get def
v cpdv ne {
/upd false def
/nullv v type /nulltype eq def
/nullcpdv cpdv type /nulltype eq def
nullv nullcpdv or
{
/upd true def
} {
/sametype v type cpdv type eq def
sametype {
v type /arraytype eq {
/vlen v length def
/cpdvlen cpdv length def
vlen cpdvlen eq {
0 1 vlen 1 sub {
/i exch def
/obj v i get def
/cpdobj cpdv i get def
obj cpdobj ne {
/upd true def
exit
} if
} for
} {
/upd true def
} ifelse
} {
v type /dicttype eq {
v {
/dv exch def
/dk exch def
/cpddv cpdv dk get def
dv cpddv ne {
/upd true def
exit
} if
} forall
} {
/upd true def
} ifelse
} ifelse
} if
} ifelse
upd true eq {
d k v put
} if
} if
} if
} forall
d length 0 gt {
d setpagedevice
} if
} bd
/RE { % /NewFontName [NewEncodingArray] /FontName RE -
  findfont dup length dict begin
  {
    1 index /FID ne
    {def} {pop pop} ifelse
  } forall
  /Encoding exch def
  /FontName 1 index def
  currentdict definefont pop
  end
} bind def
%%EndResource
%%BeginResource: procset (Apache XML Graphics EPS ProcSet) 1.0 0
%%Version: 1.0 0
%%Copyright: (Copyright 2002-2003 The Apache Software Foundation. License terms: http://www.apache.org/licenses/LICENSE-2.0)
/BeginEPSF { %def
/b4_Inc_state save def         % Save state for cleanup
/dict_count countdictstack def % Count objects on dict stack
/op_count count 1 sub def      % Count objects on operand stack
userdict begin                 % Push userdict on dict stack
/showpage { } def              % Redefine showpage, { } = null proc
0 setgray 0 setlinecap         % Prepare graphics state
1 setlinewidth 0 setlinejoin
10 setmiterlimit [ ] 0 setdash newpath
/languagelevel where           % If level not equal to 1 then
{pop languagelevel             % set strokeadjust and
1 ne                           % overprint to their defaults.
{false setstrokeadjust false setoverprint
} if
} if
} bd
/EndEPSF { %def
count op_count sub {pop} repeat            % Clean up stacks
countdictstack dict_count sub {end} repeat
b4_Inc_state restore
} bd
%%EndResource
%FOPBeginFontDict
%%IncludeResource: font Courier-Bold
%%IncludeResource: font Helvetica
%%IncludeResource: font Courier-BoldOblique
%%IncludeResource: font Courier-Oblique
%%IncludeResource: font Times-Roman
%%IncludeResource: font Helvetica-BoldOblique
%%IncludeResource: font Helvetica-Bold
%%IncludeResource: font Helvetica-Oblique
%%IncludeResource: font Times-BoldItalic
%%IncludeResource: font Courier
%%IncludeResource: font Times-Italic
%%IncludeResource: font Times-Bold
%%IncludeResource: font Symbol
%%IncludeResource: font ZapfDingbats
%FOPEndFontDict
%%BeginResource: encoding WinAnsiEncoding
/WinAnsiEncoding [
/.notdef /.notdef /.notdef /.notdef /.notdef
/.notdef /.notdef /.notdef /.notdef /.notdef
/.notdef /.notdef /.notdef /.notdef /.notdef
/.notdef /.notdef /.notdef /.notdef /.notdef
/.notdef /.notdef /.notdef /.notdef /.notdef
/.notdef /.notdef /.notdef /.notdef /.notdef
/.notdef /.notdef /space /exclam /quotedbl
/numbersign /dollar /percent /ampersand /quotesingle
/parenleft /parenright /asterisk /plus /comma
/hyphen /period /slash /zero /one
/two /three /four /five /six
/seven /eight /nine /colon /semicolon
/less /equal /greater /question /at
/A /B /C /D /E
/F /G /H /I /J
/K /L /M /N /O
/P /Q /R /S /T
/U /V /W /X /Y
/Z /bracketleft /backslash /bracketright /asciicircum
/underscore /quoteleft /a /b /c
/d /e /f /g /h
/i /j /k /l /m
/n /o /p /q /r
/s /t /u /v /w
/x /y /z /braceleft /bar
/braceright /asciitilde /bullet /Euro /bullet
/quotesinglbase /florin /quotedblbase /ellipsis /dagger
/daggerdbl /circumflex /perthousand /Scaron /guilsinglleft
/OE /bullet /Zcaron /bullet /bullet
/quoteleft /quoteright /quotedblleft /quotedblright /bullet
/endash /emdash /asciitilde /trademark /scaron
/guilsinglright /oe /bullet /zcaron /Ydieresis
/space /exclamdown /cent /sterling /currency
/yen /brokenbar /section /dieresis /copyright
/ordfeminine /guillemotleft /logicalnot /sfthyphen /registered
/macron /degree /plusminus /twosuperior /threesuperior
/acute /mu /paragraph /middot /cedilla
/onesuperior /ordmasculine /guillemotright /onequarter /onehalf
/threequarters /questiondown /Agrave /Aacute /Acircumflex
/Atilde /Adieresis /Aring /AE /Ccedilla
/Egrave /Eacute /Ecircumflex /Edieresis /Igrave
/Iacute /Icircumflex /Idieresis /Eth /Ntilde
/Ograve /Oacute /Ocircumflex /Otilde /Odieresis
/multiply /Oslash /Ugrave /Uacute /Ucircumflex
/Udieresis /Yacute /Thorn /germandbls /agrave
/aacute /acircumflex /atilde /adieresis /aring
/ae /ccedilla /egrave /eacute /ecircumflex
/edieresis /igrave /iacute /icircumflex /idieresis
/eth /ntilde /ograve /oacute /ocircumflex
/otilde /odieresis /divide /oslash /ugrave
/uacute /ucircumflex /udieresis /yacute /thorn
/ydieresis
] def
%%EndResource
%FOPBeginFontReencode
/Courier-Bold findfont
dup length dict begin
  {1 index /FID ne {def} {pop pop} ifelse} forall
  /Encoding WinAnsiEncoding def
  currentdict
end
/Courier-Bold exch definefont pop
/Helvetica findfont
dup length dict begin
  {1 index /FID ne {def} {pop pop} ifelse} forall
  /Encoding WinAnsiEncoding def
  currentdict
end
/Helvetica exch definefont pop
/Courier-BoldOblique findfont
dup length dict begin
  {1 index /FID ne {def} {pop pop} ifelse} forall
  /Encoding WinAnsiEncoding def
  currentdict
end
/Courier-BoldOblique exch definefont pop
/Courier-Oblique findfont
dup length dict begin
  {1 index /FID ne {def} {pop pop} ifelse} forall
  /Encoding WinAnsiEncoding def
  currentdict
end
/Courier-Oblique exch definefont pop
/Times-Roman findfont
dup length dict begin
  {1 index /FID ne {def} {pop pop} ifelse} forall
  /Encoding WinAnsiEncoding def
  currentdict
end
/Times-Roman exch definefont pop
/Helvetica-BoldOblique findfont
dup length dict begin
  {1 index /FID ne {def} {pop pop} ifelse} forall
  /Encoding WinAnsiEncoding def
  currentdict
end
/Helvetica-BoldOblique exch definefont pop
/Helvetica-Bold findfont
dup length dict begin
  {1 index /FID ne {def} {pop pop} ifelse} forall
  /Encoding WinAnsiEncoding def
  currentdict
end
/Helvetica-Bold exch definefont pop
/Helvetica-Oblique findfont
dup length dict begin
  {1 index /FID ne {def} {pop pop} ifelse} forall
  /Encoding WinAnsiEncoding def
  currentdict
end
/Helvetica-Oblique exch definefont pop
/Times-BoldItalic findfont
dup length dict begin
  {1 index /FID ne {def} {pop pop} ifelse} forall
  /Encoding WinAnsiEncoding def
  currentdict
end
/Times-BoldItalic exch definefont pop
/Courier findfont
dup length dict begin
  {1 index /FID ne {def} {pop pop} ifelse} forall
  /Encoding WinAnsiEncoding def
  currentdict
end
/Courier exch definefont pop
/Times-Italic findfont
dup length dict begin
  {1 index /FID ne {def} {pop pop} ifelse} forall
  /Encoding WinAnsiEncoding def
  currentdict
end
/Times-Italic exch definefont pop
/Times-Bold findfont
dup length dict begin
  {1 index /FID ne {def} {pop pop} ifelse} forall
  /Encoding WinAnsiEncoding def
  currentdict
end
/Times-Bold exch definefont pop
%FOPEndFontReencode
%%EndProlog
%%Page: 1 1
%%PageBoundingBox: 0 0 420 315
%%BeginPageSetup
[1 0 0 -1 0 315] CT
%%EndPageSetup
GS
[0.75 0 0 0.75 0 0] CT
1 GC
N
0 0 560 420 re
f
GR
GS
[0.75 0 0 0.75 0 0] CT
1 GC
N
0 0 560 420 re
f
GR
GS
[0.75 0 0 0.75 0 0] CT
1 GC
N
73 358 M
507 358 L
507 31 L
73 31 L
cp
f
GR
GS
[0.75 0 0 0.75 0 0] CT
0.873 GC
1 LJ
0.667 LW
N
169.444 358 M
169.444 31 L
S
GR
GS
[0.75 0 0 0.75 0 0] CT
0.873 GC
1 LJ
0.667 LW
N
290 358 M
290 31 L
S
GR
GS
[0.75 0 0 0.75 0 0] CT
0.873 GC
1 LJ
0.667 LW
N
410.556 358 M
410.556 31 L
S
GR
GS
[0.75 0 0 0.75 0 0] CT
0.873 GC
1 LJ
0.667 LW
N
507 328.273 M
73 328.273 L
S
GR
GS
[0.75 0 0 0.75 0 0] CT
0.873 GC
1 LJ
0.667 LW
N
507 268.818 M
73 268.818 L
S
GR
GS
[0.75 0 0 0.75 0 0] CT
0.873 GC
1 LJ
0.667 LW
N
507 209.364 M
73 209.364 L
S
GR
GS
[0.75 0 0 0.75 0 0] CT
0.873 GC
1 LJ
0.667 LW
N
507 149.909 M
73 149.909 L
S
GR
GS
[0.75 0 0 0.75 0 0] CT
0.873 GC
1 LJ
0.667 LW
N
507 90.455 M
73 90.455 L
S
GR
GS
[0.75 0 0 0.75 0 0] CT
0.873 GC
1 LJ
0.667 LW
N
507 31 M
73 31 L
S
GR
GS
[0.75 0 0 0.75 0 0] CT
0.149 GC
2 setlinecap
1 LJ
0.667 LW
N
73 358 M
507 358 L
S
GR
GS
[0.75 0 0 0.75 0 0] CT
0.149 GC
2 setlinecap
1 LJ
0.667 LW
N
169.444 358 M
169.444 353.66 L
S
GR
GS
[0.75 0 0 0.75 0 0] CT
0.149 GC
2 setlinecap
1 LJ
0.667 LW
N
290 358 M
290 353.66 L
S
GR
GS
[0.75 0 0 0.75 0 0] CT
0.149 GC
2 setlinecap
1 LJ
0.667 LW
N
410.556 358 M
410.556 353.66 L
S
GR
GS
[0.75 0 0 0.75 127.08333 273.69999] CT
0.149 GC
/Helvetica 21.333 F
GS
[1 0 0 1 0 0] CT
-15.5 22 moveto 
1 -1 scale
(-50) t 
GR
GR
GS
[0.75 0 0 0.75 217.5 273.69999] CT
0.149 GC
/Helvetica 21.333 F
GS
[1 0 0 1 0 0] CT
-6 22 moveto 
1 -1 scale
(0) t 
GR
GR
GS
[0.75 0 0 0.75 307.91666 273.69999] CT
0.149 GC
/Helvetica 21.333 F
GS
[1 0 0 1 0 0] CT
-12 22 moveto 
1 -1 scale
(50) t 
GR
GR
GS
[0.75 0 0 0.75 217.50016 294.75] CT
0.149 GC
/Helvetica 21.333 F
GS
[1 0 0 1 0 0] CT
-75 22 moveto 
1 -1 scale
(Theta \(degrees\)) t 
GR
GR
GS
[0.75 0 0 0.75 0 0] CT
0.149 GC
2 setlinecap
1 LJ
0.667 LW
N
73 358 M
73 31 L
S
GR
GS
[0.75 0 0 0.75 0 0] CT
0.149 GC
2 setlinecap
1 LJ
0.667 LW
N
73 328.273 M
77.34 328.273 L
S
GR
GS
[0.75 0 0 0.75 0 0] CT
0.149 GC
2 setlinecap
1 LJ
0.667 LW
N
73 268.818 M
77.34 268.818 L
S
GR
GS
[0.75 0 0 0.75 0 0] CT
0.149 GC
2 setlinecap
1 LJ
0.667 LW
N
73 209.364 M
77.34 209.364 L
S
GR
GS
[0.75 0 0 0.75 0 0] CT
0.149 GC
2 setlinecap
1 LJ
0.667 LW
N
73 149.909 M
77.34 149.909 L
S
GR
GS
[0.75 0 0 0.75 0 0] CT
0.149 GC
2 setlinecap
1 LJ
0.667 LW
N
73 90.455 M
77.34 90.455 L
S
GR
GS
[0.75 0 0 0.75 0 0] CT
0.149 GC
2 setlinecap
1 LJ
0.667 LW
N
73 31 M
77.34 31 L
S
GR
GS
[0.75 0 0 0.75 49.54999 246.20455] CT
0.149 GC
/Helvetica 21.333 F
GS
[1 0 0 1 0 0] CT
-31 8.5 moveto 
1 -1 scale
(-20) t 
GR
GR
GS
[0.75 0 0 0.75 49.54999 201.61363] CT
0.149 GC
/Helvetica 21.333 F
GS
[1 0 0 1 0 0] CT
-31 8.5 moveto 
1 -1 scale
(-10) t 
GR
GR
GS
[0.75 0 0 0.75 49.54999 157.02272] CT
0.149 GC
/Helvetica 21.333 F
GS
[1 0 0 1 0 0] CT
-12 8.5 moveto 
1 -1 scale
(0) t 
GR
GR
GS
[0.75 0 0 0.75 49.54999 112.43182] CT
0.149 GC
/Helvetica 21.333 F
GS
[1 0 0 1 0 0] CT
-24 8.5 moveto 
1 -1 scale
(10) t 
GR
GR
GS
[0.75 0 0 0.75 49.54999 67.84091] CT
0.149 GC
/Helvetica 21.333 F
GS
[1 0 0 1 0 0] CT
-24 8.5 moveto 
1 -1 scale
(20) t 
GR
GR
GS
[0.75 0 0 0.75 49.54999 23.25] CT
0.149 GC
/Helvetica 21.333 F
GS
[1 0 0 1 0 0] CT
-24 8.5 moveto 
1 -1 scale
(30) t 
GR
GR
GS
[0 -0.75 0.75 0 23.29999 145.87489] CT
0.149 GC
/Helvetica 21.333 F
GS
[1 0 0 1 0 0] CT
-47.5 -5 moveto 
1 -1 scale
(Gain \(dBi\)) t 
GR
GR
GS
[0.75 0 0 0.75 0 0] CT
0 0.447 0.741 RC
1 LJ
2.667 LW
N
72.948 207.67 M
73 207.637 L
77.822 204.607 L
82.644 201.764 L
87.467 199.283 L
92.289 197.387 L
97.111 196.355 L
101.933 196.529 L
106.756 198.336 L
111.578 202.322 L
116.4 209.186 L
121.222 219.685 L
126.044 233.518 L
130.867 243.909 L
135.689 238.279 L
140.511 225.073 L
145.333 215.568 L
150.156 212.332 L
154.978 216.234 L
159.8 229.189 L
164.622 255.545 L
169.444 273.998 L
174.267 239.068 L
179.089 214.919 L
183.911 203.405 L
188.733 204.839 L
193.556 231.412 L
198.378 240.868 L
203.2 170.77 L
208.022 136.443 L
212.844 116.741 L
217.667 107.358 L
222.489 107.852 L
227.311 120.592 L
232.133 155.557 L
236.956 270.076 L
241.778 160.543 L
246.6 149.539 L
251.422 177.161 L
256.244 223.68 L
261.067 150.628 L
265.889 141.376 L
270.711 184.428 L
275.533 150.879 L
280.356 96.861 L
285.178 74.798 L
290 68.262 L
294.822 74.649 L
299.644 96.453 L
304.467 149.398 L
309.289 186.613 L
314.111 142.321 L
318.933 151.524 L
323.756 227.813 L
328.578 177.096 L
333.4 149.593 L
338.222 160.75 L
343.044 265.332 L
347.867 154.722 L
352.689 120.044 L
357.511 107.309 L
362.333 106.722 L
367.156 115.909 L
371.978 135.226 L
376.8 168.659 L
381.622 235.984 L
386.444 236.659 L
391.267 206.725 L
396.089 204.22 L
400.911 215.082 L
405.733 239.082 L
410.556 278.513 L
415.378 259.867 L
420.2 230.779 L
425.022 216.9 L
429.844 212.571 L
434.667 215.615 L
439.489 225.235 L
444.311 239.419 L
449.133 247.085 L
453.956 236.882 L
458.778 222.236 L
463.6 211.145 L
468.422 203.916 L
473.244 199.698 L
478.067 197.738 L
482.889 197.456 L
487.711 198.41 L
492.533 200.246 L
497.356 202.676 L
502.178 205.469 L
507 208.445 L
507.052 208.478 L
S
GR
GS
[0.75 0 0 0.75 65.6 149.4622] CT
0 0.447 0.741 RC
10.0 ML
2.667 LW
N
-4 -4 M
-4 4 L
4 4 L
4 -4 L
cp
S
GR
GS
[0.75 0 0 0.75 80.06667 148.75206] CT
0 0.447 0.741 RC
10.0 ML
2.667 LW
N
-4 -4 M
-4 4 L
4 4 L
4 -4 L
cp
S
GR
GS
[0.75 0 0 0.75 94.53333 175.13829] CT
0 0.447 0.741 RC
10.0 ML
2.667 LW
N
-4 -4 M
-4 4 L
4 4 L
4 -4 L
cp
S
GR
GS
[0.75 0 0 0.75 109 161.67588] CT
0 0.447 0.741 RC
10.0 ML
2.667 LW
N
-4 -4 M
-4 4 L
4 4 L
4 -4 L
cp
S
GR
GS
[0.75 0 0 0.75 123.46667 191.65907] CT
0 0.447 0.741 RC
10.0 ML
2.667 LW
N
-4 -4 M
-4 4 L
4 4 L
4 -4 L
cp
S
GR
GS
[0.75 0 0 0.75 137.93334 152.55371] CT
0 0.447 0.741 RC
10.0 ML
2.667 LW
N
-4 -4 M
-4 4 L
4 4 L
4 -4 L
cp
S
GR
GS
[0.75 0 0 0.75 152.4 128.0775] CT
0 0.447 0.741 RC
10.0 ML
2.667 LW
N
-4 -4 M
-4 4 L
4 4 L
4 -4 L
cp
S
GR
GS
[0.75 0 0 0.75 166.86667 80.88901] CT
0 0.447 0.741 RC
10.0 ML
2.667 LW
N
-4 -4 M
-4 4 L
4 4 L
4 -4 L
cp
S
GR
GS
[0.75 0 0 0.75 181.33333 120.40702] CT
0 0.447 0.741 RC
10.0 ML
2.667 LW
N
-4 -4 M
-4 4 L
4 4 L
4 -4 L
cp
S
GR
GS
[0.75 0 0 0.75 195.80001 112.97119] CT
0 0.447 0.741 RC
10.0 ML
2.667 LW
N
-4 -4 M
-4 4 L
4 4 L
4 -4 L
cp
S
GR
GS
[0.75 0 0 0.75 210.26667 72.64597] CT
0 0.447 0.741 RC
10.0 ML
2.667 LW
N
-4 -4 M
-4 4 L
4 4 L
4 -4 L
cp
S
GR
GS
[0.75 0 0 0.75 224.73333 72.33961] CT
0 0.447 0.741 RC
10.0 ML
2.667 LW
N
-4 -4 M
-4 4 L
4 4 L
4 -4 L
cp
S
GR
GS
[0.75 0 0 0.75 239.19999 113.64272] CT
0 0.447 0.741 RC
10.0 ML
2.667 LW
N
-4 -4 M
-4 4 L
4 4 L
4 -4 L
cp
S
GR
GS
[0.75 0 0 0.75 253.66667 120.56245] CT
0 0.447 0.741 RC
10.0 ML
2.667 LW
N
-4 -4 M
-4 4 L
4 4 L
4 -4 L
cp
S
GR
GS
[0.75 0 0 0.75 268.13333 80.48212] CT
0 0.447 0.741 RC
10.0 ML
2.667 LW
N
-4 -4 M
-4 4 L
4 4 L
4 -4 L
cp
S
GR
GS
[0.75 0 0 0.75 282.59999 126.494] CT
0 0.447 0.741 RC
10.0 ML
2.667 LW
N
-4 -4 M
-4 4 L
4 4 L
4 -4 L
cp
S
GR
GS
[0.75 0 0 0.75 297.06667 153.16502] CT
0 0.447 0.741 RC
10.0 ML
2.667 LW
N
-4 -4 M
-4 4 L
4 4 L
4 -4 L
cp
S
GR
GS
[0.75 0 0 0.75 311.53333 194.90023] CT
0 0.447 0.741 RC
10.0 ML
2.667 LW
N
-4 -4 M
-4 4 L
4 4 L
4 -4 L
cp
S
GR
GS
[0.75 0 0 0.75 325.99999 161.71095] CT
0 0.447 0.741 RC
10.0 ML
2.667 LW
N
-4 -4 M
-4 4 L
4 4 L
4 -4 L
cp
S
GR
GS
[0.75 0 0 0.75 340.46667 177.66123] CT
0 0.447 0.741 RC
10.0 ML
2.667 LW
N
-4 -4 M
-4 4 L
4 4 L
4 -4 L
cp
S
GR
GS
[0.75 0 0 0.75 354.93333 149.77384] CT
0 0.447 0.741 RC
10.0 ML
2.667 LW
N
-4 -4 M
-4 4 L
4 4 L
4 -4 L
cp
S
GR
GS
[0.75 0 0 0.75 369.39999 150.18423] CT
0 0.447 0.741 RC
10.0 ML
2.667 LW
N
-4 -4 M
-4 4 L
4 4 L
4 -4 L
cp
S
GR
GS
[0.75 0 0 0.75 0 0] CT
0.851 0.325 0.098 RC
1 LJ
2.667 LW
N
72.948 210.76 M
73 210.711 L
77.822 206.203 L
82.644 201.723 L
87.467 197.294 L
92.289 192.991 L
97.111 188.949 L
101.933 185.357 L
106.756 182.472 L
111.578 180.631 L
116.4 180.282 L
121.222 182.055 L
126.044 186.914 L
130.867 196.55 L
135.689 214.702 L
140.511 254.469 L
145.333 313.406 L
150.156 229.184 L
154.978 202.914 L
159.8 192.664 L
164.622 194.419 L
169.444 211.794 L
174.267 271.985 L
179.089 240.237 L
183.911 199.346 L
188.733 191.159 L
193.556 215.918 L
198.378 237.25 L
203.2 156.601 L
208.022 123.037 L
212.844 105.091 L
217.667 97.724 L
222.489 100.237 L
227.311 114.79 L
232.133 150.75 L
236.956 289.294 L
241.778 163.629 L
246.6 153.596 L
251.422 183.332 L
256.244 229.111 L
261.067 157.262 L
265.889 149.412 L
270.711 195.317 L
275.533 159.742 L
280.356 106.49 L
285.178 84.99 L
290 78.875 L
294.822 85.641 L
299.644 108.051 L
304.467 164.001 L
309.289 190.92 L
314.111 149.497 L
318.933 159.163 L
323.756 233.663 L
328.578 178.525 L
333.4 152.339 L
338.222 163.853 L
343.044 331.112 L
347.867 149.856 L
352.689 114.628 L
357.511 100.457 L
362.333 98.233 L
367.156 105.879 L
371.978 124.186 L
376.8 158.504 L
381.622 244.033 L
386.444 212.677 L
391.267 189.506 L
396.089 197.343 L
400.911 234.728 L
405.733 277.391 L
410.556 215.449 L
415.378 197.284 L
420.2 195.33 L
425.022 205.678 L
429.844 232.359 L
434.667 307.317 L
439.489 250.988 L
444.311 214.453 L
449.133 197.097 L
453.956 187.865 L
458.778 183.297 L
463.6 181.782 L
468.422 182.39 L
473.244 184.505 L
478.067 187.688 L
482.889 191.603 L
487.711 195.993 L
492.533 200.663 L
497.356 205.469 L
502.178 210.32 L
507 215.17 L
507.052 215.222 L
S
GR
GS
[0.75 0 0 0.75 65.6 147.97037] CT
0.851 0.325 0.098 RC
10.0 ML
2.667 LW
N
-3.3 -3.3 M
3.3 3.3 L
-3.3 3.3 M
3.3 -3.3 L
S
GR
GS
[0.75 0 0 0.75 80.06667 136.85433] CT
0.851 0.325 0.098 RC
10.0 ML
2.667 LW
N
-3.3 -3.3 M
3.3 3.3 L
-3.3 3.3 M
3.3 -3.3 L
S
GR
GS
[0.75 0 0 0.75 94.53333 140.18523] CT
0.851 0.325 0.098 RC
10.0 ML
2.667 LW
N
-3.3 -3.3 M
3.3 3.3 L
-3.3 3.3 M
3.3 -3.3 L
S
GR
GS
[0.75 0 0 0.75 109 235.05418] CT
0.851 0.325 0.098 RC
10.0 ML
2.667 LW
N
-3.3 -3.3 M
3.3 3.3 L
-3.3 3.3 M
3.3 -3.3 L
S
GR
GS
[0.75 0 0 0.75 123.46667 145.81436] CT
0.851 0.325 0.098 RC
10.0 ML
2.667 LW
N
-3.3 -3.3 M
3.3 3.3 L
-3.3 3.3 M
3.3 -3.3 L
S
GR
GS
[0.75 0 0 0.75 137.93334 149.50952] CT
0.851 0.325 0.098 RC
10.0 ML
2.667 LW
N
-3.3 -3.3 M
3.3 3.3 L
-3.3 3.3 M
3.3 -3.3 L
S
GR
GS
[0.75 0 0 0.75 152.4 117.45094] CT
0.851 0.325 0.098 RC
10.0 ML
2.667 LW
N
-3.3 -3.3 M
3.3 3.3 L
-3.3 3.3 M
3.3 -3.3 L
S
GR
GS
[0.75 0 0 0.75 166.86667 75.17777] CT
0.851 0.325 0.098 RC
10.0 ML
2.667 LW
N
-3.3 -3.3 M
3.3 3.3 L
-3.3 3.3 M
3.3 -3.3 L
S
GR
GS
[0.75 0 0 0.75 181.33333 122.72208] CT
0.851 0.325 0.098 RC
10.0 ML
2.667 LW
N
-3.3 -3.3 M
3.3 3.3 L
-3.3 3.3 M
3.3 -3.3 L
S
GR
GS
[0.75 0 0 0.75 195.80001 117.94684] CT
0.851 0.325 0.098 RC
10.0 ML
2.667 LW
N
-3.3 -3.3 M
3.3 3.3 L
-3.3 3.3 M
3.3 -3.3 L
S
GR
GS
[0.75 0 0 0.75 210.26667 79.86722] CT
0.851 0.325 0.098 RC
10.0 ML
2.667 LW
N
-3.3 -3.3 M
3.3 3.3 L
-3.3 3.3 M
3.3 -3.3 L
S
GR
GS
[0.75 0 0 0.75 224.73333 81.03834] CT
0.851 0.325 0.098 RC
10.0 ML
2.667 LW
N
-3.3 -3.3 M
3.3 3.3 L
-3.3 3.3 M
3.3 -3.3 L
S
GR
GS
[0.75 0 0 0.75 239.19999 119.37246] CT
0.851 0.325 0.098 RC
10.0 ML
2.667 LW
N
-3.3 -3.3 M
3.3 3.3 L
-3.3 3.3 M
3.3 -3.3 L
S
GR
GS
[0.75 0 0 0.75 253.66667 122.89003] CT
0.851 0.325 0.098 RC
10.0 ML
2.667 LW
N
-3.3 -3.3 M
3.3 3.3 L
-3.3 3.3 M
3.3 -3.3 L
S
GR
GS
[0.75 0 0 0.75 268.13333 75.34274] CT
0.851 0.325 0.098 RC
10.0 ML
2.667 LW
N
-3.3 -3.3 M
3.3 3.3 L
-3.3 3.3 M
3.3 -3.3 L
S
GR
GS
[0.75 0 0 0.75 282.59999 118.878] CT
0.851 0.325 0.098 RC
10.0 ML
2.667 LW
N
-3.3 -3.3 M
3.3 3.3 L
-3.3 3.3 M
3.3 -3.3 L
S
GR
GS
[0.75 0 0 0.75 297.06667 148.00746] CT
0.851 0.325 0.098 RC
10.0 ML
2.667 LW
N
-3.3 -3.3 M
3.3 3.3 L
-3.3 3.3 M
3.3 -3.3 L
S
GR
GS
[0.75 0 0 0.75 311.53333 147.96321] CT
0.851 0.325 0.098 RC
10.0 ML
2.667 LW
N
-3.3 -3.3 M
3.3 3.3 L
-3.3 3.3 M
3.3 -3.3 L
S
GR
GS
[0.75 0 0 0.75 325.99999 230.4876] CT
0.851 0.325 0.098 RC
10.0 ML
2.667 LW
N
-3.3 -3.3 M
3.3 3.3 L
-3.3 3.3 M
3.3 -3.3 L
S
GR
GS
[0.75 0 0 0.75 340.46667 140.89883] CT
0.851 0.325 0.098 RC
10.0 ML
2.667 LW
N
-3.3 -3.3 M
3.3 3.3 L
-3.3 3.3 M
3.3 -3.3 L
S
GR
GS
[0.75 0 0 0.75 354.93333 138.37906] CT
0.851 0.325 0.098 RC
10.0 ML
2.667 LW
N
-3.3 -3.3 M
3.3 3.3 L
-3.3 3.3 M
3.3 -3.3 L
S
GR
GS
[0.75 0 0 0.75 369.39999 150.49688] CT
0.851 0.325 0.098 RC
10.0 ML
2.667 LW
N
-3.3 -3.3 M
3.3 3.3 L
-3.3 3.3 M
3.3 -3.3 L
S
GR
GS
[0.75 0 0 0.75 0 0] CT
1 GC
N
401 344 M
401 290 L
494 290 L
494 344 L
cp
f
GR
GS
[0.75 0 0 0.75 336 228.27523] CT
/Helvetica 19.2 F
GS
[1 0 0 1 0 0] CT
0 7.5 moveto 
1 -1 scale
(HGA) t 
GR
GR
GS
[0.75 0 0 0.75 0 0] CT
0 0.447 0.741 RC
1 LJ
2.667 LW
N
405 304.367 M
445 304.367 L
S
GR
GS
[0.75 0 0 0.75 318.75 228.27523] CT
0 0.447 0.741 RC
10.0 ML
2.667 LW
N
-4 -4 M
-4 4 L
4 4 L
4 -4 L
cp
S
GR
GS
[0.75 0 0 0.75 336 247.22477] CT
/Helvetica 19.2 F
GS
[1 0 0 1 0 0] CT
0 7.5 moveto 
1 -1 scale
(WA) t 
GR
GR
GS
[0.75 0 0 0.75 0 0] CT
0.851 0.325 0.098 RC
1 LJ
2.667 LW
N
405 329.633 M
445 329.633 L
S
GR
GS
[0.75 0 0 0.75 318.75 247.22477] CT
0.851 0.325 0.098 RC
10.0 ML
2.667 LW
N
-3.3 -3.3 M
3.3 3.3 L
-3.3 3.3 M
3.3 -3.3 L
S
GR
GS
[0.75 0 0 0.75 0 0] CT
0.149 GC
10.0 ML
0.667 LW
N
401 344 M
401 290 L
494 290 L
494 344 L
cp
S
GR
GS
[0.75 0 0 0.75 248.60001 28.19999] CT
/Helvetica 21.333 F
GS
[1 0 0 1 0 0] CT
0 22 moveto 
1 -1 scale
(H-Plane) t 
GR
GR
%%Trailer
%%Pages: 1
%%EOF
