%!PS-Adobe-3.0 EPSF-3.0
%%Creator: (MATLAB, The Mathworks, Inc. Version 9.2.0.556344 \(R2017a\). Operating System: Windows 8)
%%Title: ./../paper_mercury/figures/plot_s_parameters_array_high_gain_vs_wideband_S11_simulated.eps
%%CreationDate: 2017-10-23T12:40:17
%%Pages: (atend)
%%BoundingBox:     8     0   389   297
%%LanguageLevel: 3
%%EndComments
%%BeginProlog
%%BeginResource: procset (Apache XML Graphics Std ProcSet) 1.2 0
%%Version: 1.2 0
%%Copyright: (Copyright 2001-2003,2010 The Apache Software Foundation. License terms: http://www.apache.org/licenses/LICENSE-2.0)
/bd{bind def}bind def
/ld{load def}bd
/GR/grestore ld
/M/moveto ld
/LJ/setlinejoin ld
/C/curveto ld
/f/fill ld
/LW/setlinewidth ld
/GC/setgray ld
/t/show ld
/N/newpath ld
/CT/concat ld
/cp/closepath ld
/S/stroke ld
/L/lineto ld
/CC/setcmykcolor ld
/A/ashow ld
/GS/gsave ld
/RC/setrgbcolor ld
/RM/rmoveto ld
/ML/setmiterlimit ld
/re {4 2 roll M
1 index 0 rlineto
0 exch rlineto
neg 0 rlineto
cp } bd
/_ctm matrix def
/_tm matrix def
/BT { _ctm currentmatrix pop matrix _tm copy pop 0 0 moveto } bd
/ET { _ctm setmatrix } bd
/iTm { _ctm setmatrix _tm concat } bd
/Tm { _tm astore pop iTm 0 0 moveto } bd
/ux 0.0 def
/uy 0.0 def
/F {
  /Tp exch def
  /Tf exch def
  Tf findfont Tp scalefont setfont
  /cf Tf def  /cs Tp def
} bd
/ULS {currentpoint /uy exch def /ux exch def} bd
/ULE {
  /Tcx currentpoint pop def
  gsave
  newpath
  cf findfont cs scalefont dup
  /FontMatrix get 0 get /Ts exch def /FontInfo get dup
  /UnderlinePosition get Ts mul /To exch def
  /UnderlineThickness get Ts mul /Tt exch def
  ux uy To add moveto  Tcx uy To add lineto
  Tt setlinewidth stroke
  grestore
} bd
/OLE {
  /Tcx currentpoint pop def
  gsave
  newpath
  cf findfont cs scalefont dup
  /FontMatrix get 0 get /Ts exch def /FontInfo get dup
  /UnderlinePosition get Ts mul /To exch def
  /UnderlineThickness get Ts mul /Tt exch def
  ux uy To add cs add moveto Tcx uy To add cs add lineto
  Tt setlinewidth stroke
  grestore
} bd
/SOE {
  /Tcx currentpoint pop def
  gsave
  newpath
  cf findfont cs scalefont dup
  /FontMatrix get 0 get /Ts exch def /FontInfo get dup
  /UnderlinePosition get Ts mul /To exch def
  /UnderlineThickness get Ts mul /Tt exch def
  ux uy To add cs 10 mul 26 idiv add moveto Tcx uy To add cs 10 mul 26 idiv add lineto
  Tt setlinewidth stroke
  grestore
} bd
/QT {
/Y22 exch store
/X22 exch store
/Y21 exch store
/X21 exch store
currentpoint
/Y21 load 2 mul add 3 div exch
/X21 load 2 mul add 3 div exch
/X21 load 2 mul /X22 load add 3 div
/Y21 load 2 mul /Y22 load add 3 div
/X22 load /Y22 load curveto
} bd
/SSPD {
dup length /d exch dict def
{
/v exch def
/k exch def
currentpagedevice k known {
/cpdv currentpagedevice k get def
v cpdv ne {
/upd false def
/nullv v type /nulltype eq def
/nullcpdv cpdv type /nulltype eq def
nullv nullcpdv or
{
/upd true def
} {
/sametype v type cpdv type eq def
sametype {
v type /arraytype eq {
/vlen v length def
/cpdvlen cpdv length def
vlen cpdvlen eq {
0 1 vlen 1 sub {
/i exch def
/obj v i get def
/cpdobj cpdv i get def
obj cpdobj ne {
/upd true def
exit
} if
} for
} {
/upd true def
} ifelse
} {
v type /dicttype eq {
v {
/dv exch def
/dk exch def
/cpddv cpdv dk get def
dv cpddv ne {
/upd true def
exit
} if
} forall
} {
/upd true def
} ifelse
} ifelse
} if
} ifelse
upd true eq {
d k v put
} if
} if
} if
} forall
d length 0 gt {
d setpagedevice
} if
} bd
/RE { % /NewFontName [NewEncodingArray] /FontName RE -
  findfont dup length dict begin
  {
    1 index /FID ne
    {def} {pop pop} ifelse
  } forall
  /Encoding exch def
  /FontName 1 index def
  currentdict definefont pop
  end
} bind def
%%EndResource
%%BeginResource: procset (Apache XML Graphics EPS ProcSet) 1.0 0
%%Version: 1.0 0
%%Copyright: (Copyright 2002-2003 The Apache Software Foundation. License terms: http://www.apache.org/licenses/LICENSE-2.0)
/BeginEPSF { %def
/b4_Inc_state save def         % Save state for cleanup
/dict_count countdictstack def % Count objects on dict stack
/op_count count 1 sub def      % Count objects on operand stack
userdict begin                 % Push userdict on dict stack
/showpage { } def              % Redefine showpage, { } = null proc
0 setgray 0 setlinecap         % Prepare graphics state
1 setlinewidth 0 setlinejoin
10 setmiterlimit [ ] 0 setdash newpath
/languagelevel where           % If level not equal to 1 then
{pop languagelevel             % set strokeadjust and
1 ne                           % overprint to their defaults.
{false setstrokeadjust false setoverprint
} if
} if
} bd
/EndEPSF { %def
count op_count sub {pop} repeat            % Clean up stacks
countdictstack dict_count sub {end} repeat
b4_Inc_state restore
} bd
%%EndResource
%FOPBeginFontDict
%%IncludeResource: font Courier-Bold
%%IncludeResource: font Helvetica
%%IncludeResource: font Courier-BoldOblique
%%IncludeResource: font Courier-Oblique
%%IncludeResource: font Times-Roman
%%IncludeResource: font Helvetica-BoldOblique
%%IncludeResource: font Helvetica-Bold
%%IncludeResource: font Helvetica-Oblique
%%IncludeResource: font Times-BoldItalic
%%IncludeResource: font Courier
%%IncludeResource: font Times-Italic
%%IncludeResource: font Times-Bold
%%IncludeResource: font Symbol
%%IncludeResource: font ZapfDingbats
%FOPEndFontDict
%%BeginResource: encoding WinAnsiEncoding
/WinAnsiEncoding [
/.notdef /.notdef /.notdef /.notdef /.notdef
/.notdef /.notdef /.notdef /.notdef /.notdef
/.notdef /.notdef /.notdef /.notdef /.notdef
/.notdef /.notdef /.notdef /.notdef /.notdef
/.notdef /.notdef /.notdef /.notdef /.notdef
/.notdef /.notdef /.notdef /.notdef /.notdef
/.notdef /.notdef /space /exclam /quotedbl
/numbersign /dollar /percent /ampersand /quotesingle
/parenleft /parenright /asterisk /plus /comma
/hyphen /period /slash /zero /one
/two /three /four /five /six
/seven /eight /nine /colon /semicolon
/less /equal /greater /question /at
/A /B /C /D /E
/F /G /H /I /J
/K /L /M /N /O
/P /Q /R /S /T
/U /V /W /X /Y
/Z /bracketleft /backslash /bracketright /asciicircum
/underscore /quoteleft /a /b /c
/d /e /f /g /h
/i /j /k /l /m
/n /o /p /q /r
/s /t /u /v /w
/x /y /z /braceleft /bar
/braceright /asciitilde /bullet /Euro /bullet
/quotesinglbase /florin /quotedblbase /ellipsis /dagger
/daggerdbl /circumflex /perthousand /Scaron /guilsinglleft
/OE /bullet /Zcaron /bullet /bullet
/quoteleft /quoteright /quotedblleft /quotedblright /bullet
/endash /emdash /asciitilde /trademark /scaron
/guilsinglright /oe /bullet /zcaron /Ydieresis
/space /exclamdown /cent /sterling /currency
/yen /brokenbar /section /dieresis /copyright
/ordfeminine /guillemotleft /logicalnot /sfthyphen /registered
/macron /degree /plusminus /twosuperior /threesuperior
/acute /mu /paragraph /middot /cedilla
/onesuperior /ordmasculine /guillemotright /onequarter /onehalf
/threequarters /questiondown /Agrave /Aacute /Acircumflex
/Atilde /Adieresis /Aring /AE /Ccedilla
/Egrave /Eacute /Ecircumflex /Edieresis /Igrave
/Iacute /Icircumflex /Idieresis /Eth /Ntilde
/Ograve /Oacute /Ocircumflex /Otilde /Odieresis
/multiply /Oslash /Ugrave /Uacute /Ucircumflex
/Udieresis /Yacute /Thorn /germandbls /agrave
/aacute /acircumflex /atilde /adieresis /aring
/ae /ccedilla /egrave /eacute /ecircumflex
/edieresis /igrave /iacute /icircumflex /idieresis
/eth /ntilde /ograve /oacute /ocircumflex
/otilde /odieresis /divide /oslash /ugrave
/uacute /ucircumflex /udieresis /yacute /thorn
/ydieresis
] def
%%EndResource
%FOPBeginFontReencode
/Courier-Bold findfont
dup length dict begin
  {1 index /FID ne {def} {pop pop} ifelse} forall
  /Encoding WinAnsiEncoding def
  currentdict
end
/Courier-Bold exch definefont pop
/Helvetica findfont
dup length dict begin
  {1 index /FID ne {def} {pop pop} ifelse} forall
  /Encoding WinAnsiEncoding def
  currentdict
end
/Helvetica exch definefont pop
/Courier-BoldOblique findfont
dup length dict begin
  {1 index /FID ne {def} {pop pop} ifelse} forall
  /Encoding WinAnsiEncoding def
  currentdict
end
/Courier-BoldOblique exch definefont pop
/Courier-Oblique findfont
dup length dict begin
  {1 index /FID ne {def} {pop pop} ifelse} forall
  /Encoding WinAnsiEncoding def
  currentdict
end
/Courier-Oblique exch definefont pop
/Times-Roman findfont
dup length dict begin
  {1 index /FID ne {def} {pop pop} ifelse} forall
  /Encoding WinAnsiEncoding def
  currentdict
end
/Times-Roman exch definefont pop
/Helvetica-BoldOblique findfont
dup length dict begin
  {1 index /FID ne {def} {pop pop} ifelse} forall
  /Encoding WinAnsiEncoding def
  currentdict
end
/Helvetica-BoldOblique exch definefont pop
/Helvetica-Bold findfont
dup length dict begin
  {1 index /FID ne {def} {pop pop} ifelse} forall
  /Encoding WinAnsiEncoding def
  currentdict
end
/Helvetica-Bold exch definefont pop
/Helvetica-Oblique findfont
dup length dict begin
  {1 index /FID ne {def} {pop pop} ifelse} forall
  /Encoding WinAnsiEncoding def
  currentdict
end
/Helvetica-Oblique exch definefont pop
/Times-BoldItalic findfont
dup length dict begin
  {1 index /FID ne {def} {pop pop} ifelse} forall
  /Encoding WinAnsiEncoding def
  currentdict
end
/Times-BoldItalic exch definefont pop
/Courier findfont
dup length dict begin
  {1 index /FID ne {def} {pop pop} ifelse} forall
  /Encoding WinAnsiEncoding def
  currentdict
end
/Courier exch definefont pop
/Times-Italic findfont
dup length dict begin
  {1 index /FID ne {def} {pop pop} ifelse} forall
  /Encoding WinAnsiEncoding def
  currentdict
end
/Times-Italic exch definefont pop
/Times-Bold findfont
dup length dict begin
  {1 index /FID ne {def} {pop pop} ifelse} forall
  /Encoding WinAnsiEncoding def
  currentdict
end
/Times-Bold exch definefont pop
%FOPEndFontReencode
%%EndProlog
%%Page: 1 1
%%PageBoundingBox: 0 0 420 315
%%BeginPageSetup
[1 0 0 -1 0 315] CT
%%EndPageSetup
GS
[0.75 0 0 0.75 0 0] CT
1 GC
N
0 0 560 420 re
f
GR
GS
[0.75 0 0 0.75 0 0] CT
1 GC
N
0 0 560 420 re
f
GR
GS
[0.75 0 0 0.75 0 0] CT
1 GC
N
73 358 M
507 358 L
507 31 L
73 31 L
cp
f
GR
GS
[0.75 0 0 0.75 0 0] CT
0.873 GC
1 LJ
0.667 LW
N
73 358 M
73 31 L
S
GR
GS
[0.75 0 0 0.75 0 0] CT
0.873 GC
1 LJ
0.667 LW
N
145.333 358 M
145.333 31 L
S
GR
GS
[0.75 0 0 0.75 0 0] CT
0.873 GC
1 LJ
0.667 LW
N
217.667 358 M
217.667 31 L
S
GR
GS
[0.75 0 0 0.75 0 0] CT
0.873 GC
1 LJ
0.667 LW
N
290 358 M
290 31 L
S
GR
GS
[0.75 0 0 0.75 0 0] CT
0.873 GC
1 LJ
0.667 LW
N
362.333 358 M
362.333 31 L
S
GR
GS
[0.75 0 0 0.75 0 0] CT
0.873 GC
1 LJ
0.667 LW
N
434.667 358 M
434.667 31 L
S
GR
GS
[0.75 0 0 0.75 0 0] CT
0.873 GC
1 LJ
0.667 LW
N
507 358 M
507 31 L
S
GR
GS
[0.75 0 0 0.75 0 0] CT
0.873 GC
1 LJ
0.667 LW
N
507 332.184 M
73 332.184 L
S
GR
GS
[0.75 0 0 0.75 0 0] CT
0.873 GC
1 LJ
0.667 LW
N
507 289.158 M
73 289.158 L
S
GR
GS
[0.75 0 0 0.75 0 0] CT
0.873 GC
1 LJ
0.667 LW
N
507 246.132 M
73 246.132 L
S
GR
GS
[0.75 0 0 0.75 0 0] CT
0.873 GC
1 LJ
0.667 LW
N
507 203.105 M
73 203.105 L
S
GR
GS
[0.75 0 0 0.75 0 0] CT
0.873 GC
1 LJ
0.667 LW
N
507 160.079 M
73 160.079 L
S
GR
GS
[0.75 0 0 0.75 0 0] CT
0.873 GC
1 LJ
0.667 LW
N
507 117.053 M
73 117.053 L
S
GR
GS
[0.75 0 0 0.75 0 0] CT
0.873 GC
1 LJ
0.667 LW
N
507 74.026 M
73 74.026 L
S
GR
GS
[0.75 0 0 0.75 0 0] CT
0.873 GC
1 LJ
0.667 LW
N
507 31 M
73 31 L
S
GR
GS
[0.75 0 0 0.75 0 0] CT
0.149 GC
2 setlinecap
1 LJ
0.667 LW
N
73 358 M
507 358 L
S
GR
GS
[0.75 0 0 0.75 0 0] CT
0.149 GC
2 setlinecap
1 LJ
0.667 LW
N
73 31 M
507 31 L
S
GR
GS
[0.75 0 0 0.75 0 0] CT
0.149 GC
2 setlinecap
1 LJ
0.667 LW
N
73 358 M
73 353.66 L
S
GR
GS
[0.75 0 0 0.75 0 0] CT
0.149 GC
2 setlinecap
1 LJ
0.667 LW
N
145.333 358 M
145.333 353.66 L
S
GR
GS
[0.75 0 0 0.75 0 0] CT
0.149 GC
2 setlinecap
1 LJ
0.667 LW
N
217.667 358 M
217.667 353.66 L
S
GR
GS
[0.75 0 0 0.75 0 0] CT
0.149 GC
2 setlinecap
1 LJ
0.667 LW
N
290 358 M
290 353.66 L
S
GR
GS
[0.75 0 0 0.75 0 0] CT
0.149 GC
2 setlinecap
1 LJ
0.667 LW
N
362.333 358 M
362.333 353.66 L
S
GR
GS
[0.75 0 0 0.75 0 0] CT
0.149 GC
2 setlinecap
1 LJ
0.667 LW
N
434.667 358 M
434.667 353.66 L
S
GR
GS
[0.75 0 0 0.75 0 0] CT
0.149 GC
2 setlinecap
1 LJ
0.667 LW
N
507 358 M
507 353.66 L
S
GR
GS
[0.75 0 0 0.75 0 0] CT
0.149 GC
2 setlinecap
1 LJ
0.667 LW
N
73 31 M
73 35.34 L
S
GR
GS
[0.75 0 0 0.75 0 0] CT
0.149 GC
2 setlinecap
1 LJ
0.667 LW
N
145.333 31 M
145.333 35.34 L
S
GR
GS
[0.75 0 0 0.75 0 0] CT
0.149 GC
2 setlinecap
1 LJ
0.667 LW
N
217.667 31 M
217.667 35.34 L
S
GR
GS
[0.75 0 0 0.75 0 0] CT
0.149 GC
2 setlinecap
1 LJ
0.667 LW
N
290 31 M
290 35.34 L
S
GR
GS
[0.75 0 0 0.75 0 0] CT
0.149 GC
2 setlinecap
1 LJ
0.667 LW
N
362.333 31 M
362.333 35.34 L
S
GR
GS
[0.75 0 0 0.75 0 0] CT
0.149 GC
2 setlinecap
1 LJ
0.667 LW
N
434.667 31 M
434.667 35.34 L
S
GR
GS
[0.75 0 0 0.75 0 0] CT
0.149 GC
2 setlinecap
1 LJ
0.667 LW
N
507 31 M
507 35.34 L
S
GR
GS
[0.75 0 0 0.75 54.75 273.70001] CT
0.149 GC
/Helvetica 21.333 F
GS
[1 0 0 1 0 0] CT
-12 22 moveto 
1 -1 scale
(20) t 
GR
GR
GS
[0.75 0 0 0.75 109 273.70001] CT
0.149 GC
/Helvetica 21.333 F
GS
[1 0 0 1 0 0] CT
-12 22 moveto 
1 -1 scale
(21) t 
GR
GR
GS
[0.75 0 0 0.75 163.25 273.70001] CT
0.149 GC
/Helvetica 21.333 F
GS
[1 0 0 1 0 0] CT
-12 22 moveto 
1 -1 scale
(22) t 
GR
GR
GS
[0.75 0 0 0.75 217.5 273.70001] CT
0.149 GC
/Helvetica 21.333 F
GS
[1 0 0 1 0 0] CT
-12 22 moveto 
1 -1 scale
(23) t 
GR
GR
GS
[0.75 0 0 0.75 271.75001 273.70001] CT
0.149 GC
/Helvetica 21.333 F
GS
[1 0 0 1 0 0] CT
-12 22 moveto 
1 -1 scale
(24) t 
GR
GR
GS
[0.75 0 0 0.75 325.99999 273.70001] CT
0.149 GC
/Helvetica 21.333 F
GS
[1 0 0 1 0 0] CT
-12 22 moveto 
1 -1 scale
(25) t 
GR
GR
GS
[0.75 0 0 0.75 380.25 273.70001] CT
0.149 GC
/Helvetica 21.333 F
GS
[1 0 0 1 0 0] CT
-12 22 moveto 
1 -1 scale
(26) t 
GR
GR
GS
[0.75 0 0 0.75 217.50011 294.75] CT
0.149 GC
/Helvetica 21.333 F
GS
[1 0 0 1 0 0] CT
-81 22 moveto 
1 -1 scale
(Frequency \(GHz\)) t 
GR
GR
GS
[0.75 0 0 0.75 0 0] CT
0.149 GC
2 setlinecap
1 LJ
0.667 LW
N
73 358 M
73 31 L
S
GR
GS
[0.75 0 0 0.75 0 0] CT
0.149 GC
2 setlinecap
1 LJ
0.667 LW
N
507 358 M
507 31 L
S
GR
GS
[0.75 0 0 0.75 0 0] CT
0.149 GC
2 setlinecap
1 LJ
0.667 LW
N
73 332.184 M
77.34 332.184 L
S
GR
GS
[0.75 0 0 0.75 0 0] CT
0.149 GC
2 setlinecap
1 LJ
0.667 LW
N
73 289.158 M
77.34 289.158 L
S
GR
GS
[0.75 0 0 0.75 0 0] CT
0.149 GC
2 setlinecap
1 LJ
0.667 LW
N
73 246.132 M
77.34 246.132 L
S
GR
GS
[0.75 0 0 0.75 0 0] CT
0.149 GC
2 setlinecap
1 LJ
0.667 LW
N
73 203.105 M
77.34 203.105 L
S
GR
GS
[0.75 0 0 0.75 0 0] CT
0.149 GC
2 setlinecap
1 LJ
0.667 LW
N
73 160.079 M
77.34 160.079 L
S
GR
GS
[0.75 0 0 0.75 0 0] CT
0.149 GC
2 setlinecap
1 LJ
0.667 LW
N
73 117.053 M
77.34 117.053 L
S
GR
GS
[0.75 0 0 0.75 0 0] CT
0.149 GC
2 setlinecap
1 LJ
0.667 LW
N
73 74.026 M
77.34 74.026 L
S
GR
GS
[0.75 0 0 0.75 0 0] CT
0.149 GC
2 setlinecap
1 LJ
0.667 LW
N
73 31 M
77.34 31 L
S
GR
GS
[0.75 0 0 0.75 0 0] CT
0.149 GC
2 setlinecap
1 LJ
0.667 LW
N
507 332.184 M
502.66 332.184 L
S
GR
GS
[0.75 0 0 0.75 0 0] CT
0.149 GC
2 setlinecap
1 LJ
0.667 LW
N
507 289.158 M
502.66 289.158 L
S
GR
GS
[0.75 0 0 0.75 0 0] CT
0.149 GC
2 setlinecap
1 LJ
0.667 LW
N
507 246.132 M
502.66 246.132 L
S
GR
GS
[0.75 0 0 0.75 0 0] CT
0.149 GC
2 setlinecap
1 LJ
0.667 LW
N
507 203.105 M
502.66 203.105 L
S
GR
GS
[0.75 0 0 0.75 0 0] CT
0.149 GC
2 setlinecap
1 LJ
0.667 LW
N
507 160.079 M
502.66 160.079 L
S
GR
GS
[0.75 0 0 0.75 0 0] CT
0.149 GC
2 setlinecap
1 LJ
0.667 LW
N
507 117.053 M
502.66 117.053 L
S
GR
GS
[0.75 0 0 0.75 0 0] CT
0.149 GC
2 setlinecap
1 LJ
0.667 LW
N
507 74.026 M
502.66 74.026 L
S
GR
GS
[0.75 0 0 0.75 0 0] CT
0.149 GC
2 setlinecap
1 LJ
0.667 LW
N
507 31 M
502.66 31 L
S
GR
GS
[0.75 0 0 0.75 49.55003 249.13815] CT
0.149 GC
/Helvetica 21.333 F
GS
[1 0 0 1 0 0] CT
-31 8.5 moveto 
1 -1 scale
(-35) t 
GR
GR
GS
[0.75 0 0 0.75 49.55003 216.86842] CT
0.149 GC
/Helvetica 21.333 F
GS
[1 0 0 1 0 0] CT
-31 8.5 moveto 
1 -1 scale
(-30) t 
GR
GR
GS
[0.75 0 0 0.75 49.55003 184.59868] CT
0.149 GC
/Helvetica 21.333 F
GS
[1 0 0 1 0 0] CT
-31 8.5 moveto 
1 -1 scale
(-25) t 
GR
GR
GS
[0.75 0 0 0.75 49.55003 152.32895] CT
0.149 GC
/Helvetica 21.333 F
GS
[1 0 0 1 0 0] CT
-31 8.5 moveto 
1 -1 scale
(-20) t 
GR
GR
GS
[0.75 0 0 0.75 49.55003 120.05921] CT
0.149 GC
/Helvetica 21.333 F
GS
[1 0 0 1 0 0] CT
-31 8.5 moveto 
1 -1 scale
(-15) t 
GR
GR
GS
[0.75 0 0 0.75 49.55003 87.78948] CT
0.149 GC
/Helvetica 21.333 F
GS
[1 0 0 1 0 0] CT
-31 8.5 moveto 
1 -1 scale
(-10) t 
GR
GR
GS
[0.75 0 0 0.75 49.55003 55.51974] CT
0.149 GC
/Helvetica 21.333 F
GS
[1 0 0 1 0 0] CT
-19 8.5 moveto 
1 -1 scale
(-5) t 
GR
GR
GS
[0.75 0 0 0.75 49.55003 23.25] CT
0.149 GC
/Helvetica 21.333 F
GS
[1 0 0 1 0 0] CT
-12 8.5 moveto 
1 -1 scale
(0) t 
GR
GR
GS
[0 -0.75 0.75 0 23.30001 145.87487] CT
0.149 GC
/Helvetica 21.333 F
GS
[1 0 0 1 0 0] CT
-41.5 -5 moveto 
1 -1 scale
(S11 \(dB\)) t 
GR
GR
GS
[0.75 0 0 0.75 0 0] CT
0 0.447 0.741 RC
1 LJ
2.667 LW
N
73 49.669 M
73.434 49.715 L
73.868 49.766 L
74.302 49.823 L
74.736 49.884 L
75.17 49.951 L
75.604 50.022 L
76.038 50.099 L
76.472 50.181 L
76.906 50.268 L
77.34 50.359 L
77.774 50.455 L
78.208 50.554 L
78.642 50.658 L
79.076 50.766 L
79.51 50.877 L
79.944 50.992 L
80.378 51.111 L
80.812 51.233 L
81.246 51.359 L
81.68 51.489 L
82.114 51.623 L
82.548 51.762 L
82.982 51.904 L
83.416 52.05 L
83.85 52.201 L
84.284 52.355 L
84.718 52.513 L
85.152 52.674 L
85.586 52.838 L
86.02 53.005 L
86.454 53.174 L
86.888 53.344 L
87.322 53.517 L
87.756 53.691 L
88.19 53.866 L
88.624 54.043 L
89.058 54.22 L
89.492 54.399 L
89.926 54.58 L
90.36 54.762 L
90.794 54.946 L
91.228 55.131 L
91.662 55.319 L
92.096 55.509 L
92.53 55.701 L
92.964 55.894 L
93.398 56.09 L
93.832 56.287 L
94.266 56.485 L
94.7 56.684 L
95.134 56.883 L
95.568 57.083 L
96.002 57.282 L
96.436 57.481 L
96.87 57.68 L
97.304 57.878 L
97.738 58.075 L
98.172 58.272 L
98.606 58.468 L
99.04 58.664 L
99.474 58.859 L
99.908 59.054 L
100.342 59.249 L
100.776 59.444 L
101.21 59.639 L
101.644 59.834 L
102.078 60.029 L
102.512 60.224 L
102.946 60.419 L
103.38 60.614 L
103.814 60.808 L
104.248 61.002 L
104.682 61.196 L
105.116 61.389 L
105.55 61.582 L
105.984 61.774 L
106.418 61.967 L
106.852 62.159 L
107.286 62.352 L
107.72 62.545 L
108.154 62.739 L
108.588 62.934 L
109.022 63.131 L
109.456 63.329 L
109.89 63.529 L
110.324 63.73 L
110.758 63.934 L
111.192 64.139 L
111.626 64.346 L
112.06 64.555 L
112.494 64.766 L
112.928 64.978 L
113.362 65.193 L
113.796 65.409 L
114.23 65.627 L
114.664 65.847 L
115.098 66.07 L
115.532 66.294 L
115.966 66.521 L
116.4 66.75 L
116.834 66.982 L
117.268 67.217 L
117.702 67.454 L
118.136 67.694 L
118.57 67.936 L
119.004 68.181 L
119.438 68.429 L
119.872 68.678 L
120.306 68.929 L
120.74 69.182 L
121.174 69.436 L
121.608 69.692 L
122.042 69.948 L
122.476 70.205 L
122.91 70.463 L
123.344 70.721 L
123.778 70.979 L
124.212 71.237 L
124.646 71.495 L
125.08 71.753 L
125.514 72.01 L
125.948 72.267 L
126.382 72.522 L
126.816 72.776 L
127.25 73.029 L
127.684 73.28 L
128.118 73.529 L
128.552 73.776 L
128.986 74.019 L
129.42 74.26 L
129.854 74.497 L
130.288 74.731 L
130.722 74.961 L
131.156 75.187 L
131.59 75.409 L
132.024 75.627 L
132.458 75.842 L
132.892 76.052 L
133.326 76.259 L
133.76 76.462 L
134.194 76.662 L
134.628 76.857 L
135.062 77.05 L
135.496 77.238 L
135.93 77.423 L
136.364 77.604 L
136.798 77.781 L
137.232 77.954 L
137.666 78.124 L
138.1 78.29 L
138.534 78.451 L
138.968 78.61 L
139.402 78.764 L
139.836 78.916 L
140.27 79.064 L
140.704 79.21 L
141.138 79.353 L
141.572 79.495 L
142.006 79.636 L
142.44 79.776 L
142.874 79.916 L
143.308 80.057 L
143.742 80.198 L
144.176 80.342 L
144.61 80.487 L
145.044 80.635 L
145.478 80.786 L
145.912 80.942 L
146.346 81.101 L
146.78 81.266 L
147.214 81.436 L
147.648 81.613 L
148.082 81.796 L
148.516 81.987 L
148.95 82.186 L
149.384 82.395 L
149.818 82.614 L
150.252 82.844 L
150.686 83.085 L
151.12 83.339 L
151.554 83.606 L
151.988 83.887 L
152.422 84.184 L
152.856 84.496 L
153.29 84.824 L
153.724 85.17 L
154.158 85.534 L
154.592 85.917 L
155.026 86.318 L
155.46 86.74 L
155.894 87.183 L
156.328 87.648 L
156.762 88.135 L
157.196 88.645 L
157.63 89.179 L
158.064 89.738 L
158.498 90.323 L
158.932 90.935 L
159.366 91.574 L
159.8 92.24 L
160.234 92.936 L
160.668 93.661 L
161.102 94.416 L
161.536 95.201 L
161.97 96.018 L
162.404 96.866 L
162.838 97.746 L
163.272 98.658 L
163.706 99.602 L
164.14 100.578 L
164.574 101.587 L
165.008 102.628 L
165.442 103.701 L
165.876 104.804 L
166.31 105.939 L
166.744 107.102 L
167.178 108.294 L
167.612 109.511 L
168.046 110.752 L
168.48 112.014 L
168.914 113.293 L
169.348 114.584 L
169.782 115.884 L
170.216 117.185 L
170.65 118.482 L
171.084 119.767 L
171.518 121.031 L
171.952 122.265 L
172.386 123.458 L
172.82 124.6 L
173.254 125.679 L
173.688 126.681 L
174.122 127.595 L
174.556 128.408 L
174.99 129.108 L
175.424 129.684 L
175.858 130.125 L
176.292 130.422 L
176.726 130.569 L
177.16 130.561 L
177.594 130.396 L
178.028 130.076 L
178.462 129.603 L
178.896 128.982 L
179.33 128.221 L
179.764 127.33 L
180.198 126.32 L
180.632 125.203 L
181.066 123.991 L
181.5 122.697 L
181.934 121.334 L
182.368 119.914 L
182.802 118.449 L
183.236 116.949 L
183.67 115.426 L
184.104 113.888 L
184.538 112.344 L
184.972 110.801 L
185.406 109.265 L
185.84 107.743 L
186.274 106.238 L
186.708 104.756 L
187.142 103.299 L
187.576 101.871 L
188.01 100.473 L
188.444 99.107 L
188.878 97.776 L
189.312 96.479 L
189.746 95.217 L
190.18 93.992 L
190.614 92.803 L
191.048 91.65 L
191.482 90.534 L
191.916 89.453 L
192.35 88.408 L
192.784 87.399 L
193.218 86.425 L
193.652 85.485 L
194.086 84.579 L
194.52 83.707 L
194.954 82.867 L
195.388 82.059 L
195.822 81.283 L
196.256 80.537 L
196.69 79.82 L
197.124 79.133 L
197.558 78.474 L
197.992 77.842 L
198.426 77.238 L
198.86 76.659 L
199.294 76.105 L
199.728 75.577 L
200.162 75.073 L
200.596 74.592 L
201.03 74.135 L
201.464 73.7 L
201.898 73.288 L
202.332 72.897 L
202.766 72.528 L
203.2 72.18 L
203.634 71.852 L
204.068 71.544 L
204.502 71.256 L
204.936 70.987 L
205.37 70.737 L
205.804 70.505 L
206.238 70.291 L
206.672 70.095 L
207.106 69.917 L
207.54 69.755 L
207.974 69.611 L
208.408 69.484 L
208.842 69.373 L
209.276 69.279 L
209.71 69.202 L
210.144 69.141 L
210.578 69.097 L
211.012 69.07 L
211.446 69.059 L
211.88 69.064 L
212.314 69.086 L
212.748 69.125 L
213.182 69.18 L
213.616 69.251 L
214.05 69.339 L
214.484 69.443 L
214.918 69.564 L
215.352 69.702 L
215.786 69.857 L
216.22 70.029 L
216.654 70.219 L
217.088 70.427 L
217.522 70.653 L
217.956 70.897 L
218.39 71.16 L
218.824 71.443 L
219.258 71.745 L
219.692 72.068 L
220.126 72.411 L
220.56 72.775 L
220.994 73.161 L
221.428 73.568 L
221.862 73.998 L
222.296 74.451 L
222.73 74.927 L
223.164 75.428 L
223.598 75.954 L
224.032 76.506 L
224.466 77.084 L
224.9 77.69 L
225.334 78.325 L
225.768 78.99 L
226.202 79.685 L
226.636 80.412 L
227.07 81.172 L
227.504 81.965 L
227.938 82.793 L
228.372 83.657 L
228.806 84.557 L
229.24 85.495 L
229.674 86.472 L
230.108 87.489 L
230.542 88.547 L
230.976 89.648 L
231.41 90.794 L
231.844 91.985 L
232.278 93.224 L
232.712 94.513 L
233.146 95.854 L
233.58 97.25 L
234.014 98.703 L
234.448 100.215 L
234.882 101.79 L
235.316 103.43 L
235.75 105.139 L
236.184 106.919 L
236.618 108.775 L
237.052 110.708 L
237.486 112.724 L
237.92 114.824 L
238.354 117.015 L
238.788 119.298 L
239.222 121.68 L
239.656 124.165 L
240.09 126.757 L
240.524 129.462 L
240.958 132.286 L
241.392 135.236 L
241.826 138.319 L
242.26 141.541 L
242.694 144.911 L
243.128 148.439 L
243.562 152.131 L
243.996 155.999 L
244.43 160.052 L
244.864 164.298 L
245.298 168.747 L
245.732 173.406 L
246.166 178.278 L
246.6 183.364 L
247.034 188.655 L
247.468 194.129 L
247.902 199.746 L
248.336 205.439 L
248.77 211.1 L
249.204 216.57 L
249.638 221.629 L
250.072 226 L
250.506 229.376 L
250.94 231.478 L
251.374 232.13 L
251.808 231.322 L
252.242 229.207 L
252.676 226.056 L
253.11 222.175 L
253.544 217.848 L
253.978 213.301 L
254.412 208.702 L
254.846 204.162 L
255.28 199.755 L
255.714 195.523 L
256.148 191.488 L
256.582 187.659 L
257.016 184.038 L
257.45 180.62 L
257.884 177.398 L
258.318 174.363 L
258.752 171.505 L
259.186 168.816 L
259.62 166.285 L
260.054 163.905 L
260.488 161.665 L
260.922 159.56 L
261.356 157.582 L
261.79 155.724 L
262.224 153.981 L
262.658 152.347 L
263.092 150.817 L
263.526 149.387 L
263.96 148.053 L
264.394 146.811 L
264.828 145.657 L
265.262 144.589 L
265.696 143.603 L
266.13 142.697 L
266.564 141.869 L
266.998 141.115 L
267.432 140.435 L
267.866 139.825 L
268.3 139.285 L
268.734 138.813 L
269.168 138.408 L
269.602 138.067 L
270.036 137.79 L
270.47 137.576 L
270.904 137.424 L
271.338 137.332 L
271.772 137.3 L
272.206 137.328 L
272.64 137.413 L
273.074 137.557 L
273.508 137.757 L
273.942 138.015 L
274.376 138.329 L
274.81 138.7 L
275.244 139.128 L
275.678 139.612 L
276.112 140.154 L
276.546 140.753 L
276.98 141.41 L
277.414 142.127 L
277.848 142.904 L
278.282 143.741 L
278.716 144.641 L
279.15 145.603 L
279.584 146.63 L
280.018 147.723 L
280.452 148.882 L
280.886 150.109 L
281.32 151.407 L
281.754 152.775 L
282.188 154.217 L
282.622 155.733 L
283.056 157.325 L
283.49 158.996 L
283.924 160.747 L
284.358 162.581 L
284.792 164.5 L
285.226 166.507 L
285.66 168.603 L
286.094 170.793 L
286.528 173.078 L
286.962 175.462 L
287.396 177.947 L
287.83 180.537 L
288.264 183.234 L
288.698 186.04 L
289.132 188.958 L
289.566 191.99 L
290 195.136 L
290.434 198.396 L
290.868 201.769 L
291.302 205.251 L
291.736 208.836 L
292.17 212.514 L
292.604 216.27 L
293.038 220.083 L
293.472 223.925 L
293.906 227.757 L
294.34 231.528 L
294.774 235.176 L
295.208 238.624 L
295.642 241.784 L
296.076 244.558 L
296.51 246.85 L
296.944 248.573 L
297.378 249.663 L
297.812 250.085 L
298.246 249.846 L
298.68 248.985 L
299.114 247.576 L
299.548 245.707 L
299.982 243.477 L
300.416 240.98 L
300.85 238.301 L
301.284 235.514 L
301.718 232.677 L
302.152 229.838 L
302.586 227.032 L
303.02 224.286 L
303.454 221.618 L
303.888 219.042 L
304.322 216.566 L
304.756 214.195 L
305.19 211.932 L
305.624 209.776 L
306.058 207.726 L
306.492 205.78 L
306.926 203.935 L
307.36 202.186 L
307.794 200.529 L
308.228 198.96 L
308.662 197.472 L
309.096 196.06 L
309.53 194.718 L
309.964 193.44 L
310.398 192.219 L
310.832 191.048 L
311.266 189.92 L
311.7 188.829 L
312.134 187.767 L
312.568 186.726 L
313.002 185.698 L
313.436 184.676 L
313.87 183.651 L
314.304 182.616 L
314.738 181.563 L
315.172 180.484 L
315.606 179.371 L
316.04 178.218 L
316.474 177.017 L
316.908 175.763 L
317.342 174.451 L
317.776 173.076 L
318.21 171.635 L
318.644 170.125 L
319.078 168.546 L
319.512 166.897 L
319.946 165.179 L
320.38 163.395 L
320.814 161.546 L
321.248 159.637 L
321.682 157.673 L
322.116 155.658 L
322.55 153.598 L
322.984 151.498 L
323.418 149.366 L
323.852 147.206 L
324.286 145.026 L
324.72 142.831 L
325.154 140.627 L
325.588 138.419 L
326.022 136.213 L
326.456 134.014 L
326.89 131.826 L
327.324 129.653 L
327.758 127.5 L
328.192 125.37 L
328.626 123.266 L
329.06 121.191 L
329.494 119.147 L
329.928 117.137 L
330.362 115.163 L
330.796 113.227 L
331.23 111.329 L
331.664 109.471 L
332.098 107.654 L
332.532 105.878 L
332.966 104.144 L
333.4 102.451 L
333.834 100.801 L
334.268 99.193 L
334.702 97.627 L
335.136 96.103 L
335.57 94.62 L
336.004 93.178 L
336.438 91.777 L
336.872 90.416 L
337.306 89.095 L
337.74 87.813 L
338.174 86.57 L
338.608 85.366 L
339.042 84.199 L
339.476 83.07 L
339.91 81.978 L
340.344 80.922 L
340.778 79.902 L
341.212 78.917 L
341.646 77.966 L
342.08 77.048 L
342.514 76.164 L
342.948 75.311 L
343.382 74.49 L
343.816 73.7 L
344.25 72.939 L
344.684 72.207 L
345.118 71.503 L
345.552 70.826 L
345.986 70.177 L
346.42 69.554 L
346.854 68.956 L
347.288 68.384 L
347.722 67.836 L
348.156 67.312 L
348.59 66.811 L
349.024 66.334 L
349.458 65.878 L
349.892 65.444 L
350.326 65.031 L
350.76 64.638 L
351.194 64.266 L
351.628 63.913 L
352.062 63.579 L
352.496 63.263 L
352.93 62.966 L
353.364 62.686 L
353.798 62.425 L
354.232 62.18 L
354.666 61.953 L
355.1 61.742 L
355.534 61.549 L
355.968 61.373 L
356.402 61.213 L
356.836 61.069 L
357.27 60.943 L
357.704 60.832 L
358.138 60.738 L
358.572 60.659 L
359.006 60.596 L
359.44 60.549 L
359.874 60.517 L
360.308 60.5 L
360.742 60.498 L
361.176 60.512 L
361.61 60.54 L
362.044 60.583 L
362.478 60.642 L
362.912 60.715 L
363.346 60.804 L
363.78 60.908 L
364.214 61.027 L
364.648 61.162 L
365.082 61.312 L
365.516 61.477 L
365.95 61.657 L
366.384 61.852 L
366.818 62.062 L
367.252 62.286 L
367.686 62.523 L
368.12 62.774 L
368.554 63.037 L
368.988 63.312 L
369.422 63.599 L
369.856 63.896 L
370.29 64.203 L
370.724 64.519 L
371.158 64.843 L
371.592 65.173 L
372.026 65.509 L
372.46 65.848 L
372.894 66.19 L
373.328 66.531 L
373.762 66.87 L
374.196 67.204 L
374.63 67.53 L
375.064 67.846 L
375.498 68.147 L
375.932 68.431 L
376.366 68.694 L
376.8 68.932 L
377.234 69.141 L
377.668 69.319 L
378.102 69.461 L
378.536 69.565 L
378.97 69.627 L
379.404 69.645 L
379.838 69.616 L
380.272 69.54 L
380.706 69.415 L
381.14 69.241 L
381.574 69.017 L
382.008 68.744 L
382.442 68.424 L
382.876 68.058 L
383.31 67.647 L
383.744 67.196 L
384.178 66.706 L
384.612 66.18 L
385.046 65.623 L
385.48 65.037 L
385.914 64.426 L
386.348 63.794 L
386.782 63.144 L
387.216 62.48 L
387.65 61.804 L
388.084 61.121 L
388.518 60.433 L
388.952 59.744 L
389.386 59.055 L
389.82 58.37 L
390.254 57.691 L
390.688 57.02 L
391.122 56.359 L
391.556 55.709 L
391.99 55.073 L
392.424 54.451 L
392.858 53.844 L
393.292 53.254 L
393.726 52.68 L
394.16 52.123 L
394.594 51.584 L
395.028 51.062 L
395.462 50.557 L
395.896 50.069 L
396.33 49.599 L
396.764 49.144 L
397.198 48.706 L
397.632 48.284 L
398.066 47.877 L
398.5 47.486 L
398.934 47.109 L
399.368 46.746 L
399.802 46.397 L
400.236 46.062 L
400.67 45.739 L
401.104 45.43 L
401.538 45.132 L
401.972 44.846 L
402.406 44.572 L
402.84 44.308 L
403.274 44.054 L
403.708 43.811 L
404.142 43.576 L
404.576 43.351 L
405.01 43.135 L
405.444 42.927 L
405.878 42.728 L
406.312 42.536 L
406.746 42.352 L
407.18 42.175 L
407.614 42.005 L
408.048 41.842 L
408.482 41.686 L
408.916 41.535 L
409.35 41.391 L
409.784 41.252 L
410.218 41.119 L
410.652 40.991 L
411.086 40.867 L
411.52 40.748 L
411.954 40.634 L
412.388 40.523 L
412.822 40.418 L
413.256 40.316 L
413.69 40.219 L
414.124 40.125 L
414.558 40.036 L
414.992 39.951 L
415.426 39.87 L
415.86 39.793 L
416.294 39.72 L
416.728 39.649 L
417.162 39.582 L
417.596 39.518 L
418.03 39.457 L
418.464 39.397 L
418.898 39.341 L
419.332 39.286 L
419.766 39.234 L
420.2 39.185 L
420.634 39.138 L
421.068 39.093 L
421.502 39.051 L
421.936 39.012 L
422.37 38.976 L
422.804 38.943 L
423.238 38.913 L
423.672 38.885 L
424.106 38.861 L
424.54 38.838 L
424.974 38.817 L
425.408 38.799 L
425.842 38.782 L
426.276 38.767 L
426.71 38.753 L
427.144 38.741 L
427.578 38.73 L
428.012 38.722 L
428.446 38.716 L
428.88 38.712 L
429.314 38.712 L
429.748 38.715 L
430.182 38.72 L
430.616 38.73 L
431.05 38.742 L
431.484 38.758 L
431.918 38.776 L
432.352 38.797 L
432.786 38.82 L
433.22 38.845 L
433.654 38.873 L
434.088 38.902 L
434.522 38.933 L
434.956 38.967 L
435.39 39.003 L
435.824 39.043 L
436.258 39.086 L
436.692 39.134 L
437.126 39.187 L
437.56 39.245 L
437.994 39.308 L
438.428 39.377 L
438.862 39.451 L
439.296 39.53 L
439.73 39.615 L
440.164 39.704 L
440.598 39.798 L
441.032 39.897 L
441.466 40 L
441.9 40.108 L
442.334 40.222 L
442.768 40.342 L
443.202 40.47 L
443.636 40.606 L
444.07 40.752 L
444.504 40.908 L
444.938 41.077 L
445.372 41.259 L
445.806 41.454 L
446.24 41.664 L
446.674 41.888 L
447.108 42.127 L
447.542 42.381 L
447.976 42.65 L
448.41 42.936 L
448.844 43.238 L
449.278 43.559 L
449.712 43.899 L
450.146 44.262 L
450.58 44.651 L
451.014 45.067 L
451.448 45.516 L
451.882 46 L
452.316 46.524 L
452.75 47.092 L
453.184 47.708 L
453.618 48.374 L
454.052 49.096 L
454.486 49.876 L
454.92 50.718 L
455.354 51.627 L
455.788 52.607 L
456.222 53.662 L
456.656 54.799 L
457.09 56.025 L
457.524 57.345 L
457.958 58.769 L
458.392 60.304 L
458.826 61.959 L
459.26 63.739 L
459.694 65.649 L
460.128 67.691 L
460.562 69.861 L
460.996 72.147 L
461.43 74.529 L
461.864 76.977 L
462.298 79.443 L
462.732 81.866 L
463.166 84.168 L
463.6 86.258 L
464.034 88.034 L
464.468 89.397 L
464.902 90.259 L
465.336 90.561 L
465.77 90.283 L
466.204 89.444 L
466.638 88.105 L
467.072 86.35 L
467.506 84.282 L
467.94 82 L
468.374 79.597 L
468.808 77.152 L
469.242 74.725 L
469.676 72.363 L
470.11 70.098 L
470.544 67.949 L
470.978 65.927 L
471.412 64.035 L
471.846 62.272 L
472.28 60.633 L
472.714 59.111 L
473.148 57.699 L
473.582 56.388 L
474.016 55.171 L
474.45 54.042 L
474.884 52.995 L
475.318 52.024 L
475.752 51.126 L
476.186 50.297 L
476.62 49.534 L
477.054 48.832 L
477.488 48.189 L
477.922 47.6 L
478.356 47.061 L
478.79 46.566 L
479.224 46.112 L
479.658 45.692 L
480.092 45.302 L
480.526 44.938 L
480.96 44.596 L
481.394 44.272 L
481.828 43.965 L
482.262 43.673 L
482.696 43.396 L
483.13 43.134 L
483.564 42.887 L
483.998 42.658 L
484.432 42.446 L
484.866 42.253 L
485.3 42.078 L
485.734 41.921 L
486.168 41.781 L
486.602 41.657 L
487.036 41.546 L
487.47 41.446 L
487.904 41.355 L
488.338 41.271 L
488.772 41.191 L
489.206 41.116 L
489.64 41.043 L
490.074 40.973 L
490.508 40.907 L
490.942 40.845 L
491.376 40.789 L
491.81 40.741 L
492.244 40.701 L
492.678 40.672 L
493.112 40.652 L
493.546 40.643 L
493.98 40.643 L
494.414 40.653 L
494.848 40.669 L
495.282 40.691 L
495.716 40.718 L
496.15 40.747 L
496.584 40.777 L
497.018 40.808 L
497.452 40.84 L
497.886 40.872 L
498.32 40.907 L
498.754 40.946 L
499.188 40.99 L
499.622 41.04 L
500.056 41.098 L
500.49 41.165 L
500.924 41.242 L
501.358 41.328 L
501.792 41.424 L
502.226 41.528 L
502.66 41.638 L
503.094 41.755 L
503.528 41.876 L
503.962 42 L
504.396 42.126 L
504.83 42.253 L
505.264 42.383 L
505.698 42.515 L
506.132 42.65 L
506.566 42.79 L
507 42.937 L
S
GR
GS
[0.75 0 0 0.75 54.75 37.25152] CT
0 0.447 0.741 RC
10.0 ML
2.667 LW
N
-4 -4 M
-4 4 L
4 4 L
4 -4 L
cp
S
GR
GS
[0.75 0 0 0.75 64.51501 39.75346] CT
0 0.447 0.741 RC
10.0 ML
2.667 LW
N
-4 -4 M
-4 4 L
4 4 L
4 -4 L
cp
S
GR
GS
[0.75 0 0 0.75 74.27993 43.99767] CT
0 0.447 0.741 RC
10.0 ML
2.667 LW
N
-4 -4 M
-4 4 L
4 4 L
4 -4 L
cp
S
GR
GS
[0.75 0 0 0.75 84.04505 48.41611] CT
0 0.447 0.741 RC
10.0 ML
2.667 LW
N
-4 -4 M
-4 4 L
4 4 L
4 -4 L
cp
S
GR
GS
[0.75 0 0 0.75 93.81006 53.81458] CT
0 0.447 0.741 RC
10.0 ML
2.667 LW
N
-4 -4 M
-4 4 L
4 4 L
4 -4 L
cp
S
GR
GS
[0.75 0 0 0.75 103.57498 58.71717] CT
0 0.447 0.741 RC
10.0 ML
2.667 LW
N
-4 -4 M
-4 4 L
4 4 L
4 -4 L
cp
S
GR
GS
[0.75 0 0 0.75 113.34 62.50401] CT
0 0.447 0.741 RC
10.0 ML
2.667 LW
N
-4 -4 M
-4 4 L
4 4 L
4 -4 L
cp
S
GR
GS
[0.75 0 0 0.75 123.10491 75.43369] CT
0 0.447 0.741 RC
10.0 ML
2.667 LW
N
-4 -4 M
-4 4 L
4 4 L
4 -4 L
cp
S
GR
GS
[0.75 0 0 0.75 132.87003 97.92065] CT
0 0.447 0.741 RC
10.0 ML
2.667 LW
N
-4 -4 M
-4 4 L
4 4 L
4 -4 L
cp
S
GR
GS
[0.75 0 0 0.75 142.63504 70.49406] CT
0 0.447 0.741 RC
10.0 ML
2.667 LW
N
-4 -4 M
-4 4 L
4 4 L
4 -4 L
cp
S
GR
GS
[0.75 0 0 0.75 152.39996 54.13479] CT
0 0.447 0.741 RC
10.0 ML
2.667 LW
N
-4 -4 M
-4 4 L
4 4 L
4 -4 L
cp
S
GR
GS
[0.75 0 0 0.75 162.16498 52.52199] CT
0 0.447 0.741 RC
10.0 ML
2.667 LW
N
-4 -4 M
-4 4 L
4 4 L
4 -4 L
cp
S
GR
GS
[0.75 0 0 0.75 171.92999 64.12125] CT
0 0.447 0.741 RC
10.0 ML
2.667 LW
N
-4 -4 M
-4 4 L
4 4 L
4 -4 L
cp
S
GR
GS
[0.75 0 0 0.75 181.69501 106.15576] CT
0 0.447 0.741 RC
10.0 ML
2.667 LW
N
-4 -4 M
-4 4 L
4 4 L
4 -4 L
cp
S
GR
GS
[0.75 0 0 0.75 191.46002 149.81656] CT
0 0.447 0.741 RC
10.0 ML
2.667 LW
N
-4 -4 M
-4 4 L
4 4 L
4 -4 L
cp
S
GR
GS
[0.75 0 0 0.75 201.22495 104.46407] CT
0 0.447 0.741 RC
10.0 ML
2.667 LW
N
-4 -4 M
-4 4 L
4 4 L
4 -4 L
cp
S
GR
GS
[0.75 0 0 0.75 210.98996 113.5551] CT
0 0.447 0.741 RC
10.0 ML
2.667 LW
N
-4 -4 M
-4 4 L
4 4 L
4 -4 L
cp
S
GR
GS
[0.75 0 0 0.75 220.75507 173.64632] CT
0 0.447 0.741 RC
10.0 ML
2.667 LW
N
-4 -4 M
-4 4 L
4 4 L
4 -4 L
cp
S
GR
GS
[0.75 0 0 0.75 230.51999 151.63954] CT
0 0.447 0.741 RC
10.0 ML
2.667 LW
N
-4 -4 M
-4 4 L
4 4 L
4 -4 L
cp
S
GR
GS
[0.75 0 0 0.75 240.285 122.5461] CT
0 0.447 0.741 RC
10.0 ML
2.667 LW
N
-4 -4 M
-4 4 L
4 4 L
4 -4 L
cp
S
GR
GS
[0.75 0 0 0.75 250.05002 76.8386] CT
0 0.447 0.741 RC
10.0 ML
2.667 LW
N
-4 -4 M
-4 4 L
4 4 L
4 -4 L
cp
S
GR
GS
[0.75 0 0 0.75 259.81503 52.16541] CT
0 0.447 0.741 RC
10.0 ML
2.667 LW
N
-4 -4 M
-4 4 L
4 4 L
4 -4 L
cp
S
GR
GS
[0.75 0 0 0.75 269.58005 45.41167] CT
0 0.447 0.741 RC
10.0 ML
2.667 LW
N
-4 -4 M
-4 4 L
4 4 L
4 -4 L
cp
S
GR
GS
[0.75 0 0 0.75 279.34497 49.38629] CT
0 0.447 0.741 RC
10.0 ML
2.667 LW
N
-4 -4 M
-4 4 L
4 4 L
4 -4 L
cp
S
GR
GS
[0.75 0 0 0.75 289.10999 48.77792] CT
0 0.447 0.741 RC
10.0 ML
2.667 LW
N
-4 -4 M
-4 4 L
4 4 L
4 -4 L
cp
S
GR
GS
[0.75 0 0 0.75 298.875 35.61431] CT
0 0.447 0.741 RC
10.0 ML
2.667 LW
N
-4 -4 M
-4 4 L
4 4 L
4 -4 L
cp
S
GR
GS
[0.75 0 0 0.75 308.64001 30.56102] CT
0 0.447 0.741 RC
10.0 ML
2.667 LW
N
-4 -4 M
-4 4 L
4 4 L
4 -4 L
cp
S
GR
GS
[0.75 0 0 0.75 318.40503 29.12847] CT
0 0.447 0.741 RC
10.0 ML
2.667 LW
N
-4 -4 M
-4 4 L
4 4 L
4 -4 L
cp
S
GR
GS
[0.75 0 0 0.75 328.16995 29.43338] CT
0 0.447 0.741 RC
10.0 ML
2.667 LW
N
-4 -4 M
-4 4 L
4 4 L
4 -4 L
cp
S
GR
GS
[0.75 0 0 0.75 337.93497 33.48792] CT
0 0.447 0.741 RC
10.0 ML
2.667 LW
N
-4 -4 M
-4 4 L
4 4 L
4 -4 L
cp
S
GR
GS
[0.75 0 0 0.75 347.69998 64.69355] CT
0 0.447 0.741 RC
10.0 ML
2.667 LW
N
-4 -4 M
-4 4 L
4 4 L
4 -4 L
cp
S
GR
GS
[0.75 0 0 0.75 357.465 37.15034] CT
0 0.447 0.741 RC
10.0 ML
2.667 LW
N
-4 -4 M
-4 4 L
4 4 L
4 -4 L
cp
S
GR
GS
[0.75 0 0 0.75 367.23001 30.78219] CT
0 0.447 0.741 RC
10.0 ML
2.667 LW
N
-4 -4 M
-4 4 L
4 4 L
4 -4 L
cp
S
GR
GS
[0.75 0 0 0.75 376.99503 31.22886] CT
0 0.447 0.741 RC
10.0 ML
2.667 LW
N
-4 -4 M
-4 4 L
4 4 L
4 -4 L
cp
S
GR
GS
[0.75 0 0 0.75 0 0] CT
0.851 0.325 0.098 RC
1 LJ
2.667 LW
N
73 47.124 M
73.434 47.184 L
73.868 47.25 L
74.302 47.323 L
74.736 47.401 L
75.17 47.486 L
75.604 47.576 L
76.038 47.673 L
76.472 47.775 L
76.906 47.882 L
77.34 47.995 L
77.774 48.114 L
78.208 48.238 L
78.642 48.367 L
79.076 48.502 L
79.51 48.641 L
79.944 48.785 L
80.378 48.934 L
80.812 49.088 L
81.246 49.246 L
81.68 49.409 L
82.114 49.576 L
82.548 49.746 L
82.982 49.921 L
83.416 50.099 L
83.85 50.281 L
84.284 50.466 L
84.718 50.654 L
85.152 50.845 L
85.586 51.038 L
86.02 51.233 L
86.454 51.43 L
86.888 51.629 L
87.322 51.829 L
87.756 52.03 L
88.19 52.232 L
88.624 52.434 L
89.058 52.636 L
89.492 52.837 L
89.926 53.037 L
90.36 53.236 L
90.794 53.433 L
91.228 53.628 L
91.662 53.821 L
92.096 54.01 L
92.53 54.197 L
92.964 54.379 L
93.398 54.557 L
93.832 54.73 L
94.266 54.899 L
94.7 55.062 L
95.134 55.219 L
95.568 55.37 L
96.002 55.515 L
96.436 55.653 L
96.87 55.784 L
97.304 55.908 L
97.738 56.025 L
98.172 56.134 L
98.606 56.236 L
99.04 56.33 L
99.474 56.416 L
99.908 56.494 L
100.342 56.565 L
100.776 56.627 L
101.21 56.682 L
101.644 56.73 L
102.078 56.77 L
102.512 56.803 L
102.946 56.829 L
103.38 56.849 L
103.814 56.861 L
104.248 56.868 L
104.682 56.869 L
105.116 56.864 L
105.55 56.854 L
105.984 56.84 L
106.418 56.821 L
106.852 56.797 L
107.286 56.771 L
107.72 56.74 L
108.154 56.707 L
108.588 56.672 L
109.022 56.634 L
109.456 56.594 L
109.89 56.553 L
110.324 56.512 L
110.758 56.469 L
111.192 56.426 L
111.626 56.383 L
112.06 56.341 L
112.494 56.299 L
112.928 56.258 L
113.362 56.218 L
113.796 56.18 L
114.23 56.144 L
114.664 56.109 L
115.098 56.077 L
115.532 56.048 L
115.966 56.021 L
116.4 55.997 L
116.834 55.976 L
117.268 55.958 L
117.702 55.944 L
118.136 55.933 L
118.57 55.926 L
119.004 55.923 L
119.438 55.924 L
119.872 55.929 L
120.306 55.938 L
120.74 55.951 L
121.174 55.969 L
121.608 55.991 L
122.042 56.017 L
122.476 56.048 L
122.91 56.083 L
123.344 56.124 L
123.778 56.168 L
124.212 56.218 L
124.646 56.272 L
125.08 56.331 L
125.514 56.394 L
125.948 56.463 L
126.382 56.536 L
126.816 56.614 L
127.25 56.696 L
127.684 56.784 L
128.118 56.876 L
128.552 56.972 L
128.986 57.074 L
129.42 57.18 L
129.854 57.29 L
130.288 57.406 L
130.722 57.525 L
131.156 57.65 L
131.59 57.778 L
132.024 57.911 L
132.458 58.049 L
132.892 58.191 L
133.326 58.336 L
133.76 58.487 L
134.194 58.641 L
134.628 58.799 L
135.062 58.961 L
135.496 59.127 L
135.93 59.297 L
136.364 59.471 L
136.798 59.648 L
137.232 59.828 L
137.666 60.013 L
138.1 60.2 L
138.534 60.391 L
138.968 60.585 L
139.402 60.781 L
139.836 60.981 L
140.27 61.184 L
140.704 61.389 L
141.138 61.597 L
141.572 61.808 L
142.006 62.021 L
142.44 62.236 L
142.874 62.454 L
143.308 62.673 L
143.742 62.895 L
144.176 63.118 L
144.61 63.343 L
145.044 63.57 L
145.478 63.798 L
145.912 64.028 L
146.346 64.259 L
146.78 64.491 L
147.214 64.725 L
147.648 64.959 L
148.082 65.195 L
148.516 65.431 L
148.95 65.669 L
149.384 65.907 L
149.818 66.146 L
150.252 66.385 L
150.686 66.625 L
151.12 66.866 L
151.554 67.107 L
151.988 67.349 L
152.422 67.591 L
152.856 67.834 L
153.29 68.077 L
153.724 68.321 L
154.158 68.565 L
154.592 68.81 L
155.026 69.055 L
155.46 69.301 L
155.894 69.547 L
156.328 69.794 L
156.762 70.042 L
157.196 70.291 L
157.63 70.541 L
158.064 70.792 L
158.498 71.044 L
158.932 71.297 L
159.366 71.552 L
159.8 71.808 L
160.234 72.066 L
160.668 72.325 L
161.102 72.587 L
161.536 72.85 L
161.97 73.116 L
162.404 73.385 L
162.838 73.656 L
163.272 73.93 L
163.706 74.207 L
164.14 74.488 L
164.574 74.772 L
165.008 75.059 L
165.442 75.351 L
165.876 75.647 L
166.31 75.947 L
166.744 76.252 L
167.178 76.562 L
167.612 76.877 L
168.046 77.198 L
168.48 77.524 L
168.914 77.857 L
169.348 78.196 L
169.782 78.541 L
170.216 78.894 L
170.65 79.253 L
171.084 79.621 L
171.518 79.996 L
171.952 80.379 L
172.386 80.771 L
172.82 81.171 L
173.254 81.581 L
173.688 82 L
174.122 82.429 L
174.556 82.869 L
174.99 83.319 L
175.424 83.779 L
175.858 84.251 L
176.292 84.735 L
176.726 85.231 L
177.16 85.739 L
177.594 86.26 L
178.028 86.794 L
178.462 87.342 L
178.896 87.904 L
179.33 88.48 L
179.764 89.071 L
180.198 89.678 L
180.632 90.3 L
181.066 90.939 L
181.5 91.594 L
181.934 92.266 L
182.368 92.955 L
182.802 93.663 L
183.236 94.389 L
183.67 95.134 L
184.104 95.899 L
184.538 96.683 L
184.972 97.488 L
185.406 98.314 L
185.84 99.161 L
186.274 100.03 L
186.708 100.922 L
187.142 101.836 L
187.576 102.773 L
188.01 103.735 L
188.444 104.721 L
188.878 105.731 L
189.312 106.767 L
189.746 107.828 L
190.18 108.916 L
190.614 110.03 L
191.048 111.171 L
191.482 112.339 L
191.916 113.535 L
192.35 114.758 L
192.784 116.01 L
193.218 117.289 L
193.652 118.597 L
194.086 119.932 L
194.52 121.296 L
194.954 122.688 L
195.388 124.107 L
195.822 125.553 L
196.256 127.025 L
196.69 128.523 L
197.124 130.045 L
197.558 131.59 L
197.992 133.156 L
198.426 134.742 L
198.86 136.346 L
199.294 137.964 L
199.728 139.594 L
200.162 141.232 L
200.596 142.875 L
201.03 144.517 L
201.464 146.154 L
201.898 147.781 L
202.332 149.39 L
202.766 150.975 L
203.2 152.529 L
203.634 154.043 L
204.068 155.509 L
204.502 156.918 L
204.936 158.261 L
205.37 159.528 L
205.804 160.709 L
206.238 161.796 L
206.672 162.779 L
207.106 163.65 L
207.54 164.403 L
207.974 165.03 L
208.408 165.528 L
208.842 165.893 L
209.276 166.125 L
209.71 166.223 L
210.144 166.189 L
210.578 166.028 L
211.012 165.744 L
211.446 165.344 L
211.88 164.837 L
212.314 164.229 L
212.748 163.531 L
213.182 162.752 L
213.616 161.901 L
214.05 160.988 L
214.484 160.023 L
214.918 159.013 L
215.352 157.968 L
215.786 156.895 L
216.22 155.801 L
216.654 154.694 L
217.088 153.579 L
217.522 152.462 L
217.956 151.347 L
218.39 150.239 L
218.824 149.143 L
219.258 148.06 L
219.692 146.995 L
220.126 145.949 L
220.56 144.926 L
220.994 143.926 L
221.428 142.952 L
221.862 142.005 L
222.296 141.086 L
222.73 140.196 L
223.164 139.335 L
223.598 138.505 L
224.032 137.706 L
224.466 136.939 L
224.9 136.203 L
225.334 135.499 L
225.768 134.828 L
226.202 134.188 L
226.636 133.581 L
227.07 133.006 L
227.504 132.464 L
227.938 131.954 L
228.372 131.476 L
228.806 131.03 L
229.24 130.616 L
229.674 130.235 L
230.108 129.885 L
230.542 129.568 L
230.976 129.282 L
231.41 129.028 L
231.844 128.805 L
232.278 128.614 L
232.712 128.455 L
233.146 128.327 L
233.58 128.231 L
234.014 128.167 L
234.448 128.134 L
234.882 128.133 L
235.316 128.164 L
235.75 128.226 L
236.184 128.32 L
236.618 128.447 L
237.052 128.605 L
237.486 128.796 L
237.92 129.02 L
238.354 129.276 L
238.788 129.565 L
239.222 129.888 L
239.656 130.244 L
240.09 130.635 L
240.524 131.059 L
240.958 131.518 L
241.392 132.012 L
241.826 132.542 L
242.26 133.108 L
242.694 133.71 L
243.128 134.349 L
243.562 135.025 L
243.996 135.739 L
244.43 136.492 L
244.864 137.285 L
245.298 138.117 L
245.732 138.989 L
246.166 139.903 L
246.6 140.859 L
247.034 141.857 L
247.468 142.899 L
247.902 143.985 L
248.336 145.115 L
248.77 146.291 L
249.204 147.514 L
249.638 148.783 L
250.072 150.101 L
250.506 151.466 L
250.94 152.881 L
251.374 154.346 L
251.808 155.86 L
252.242 157.425 L
252.676 159.04 L
253.11 160.705 L
253.544 162.421 L
253.978 164.187 L
254.412 166.001 L
254.846 167.862 L
255.28 169.769 L
255.714 171.72 L
256.148 173.71 L
256.582 175.736 L
257.016 177.792 L
257.45 179.873 L
257.884 181.97 L
258.318 184.075 L
258.752 186.176 L
259.186 188.261 L
259.62 190.313 L
260.054 192.317 L
260.488 194.252 L
260.922 196.097 L
261.356 197.829 L
261.79 199.423 L
262.224 200.854 L
262.658 202.098 L
263.092 203.131 L
263.526 203.932 L
263.96 204.486 L
264.394 204.781 L
264.828 204.81 L
265.262 204.575 L
265.696 204.082 L
266.13 203.344 L
266.564 202.378 L
266.998 201.205 L
267.432 199.849 L
267.866 198.335 L
268.3 196.687 L
268.734 194.93 L
269.168 193.086 L
269.602 191.177 L
270.036 189.221 L
270.47 187.236 L
270.904 185.235 L
271.338 183.232 L
271.772 181.236 L
272.206 179.257 L
272.64 177.302 L
273.074 175.377 L
273.508 173.487 L
273.942 171.635 L
274.376 169.824 L
274.81 168.058 L
275.244 166.337 L
275.678 164.662 L
276.112 163.034 L
276.546 161.454 L
276.98 159.922 L
277.414 158.437 L
277.848 157 L
278.282 155.609 L
278.716 154.264 L
279.15 152.965 L
279.584 151.711 L
280.018 150.5 L
280.452 149.333 L
280.886 148.208 L
281.32 147.124 L
281.754 146.08 L
282.188 145.075 L
282.622 144.11 L
283.056 143.181 L
283.49 142.29 L
283.924 141.434 L
284.358 140.613 L
284.792 139.826 L
285.226 139.072 L
285.66 138.351 L
286.094 137.661 L
286.528 137.001 L
286.962 136.372 L
287.396 135.771 L
287.83 135.199 L
288.264 134.654 L
288.698 134.136 L
289.132 133.644 L
289.566 133.177 L
290 132.735 L
290.434 132.316 L
290.868 131.921 L
291.302 131.548 L
291.736 131.197 L
292.17 130.868 L
292.604 130.558 L
293.038 130.269 L
293.472 129.999 L
293.906 129.747 L
294.34 129.513 L
294.774 129.297 L
295.208 129.097 L
295.642 128.913 L
296.076 128.745 L
296.51 128.591 L
296.944 128.451 L
297.378 128.325 L
297.812 128.212 L
298.246 128.112 L
298.68 128.023 L
299.114 127.945 L
299.548 127.877 L
299.982 127.82 L
300.416 127.772 L
300.85 127.732 L
301.284 127.701 L
301.718 127.677 L
302.152 127.66 L
302.586 127.649 L
303.02 127.644 L
303.454 127.645 L
303.888 127.65 L
304.322 127.659 L
304.756 127.672 L
305.19 127.688 L
305.624 127.707 L
306.058 127.727 L
306.492 127.75 L
306.926 127.773 L
307.36 127.798 L
307.794 127.823 L
308.228 127.847 L
308.662 127.872 L
309.096 127.896 L
309.53 127.918 L
309.964 127.94 L
310.398 127.96 L
310.832 127.978 L
311.266 127.995 L
311.7 128.009 L
312.134 128.021 L
312.568 128.031 L
313.002 128.038 L
313.436 128.043 L
313.87 128.045 L
314.304 128.045 L
314.738 128.043 L
315.172 128.039 L
315.606 128.032 L
316.04 128.024 L
316.474 128.014 L
316.908 128.002 L
317.342 127.988 L
317.776 127.974 L
318.21 127.959 L
318.644 127.944 L
319.078 127.928 L
319.512 127.912 L
319.946 127.897 L
320.38 127.883 L
320.814 127.869 L
321.248 127.858 L
321.682 127.848 L
322.116 127.841 L
322.55 127.837 L
322.984 127.836 L
323.418 127.838 L
323.852 127.845 L
324.286 127.856 L
324.72 127.871 L
325.154 127.892 L
325.588 127.919 L
326.022 127.951 L
326.456 127.99 L
326.89 128.035 L
327.324 128.088 L
327.758 128.147 L
328.192 128.215 L
328.626 128.29 L
329.06 128.373 L
329.494 128.465 L
329.928 128.566 L
330.362 128.675 L
330.796 128.793 L
331.23 128.921 L
331.664 129.058 L
332.098 129.204 L
332.532 129.36 L
332.966 129.525 L
333.4 129.699 L
333.834 129.883 L
334.268 130.077 L
334.702 130.279 L
335.136 130.491 L
335.57 130.712 L
336.004 130.941 L
336.438 131.179 L
336.872 131.424 L
337.306 131.678 L
337.74 131.938 L
338.174 132.205 L
338.608 132.479 L
339.042 132.758 L
339.476 133.042 L
339.91 133.33 L
340.344 133.622 L
340.778 133.917 L
341.212 134.213 L
341.646 134.511 L
342.08 134.808 L
342.514 135.105 L
342.948 135.399 L
343.382 135.69 L
343.816 135.977 L
344.25 136.259 L
344.684 136.533 L
345.118 136.799 L
345.552 137.057 L
345.986 137.303 L
346.42 137.538 L
346.854 137.759 L
347.288 137.966 L
347.722 138.157 L
348.156 138.332 L
348.59 138.488 L
349.024 138.625 L
349.458 138.742 L
349.892 138.838 L
350.326 138.912 L
350.76 138.963 L
351.194 138.991 L
351.628 138.995 L
352.062 138.974 L
352.496 138.929 L
352.93 138.86 L
353.364 138.766 L
353.798 138.647 L
354.232 138.505 L
354.666 138.339 L
355.1 138.15 L
355.534 137.938 L
355.968 137.706 L
356.402 137.453 L
356.836 137.182 L
357.27 136.892 L
357.704 136.586 L
358.138 136.265 L
358.572 135.93 L
359.006 135.583 L
359.44 135.226 L
359.874 134.859 L
360.308 134.486 L
360.742 134.107 L
361.176 133.725 L
361.61 133.34 L
362.044 132.955 L
362.478 132.571 L
362.912 132.191 L
363.346 131.815 L
363.78 131.445 L
364.214 131.084 L
364.648 130.732 L
365.082 130.391 L
365.516 130.062 L
365.95 129.748 L
366.384 129.449 L
366.818 129.167 L
367.252 128.903 L
367.686 128.659 L
368.12 128.436 L
368.554 128.236 L
368.988 128.059 L
369.422 127.907 L
369.856 127.782 L
370.29 127.684 L
370.724 127.614 L
371.158 127.575 L
371.592 127.568 L
372.026 127.593 L
372.46 127.652 L
372.894 127.747 L
373.328 127.878 L
373.762 128.047 L
374.196 128.257 L
374.63 128.507 L
375.064 128.8 L
375.498 129.138 L
375.932 129.521 L
376.366 129.952 L
376.8 130.433 L
377.234 130.966 L
377.668 131.552 L
378.102 132.194 L
378.536 132.893 L
378.97 133.653 L
379.404 134.476 L
379.838 135.364 L
380.272 136.32 L
380.706 137.347 L
381.14 138.448 L
381.574 139.626 L
382.008 140.884 L
382.442 142.226 L
382.876 143.654 L
383.31 145.173 L
383.744 146.786 L
384.178 148.495 L
384.612 150.304 L
385.046 152.217 L
385.48 154.234 L
385.914 156.357 L
386.348 158.586 L
386.782 160.919 L
387.216 163.353 L
387.65 165.88 L
388.084 168.488 L
388.518 171.16 L
388.952 173.871 L
389.386 176.587 L
389.82 179.262 L
390.254 181.838 L
390.688 184.24 L
391.122 186.382 L
391.556 188.165 L
391.99 189.486 L
392.424 190.247 L
392.858 190.368 L
393.292 189.799 L
393.726 188.531 L
394.16 186.593 L
394.594 184.052 L
395.028 181.001 L
395.462 177.541 L
395.896 173.776 L
396.33 169.802 L
396.764 165.7 L
397.198 161.537 L
397.632 157.367 L
398.066 153.232 L
398.5 149.161 L
398.934 145.176 L
399.368 141.294 L
399.802 137.523 L
400.236 133.871 L
400.67 130.341 L
401.104 126.933 L
401.538 123.649 L
401.972 120.486 L
402.406 117.442 L
402.84 114.514 L
403.274 111.7 L
403.708 108.996 L
404.142 106.398 L
404.576 103.904 L
405.01 101.509 L
405.444 99.21 L
405.878 97.003 L
406.312 94.885 L
406.746 92.853 L
407.18 90.904 L
407.614 89.034 L
408.048 87.24 L
408.482 85.519 L
408.916 83.869 L
409.35 82.287 L
409.784 80.769 L
410.218 79.314 L
410.652 77.919 L
411.086 76.581 L
411.52 75.299 L
411.954 74.069 L
412.388 72.89 L
412.822 71.76 L
413.256 70.677 L
413.69 69.639 L
414.124 68.643 L
414.558 67.689 L
414.992 66.774 L
415.426 65.898 L
415.86 65.057 L
416.294 64.252 L
416.728 63.48 L
417.162 62.739 L
417.596 62.03 L
418.03 61.35 L
418.464 60.698 L
418.898 60.074 L
419.332 59.475 L
419.766 58.901 L
420.2 58.351 L
420.634 57.824 L
421.068 57.319 L
421.502 56.836 L
421.936 56.372 L
422.37 55.928 L
422.804 55.503 L
423.238 55.096 L
423.672 54.706 L
424.106 54.333 L
424.54 53.976 L
424.974 53.634 L
425.408 53.307 L
425.842 52.994 L
426.276 52.696 L
426.71 52.41 L
427.144 52.138 L
427.578 51.878 L
428.012 51.629 L
428.446 51.393 L
428.88 51.167 L
429.314 50.953 L
429.748 50.749 L
430.182 50.555 L
430.616 50.371 L
431.05 50.197 L
431.484 50.032 L
431.918 49.876 L
432.352 49.729 L
432.786 49.59 L
433.22 49.46 L
433.654 49.338 L
434.088 49.224 L
434.522 49.118 L
434.956 49.02 L
435.39 48.929 L
435.824 48.845 L
436.258 48.769 L
436.692 48.7 L
437.126 48.638 L
437.56 48.582 L
437.994 48.534 L
438.428 48.492 L
438.862 48.457 L
439.296 48.429 L
439.73 48.407 L
440.164 48.391 L
440.598 48.382 L
441.032 48.38 L
441.466 48.384 L
441.9 48.394 L
442.334 48.41 L
442.768 48.433 L
443.202 48.462 L
443.636 48.498 L
444.07 48.54 L
444.504 48.588 L
444.938 48.643 L
445.372 48.704 L
445.806 48.772 L
446.24 48.847 L
446.674 48.927 L
447.108 49.015 L
447.542 49.109 L
447.976 49.211 L
448.41 49.319 L
448.844 49.433 L
449.278 49.555 L
449.712 49.684 L
450.146 49.82 L
450.58 49.964 L
451.014 50.114 L
451.448 50.272 L
451.882 50.438 L
452.316 50.611 L
452.75 50.792 L
453.184 50.98 L
453.618 51.176 L
454.052 51.38 L
454.486 51.592 L
454.92 51.812 L
455.354 52.039 L
455.788 52.275 L
456.222 52.518 L
456.656 52.769 L
457.09 53.028 L
457.524 53.295 L
457.958 53.569 L
458.392 53.851 L
458.826 54.14 L
459.26 54.437 L
459.694 54.74 L
460.128 55.049 L
460.562 55.365 L
460.996 55.686 L
461.43 56.012 L
461.864 56.343 L
462.298 56.678 L
462.732 57.016 L
463.166 57.357 L
463.6 57.699 L
464.034 58.042 L
464.468 58.385 L
464.902 58.726 L
465.336 59.065 L
465.77 59.399 L
466.204 59.728 L
466.638 60.05 L
467.072 60.364 L
467.506 60.668 L
467.94 60.961 L
468.374 61.241 L
468.808 61.505 L
469.242 61.754 L
469.676 61.984 L
470.11 62.194 L
470.544 62.384 L
470.978 62.55 L
471.412 62.693 L
471.846 62.811 L
472.28 62.902 L
472.714 62.967 L
473.148 63.003 L
473.582 63.012 L
474.016 62.992 L
474.45 62.944 L
474.884 62.867 L
475.318 62.763 L
475.752 62.631 L
476.186 62.473 L
476.62 62.289 L
477.054 62.082 L
477.488 61.851 L
477.922 61.598 L
478.356 61.326 L
478.79 61.036 L
479.224 60.729 L
479.658 60.407 L
480.092 60.072 L
480.526 59.725 L
480.96 59.369 L
481.394 59.005 L
481.828 58.635 L
482.262 58.26 L
482.696 57.881 L
483.13 57.501 L
483.564 57.12 L
483.998 56.74 L
484.432 56.362 L
484.866 55.986 L
485.3 55.614 L
485.734 55.247 L
486.168 54.886 L
486.602 54.53 L
487.036 54.181 L
487.47 53.839 L
487.904 53.504 L
488.338 53.178 L
488.772 52.86 L
489.206 52.55 L
489.64 52.249 L
490.074 51.957 L
490.508 51.674 L
490.942 51.4 L
491.376 51.135 L
491.81 50.879 L
492.244 50.632 L
492.678 50.394 L
493.112 50.166 L
493.546 49.946 L
493.98 49.735 L
494.414 49.532 L
494.848 49.339 L
495.282 49.154 L
495.716 48.977 L
496.15 48.809 L
496.584 48.648 L
497.018 48.496 L
497.452 48.35 L
497.886 48.211 L
498.32 48.08 L
498.754 47.959 L
499.188 47.845 L
499.622 47.738 L
500.056 47.639 L
500.49 47.547 L
500.924 47.462 L
501.358 47.383 L
501.792 47.312 L
502.226 47.247 L
502.66 47.188 L
503.094 47.136 L
503.528 47.091 L
503.962 47.052 L
504.396 47.019 L
504.83 46.993 L
505.264 46.972 L
505.698 46.958 L
506.132 46.95 L
506.566 46.948 L
507 46.953 L
S
GR
GS
[0.75 0 0 0.75 54.75 35.34317] CT
0.851 0.325 0.098 RC
10.0 ML
2.667 LW
N
-3.3 -3.3 M
3.3 3.3 L
-3.3 3.3 M
3.3 -3.3 L
S
GR
GS
[0.75 0 0 0.75 64.51501 38.42481] CT
0.851 0.325 0.098 RC
10.0 ML
2.667 LW
N
-3.3 -3.3 M
3.3 3.3 L
-3.3 3.3 M
3.3 -3.3 L
S
GR
GS
[0.75 0 0 0.75 74.28004 42.2473] CT
0.851 0.325 0.098 RC
10.0 ML
2.667 LW
N
-3.3 -3.3 M
3.3 3.3 L
-3.3 3.3 M
3.3 -3.3 L
S
GR
GS
[0.75 0 0 0.75 84.04505 42.25545] CT
0.851 0.325 0.098 RC
10.0 ML
2.667 LW
N
-3.3 -3.3 M
3.3 3.3 L
-3.3 3.3 M
3.3 -3.3 L
S
GR
GS
[0.75 0 0 0.75 93.80996 42.2481] CT
0.851 0.325 0.098 RC
10.0 ML
2.667 LW
N
-3.3 -3.3 M
3.3 3.3 L
-3.3 3.3 M
3.3 -3.3 L
S
GR
GS
[0.75 0 0 0.75 103.57498 45.14999] CT
0.851 0.325 0.098 RC
10.0 ML
2.667 LW
N
-3.3 -3.3 M
3.3 3.3 L
-3.3 3.3 M
3.3 -3.3 L
S
GR
GS
[0.75 0 0 0.75 113.34 50.1494] CT
0.851 0.325 0.098 RC
10.0 ML
2.667 LW
N
-3.3 -3.3 M
3.3 3.3 L
-3.3 3.3 M
3.3 -3.3 L
S
GR
GS
[0.75 0 0 0.75 123.10501 55.86573] CT
0.851 0.325 0.098 RC
10.0 ML
2.667 LW
N
-3.3 -3.3 M
3.3 3.3 L
-3.3 3.3 M
3.3 -3.3 L
S
GR
GS
[0.75 0 0 0.75 132.87003 64.30421] CT
0.851 0.325 0.098 RC
10.0 ML
2.667 LW
N
-3.3 -3.3 M
3.3 3.3 L
-3.3 3.3 M
3.3 -3.3 L
S
GR
GS
[0.75 0 0 0.75 142.63504 81.68705] CT
0.851 0.325 0.098 RC
10.0 ML
2.667 LW
N
-3.3 -3.3 M
3.3 3.3 L
-3.3 3.3 M
3.3 -3.3 L
S
GR
GS
[0.75 0 0 0.75 152.39996 114.39654] CT
0.851 0.325 0.098 RC
10.0 ML
2.667 LW
N
-3.3 -3.3 M
3.3 3.3 L
-3.3 3.3 M
3.3 -3.3 L
S
GR
GS
[0.75 0 0 0.75 162.16498 116.85086] CT
0.851 0.325 0.098 RC
10.0 ML
2.667 LW
N
-3.3 -3.3 M
3.3 3.3 L
-3.3 3.3 M
3.3 -3.3 L
S
GR
GS
[0.75 0 0 0.75 171.92999 97.96228] CT
0.851 0.325 0.098 RC
10.0 ML
2.667 LW
N
-3.3 -3.3 M
3.3 3.3 L
-3.3 3.3 M
3.3 -3.3 L
S
GR
GS
[0.75 0 0 0.75 181.69501 99.83073] CT
0.851 0.325 0.098 RC
10.0 ML
2.667 LW
N
-3.3 -3.3 M
3.3 3.3 L
-3.3 3.3 M
3.3 -3.3 L
S
GR
GS
[0.75 0 0 0.75 191.46002 127.32711] CT
0.851 0.325 0.098 RC
10.0 ML
2.667 LW
N
-3.3 -3.3 M
3.3 3.3 L
-3.3 3.3 M
3.3 -3.3 L
S
GR
GS
[0.75 0 0 0.75 201.22504 147.51533] CT
0.851 0.325 0.098 RC
10.0 ML
2.667 LW
N
-3.3 -3.3 M
3.3 3.3 L
-3.3 3.3 M
3.3 -3.3 L
S
GR
GS
[0.75 0 0 0.75 210.98996 110.34263] CT
0.851 0.325 0.098 RC
10.0 ML
2.667 LW
N
-3.3 -3.3 M
3.3 3.3 L
-3.3 3.3 M
3.3 -3.3 L
S
GR
GS
[0.75 0 0 0.75 220.75497 97.13494] CT
0.851 0.325 0.098 RC
10.0 ML
2.667 LW
N
-3.3 -3.3 M
3.3 3.3 L
-3.3 3.3 M
3.3 -3.3 L
S
GR
GS
[0.75 0 0 0.75 230.51999 95.84831] CT
0.851 0.325 0.098 RC
10.0 ML
2.667 LW
N
-3.3 -3.3 M
3.3 3.3 L
-3.3 3.3 M
3.3 -3.3 L
S
GR
GS
[0.75 0 0 0.75 240.285 95.91196] CT
0.851 0.325 0.098 RC
10.0 ML
2.667 LW
N
-3.3 -3.3 M
3.3 3.3 L
-3.3 3.3 M
3.3 -3.3 L
S
GR
GS
[0.75 0 0 0.75 250.05002 97.27453] CT
0.851 0.325 0.098 RC
10.0 ML
2.667 LW
N
-3.3 -3.3 M
3.3 3.3 L
-3.3 3.3 M
3.3 -3.3 L
S
GR
GS
[0.75 0 0 0.75 259.81503 103.15329] CT
0.851 0.325 0.098 RC
10.0 ML
2.667 LW
N
-3.3 -3.3 M
3.3 3.3 L
-3.3 3.3 M
3.3 -3.3 L
S
GR
GS
[0.75 0 0 0.75 269.57996 101.41918] CT
0.851 0.325 0.098 RC
10.0 ML
2.667 LW
N
-3.3 -3.3 M
3.3 3.3 L
-3.3 3.3 M
3.3 -3.3 L
S
GR
GS
[0.75 0 0 0.75 279.34497 95.73903] CT
0.851 0.325 0.098 RC
10.0 ML
2.667 LW
N
-3.3 -3.3 M
3.3 3.3 L
-3.3 3.3 M
3.3 -3.3 L
S
GR
GS
[0.75 0 0 0.75 289.10999 115.67513] CT
0.851 0.325 0.098 RC
10.0 ML
2.667 LW
N
-3.3 -3.3 M
3.3 3.3 L
-3.3 3.3 M
3.3 -3.3 L
S
GR
GS
[0.75 0 0 0.75 298.875 111.87049] CT
0.851 0.325 0.098 RC
10.0 ML
2.667 LW
N
-3.3 -3.3 M
3.3 3.3 L
-3.3 3.3 M
3.3 -3.3 L
S
GR
GS
[0.75 0 0 0.75 308.64001 56.47399] CT
0.851 0.325 0.098 RC
10.0 ML
2.667 LW
N
-3.3 -3.3 M
3.3 3.3 L
-3.3 3.3 M
3.3 -3.3 L
S
GR
GS
[0.75 0 0 0.75 318.40503 40.48172] CT
0.851 0.325 0.098 RC
10.0 ML
2.667 LW
N
-3.3 -3.3 M
3.3 3.3 L
-3.3 3.3 M
3.3 -3.3 L
S
GR
GS
[0.75 0 0 0.75 328.17004 36.43686] CT
0.851 0.325 0.098 RC
10.0 ML
2.667 LW
N
-3.3 -3.3 M
3.3 3.3 L
-3.3 3.3 M
3.3 -3.3 L
S
GR
GS
[0.75 0 0 0.75 337.93497 37.47279] CT
0.851 0.325 0.098 RC
10.0 ML
2.667 LW
N
-3.3 -3.3 M
3.3 3.3 L
-3.3 3.3 M
3.3 -3.3 L
S
GR
GS
[0.75 0 0 0.75 347.69998 43.27451] CT
0.851 0.325 0.098 RC
10.0 ML
2.667 LW
N
-3.3 -3.3 M
3.3 3.3 L
-3.3 3.3 M
3.3 -3.3 L
S
GR
GS
[0.75 0 0 0.75 357.465 46.71708] CT
0.851 0.325 0.098 RC
10.0 ML
2.667 LW
N
-3.3 -3.3 M
3.3 3.3 L
-3.3 3.3 M
3.3 -3.3 L
S
GR
GS
[0.75 0 0 0.75 367.23001 39.18687] CT
0.851 0.325 0.098 RC
10.0 ML
2.667 LW
N
-3.3 -3.3 M
3.3 3.3 L
-3.3 3.3 M
3.3 -3.3 L
S
GR
GS
[0.75 0 0 0.75 376.99503 35.39112] CT
0.851 0.325 0.098 RC
10.0 ML
2.667 LW
N
-3.3 -3.3 M
3.3 3.3 L
-3.3 3.3 M
3.3 -3.3 L
S
GR
GS
[0.75 0 0 0.75 0 0] CT
1 GC
N
401 344 M
401 290 L
494 290 L
494 344 L
cp
f
GR
GS
[0.75 0 0 0.75 336 228.27523] CT
/Helvetica 19.2 F
GS
[1 0 0 1 0 0] CT
0 7.5 moveto 
1 -1 scale
(HGA) t 
GR
GR
GS
[0.75 0 0 0.75 0 0] CT
0 0.447 0.741 RC
1 LJ
2.667 LW
N
405 304.367 M
445 304.367 L
S
GR
GS
[0.75 0 0 0.75 318.75 228.27523] CT
0 0.447 0.741 RC
10.0 ML
2.667 LW
N
-4 -4 M
-4 4 L
4 4 L
4 -4 L
cp
S
GR
GS
[0.75 0 0 0.75 336 247.22477] CT
/Helvetica 19.2 F
GS
[1 0 0 1 0 0] CT
0 7.5 moveto 
1 -1 scale
(WA) t 
GR
GR
GS
[0.75 0 0 0.75 0 0] CT
0.851 0.325 0.098 RC
1 LJ
2.667 LW
N
405 329.633 M
445 329.633 L
S
GR
GS
[0.75 0 0 0.75 318.75 247.22477] CT
0.851 0.325 0.098 RC
10.0 ML
2.667 LW
N
-3.3 -3.3 M
3.3 3.3 L
-3.3 3.3 M
3.3 -3.3 L
S
GR
GS
[0.75 0 0 0.75 0 0] CT
0.149 GC
10.0 ML
0.667 LW
N
401 344 M
401 290 L
494 290 L
494 344 L
cp
S
GR
%%Trailer
%%Pages: 1
%%EOF
